strict digraph {
    forcelabels=true;

    // ------------------------
    // Vertices
    // ------------------------

    unresponsive [
        label="Unresponsive patient",
        shape="box",
    ]

    check_breathing [
        label="Is breathing?",
        shape="octagon",
    ]

    rescue_position [
        label="Rescue position",
        shape="box",
    ]

    vitals [
        label=<Continuously monitor<br/>vital signs>,
        shape="box",
    ]

    cpr [
        label="2 minutes CPR",
        shape="box",
    ]

    // ------------------------
    // Edges
    // ------------------------

    unresponsive -> check_breathing
    check_breathing -> rescue_position [label="Yes"]
    rescue_position -> vitals
    check_breathing -> cpr [label="No"]
    cpr -> check_breathing


    // ------------------------
    // Organization / Styling
    // ------------------------

    {
        rank=same;
        unresponsive, check_breathing, rescue_position
    }
}
