<?xml version="1.0" encoding="UTF-8" standalone="no"?>
<svg
   xmlns:dc="http://purl.org/dc/elements/1.1/"
   xmlns:cc="http://creativecommons.org/ns#"
   xmlns:rdf="http://www.w3.org/1999/02/22-rdf-syntax-ns#"
   xmlns:svg="http://www.w3.org/2000/svg"
   xmlns="http://www.w3.org/2000/svg"
   width="280.71719mm"
   height="223.57596mm"
   viewBox="0 0 280.71719 223.57596"
   version="1.1"
   id="svg4611">
  <defs
     id="defs4605" />
  <metadata
     id="metadata4608">
    <rdf:RDF>
      <cc:Work
         rdf:about="">
        <dc:format>image/svg+xml</dc:format>
        <dc:type
           rdf:resource="http://purl.org/dc/dcmitype/StillImage" />
        <dc:title></dc:title>
      </cc:Work>
    </rdf:RDF>
  </metadata>
  <g
     id="layer1"
     transform="translate(30.745547,-23.438214)">
    <path
       style="fill:#000000;stroke-width:0.35277778"
       d="m 41.270308,246.43436 c -0.7218,-0.60662 -1.31376,-3.47673 -1.983351,-9.61623 -0.297397,-2.72687 -0.4826,-2.91998 -2.800459,-2.91998 -1.091695,0 -2.078059,0.0932 -2.191914,0.20701 -0.113856,0.11386 0.06208,2.45902 0.390967,5.21148 0.53113,4.44503 0.538914,5.06353 0.06962,5.53283 -0.378214,0.37822 -0.887939,0.46091 -1.793679,0.29099 -0.695923,-0.13056 -1.275414,-0.26987 -1.287759,-0.30958 -0.01236,-0.0397 -0.09345,-1.26284 -0.18025,-2.71805 -0.247298,-4.14603 -1.160299,-7.43246 -2.334715,-8.40404 -1.08448,-0.89717 -1.29622,-2.19184 -0.47054,-2.8771 0.778295,-0.64593 1.035132,-2.61747 0.483938,-3.71485 -0.451157,-0.89821 -0.61401,-0.94761 -3.296824,-1.00014 l -2.822224,-0.0553 0.0722,1.41111 c 0.03971,0.77612 0.150098,4.03049 0.245314,7.23195 0.09522,3.20146 0.268666,6.62288 0.385445,7.60315 0.17925,1.50469 0.101222,1.88287 -0.500896,2.42778 -0.625253,0.56585 -0.848236,0.58953 -1.807882,0.19203 -2.16417,-0.89642 -2.267035,-1.37394 -2.16553,-10.05247 0.07055,-6.03233 -0.01228,-7.91094 -0.361616,-8.20011 -0.24923,-0.2063 -2.390334,-0.42872 -4.758008,-0.49427 -2.679189,-0.0742 -4.4612741,-0.27594 -4.7190371,-0.53431 -0.583094,-0.58447 -0.118713,-2.11904 0.8274211,-2.73422 0.982028,-0.63853 9.298943,-1.3952 14.207879,-1.29264 3.360923,0.0702 3.591735,0.0279 4.516091,-0.8288 1.105408,-1.02446 1.108173,-1.02525 1.976893,-0.56032 0.95886,0.51316 1.838494,3.03692 2.089152,5.994 0.222078,2.61988 0.2285,2.63341 1.35863,2.8636 1.484474,0.30237 2.928657,0.011 3.17898,-0.64128 0.109762,-0.28604 -0.08731,-2.08362 -0.437944,-3.99462 -0.521393,-2.84167 -0.555154,-3.57379 -0.185356,-4.01937 0.66385,-0.79989 1.68213,-0.6646 2.319514,0.30817 1.064403,1.62449 4.384038,19.56658 4.392518,23.74085 0.0028,1.46015 -0.137036,1.91501 -0.678628,2.20486 -0.881642,0.47184 -0.875376,0.47275 -1.737944,-0.25217 z m 86.292502,-1.38726 c -1.5407,-1.157 -3.79164,-4.18528 -3.79164,-5.10106 0,-0.93579 -1.14011,-3.15641 -1.55036,-3.01966 -0.19529,0.0651 -1.20981,1.73493 -2.25447,3.71074 l -1.8994,3.59238 h -1.39725 c -1.69483,0 -2.28913,-0.56955 -4.64111,-4.44783 -0.92864,-1.53126 -2.19864,-3.56157 -2.82223,-4.51179 -1.74498,-2.65902 -2.60109,-4.08898 -3.78263,-6.31818 l -1.08584,-2.04864 -3.42433,0.24247 c -1.883368,0.13335 -3.554588,0.31747 -3.713798,0.40914 -0.32615,0.1878 0.0297,2.77783 0.50646,3.68635 0.3848,0.73327 0.92838,0.91055 4.031038,1.3146 4.35283,0.56686 6.995,2.3039 5.76278,3.78863 -0.38854,0.46816 -1.11285,0.51092 -4.99578,0.29495 l -4.541348,-0.2526 0.24536,1.71659 c 0.13495,0.94412 0.3488,1.83064 0.47523,1.97004 0.12643,0.1394 2.100948,0.31834 4.387828,0.39764 3.73423,0.12949 4.24525,0.22619 5.01451,0.94887 1.09674,1.03033 1.36135,1.8892 0.86677,2.81332 -0.61929,1.15716 -1.8517,1.43827 -4.68601,1.06886 -4.820398,-0.62827 -9.870698,-1.71316 -10.175978,-2.18599 -0.1683,-0.26066 -0.4008,-1.03947 -0.51667,-1.73068 -0.19217,-1.14638 -0.2994,-1.24373 -1.22081,-1.1085 -1.09044,0.16004 -6.03999,-2.23591 -7.03979,-3.40779 -0.71566,-0.83884 -3.61439,-2.51724 -4.34747,-2.51724 -0.70113,0 -0.70257,0.10258 -0.0518,3.70417 0.74853,4.14289 0.69268,4.92347 -0.40369,5.64184 -0.70828,0.46409 -1.18607,0.53355 -2.0216,0.29393 -1.5646,-0.44873 -2.33282,-2.7183 -2.72564,-8.05244 -0.58465,-7.93928 -1.21443,-10.05417 -2.99398,-10.05417 -0.49023,0 -1.36954,-0.24729 -1.95401,-0.54953 -1.53059,-0.7915 -1.28319,-1.95176 0.54343,-2.54854 0.7623,-0.24905 1.59203,-0.74698 1.84386,-1.10651 0.57806,-0.8253 1.9451,-1.18006 3.00747,-0.78048 0.50585,0.19026 1.89572,0.13027 3.64046,-0.15712 7.05313,-1.16179 10.40694,-0.18753 10.40694,3.02314 0,1.11684 -2.7636,4.54424 -4.29347,5.32472 -0.74304,0.37907 -1.35069,0.88443 -1.35034,1.12302 2.6e-4,0.23859 0.75441,0.89761 1.67569,1.46449 2.99718,1.84418 5.04134,3.52238 5.7467,4.71788 0.38029,0.64454 0.83863,1.08092 1.01854,0.96973 0.39127,-0.24182 0.26091,-4.05721 -0.24763,-7.24746 -0.43868,-2.75204 -0.36491,-6.20624 0.1434,-6.71456 0.46458,-0.46458 6.68089,-0.71001 11.037988,-0.43579 l 3.32393,0.20919 1.52677,1.59341 c 0.83972,0.87638 1.52676,1.73267 1.52676,1.90287 0,1.19365 5.15779,9.74917 5.89485,9.77812 0.23474,0.009 0.73454,-0.9796 1.11067,-2.19737 0.37613,-1.21777 1.33504,-3.19448 2.13091,-4.39268 0.81494,-1.22692 1.61737,-2.97276 1.83696,-3.9967 0.479,-2.2335 1.43078,-3.29466 2.73166,-3.04561 0.51437,0.0985 2.04648,0.3665 3.40467,0.59561 3.2442,0.54723 6.36952,2.29205 8.54136,4.76849 0.92905,1.05936 1.81194,1.92812 1.96197,1.93057 0.15003,0.002 0.22941,-1.68121 0.17639,-3.74146 -0.11441,-4.44619 0.0927,-4.76532 2.58158,-3.97803 1.47317,0.46599 1.56763,0.57589 1.78742,2.07949 0.12763,0.87313 0.34858,4.20688 0.491,7.40834 0.14242,3.20145 0.38156,6.15252 0.53142,6.55792 0.24187,0.6543 0.48952,0.71909 2.20473,0.57685 1.90586,-0.15804 1.95686,-0.137 3.73444,1.5407 3.19813,3.01845 2.23238,4.33734 -2.76571,3.77704 -2.70466,-0.30321 -2.95294,-0.27393 -3.95664,0.46657 -0.58899,0.43454 -1.29993,0.70219 -1.57987,0.59477 -1.06478,-0.4086 -2.31337,-3.81745 -2.31337,-6.31589 0,-1.75971 -0.50352,-1.78412 -1.37552,-0.0667 -0.42216,0.83147 -1.06325,1.89036 -1.42463,2.35309 -0.38118,0.48807 -0.65707,1.41102 -0.65707,2.19814 0,1.47223 -0.053,1.50515 -2.99861,1.86396 -0.77611,0.0945 -1.88736,0.27099 -2.46945,0.39211 -0.82644,0.17196 -1.34835,0.002 -2.38197,-0.77377 z m 3.73687,-5.97712 c 0.70413,-0.33577 1.44009,-1.07173 1.77586,-1.77586 0.62202,-1.30437 0.77278,-3.83587 0.24778,-4.16035 -0.17911,-0.11069 -0.42791,-0.66685 -0.55289,-1.23592 -0.29131,-1.3263 -2.79434,-3.62422 -3.78678,-3.47647 -1.6855,0.25094 -2.21831,5.98592 -0.81343,8.75538 0.57607,1.1356 1.55669,2.46663 1.81727,2.46663 0.0604,0 0.65085,-0.25803 1.31219,-0.57341 z M 81.985932,226.44995 c 0.95973,-0.46541 2.34028,-1.03335 3.06788,-1.26208 1.4726,-0.46292 1.65672,-0.86323 0.64586,-1.40423 -1.16371,-0.6228 -6.71378,0.34825 -7.51615,1.31504 -0.26845,0.32346 -0.26272,0.70574 0.0199,1.32599 0.50856,1.11616 1.51911,1.12292 3.78252,0.0253 z m 88.407298,18.56818 c -0.63097,-0.53977 -0.76206,-1.3013 -1.10747,-6.43307 -0.85762,-12.74179 -0.81672,-12.57353 -2.96077,-12.18041 -0.55783,0.10228 -1.23252,0.18596 -1.4993,0.18596 -0.36386,0 -0.48507,0.59738 -0.48507,2.3905 0,4.73333 -0.64583,8.18812 -1.99317,10.66228 -2.0657,3.79329 -2.34528,3.99508 -5.17775,3.73713 -2.95489,-0.2691 -4.18009,-0.87256 -5.51615,-2.71693 -1.96346,-2.71048 -2.82653,-7.10265 -2.72303,-13.8576 0.0704,-4.59556 0.31064,-5.12604 2.11615,-4.67289 1.38913,0.34866 1.75887,1.43477 1.87714,5.51416 0.22153,7.6411 0.78787,9.80369 2.88837,11.02928 1.04975,0.6125 1.07288,0.60901 1.76125,-0.26611 1.41072,-1.79345 2.04315,-10.09311 0.95326,-12.51007 -0.53533,-1.18714 -0.56141,-1.49999 -0.16485,-1.97781 0.99729,-1.20166 4.05452,-2.19528 9.15378,-2.97503 1.45521,-0.22252 3.36021,-0.62299 4.23333,-0.88994 0.87313,-0.26694 2.38125,-0.5832 3.35139,-0.70279 0.97014,-0.11959 2.34776,-0.46441 3.06139,-0.76626 1.22463,-0.518 1.35535,-0.50763 2.32734,0.18449 0.99741,0.71021 1.03738,0.85319 1.2691,4.54003 0.32165,5.11735 0.9171,8.87897 2.59561,16.39719 0.7577,3.39379 0.54617,4.62014 -0.95052,5.51073 -1.14528,0.68148 -2.35125,-0.22821 -2.83306,-2.13706 -0.20827,-0.82513 -0.532,-1.8649 -0.7194,-2.31059 -0.18741,-0.44569 -0.34074,-1.20216 -0.34074,-1.68102 0,-0.47888 -0.22773,-1.78109 -0.50607,-2.89382 -0.76525,-3.05922 -1.25782,-6.46209 -1.25782,-8.68948 0,-2.3554 -0.39679,-2.66076 -2.53879,-1.95383 l -1.42799,0.47127 0.15898,8.30778 0.15898,8.30778 -0.87618,1.16342 c -1.24708,1.65592 -1.95498,1.95949 -2.82794,1.21271 z m 34.41967,-1.40664 c -0.91524,-1.01134 -1.2093,-2.19121 -1.47253,-5.90838 -0.28343,-4.00256 -0.48748,-5.11528 -0.938,-5.11528 -0.17299,0 -0.31624,0.43657 -0.31833,0.97014 -0.002,0.53358 -0.62736,2.31951 -1.38948,3.96875 -1.71937,3.7207 -2.45082,4.19194 -6.54422,4.2161 -5.6316,0.0332 -8.28476,-2.05915 -8.45529,-6.66816 -0.12748,-3.44545 0.36217,-5.86979 1.75477,-8.6882 1.17977,-2.38767 1.34276,-2.55726 2.86816,-2.98434 1.19616,-0.33491 1.9057,-0.35489 2.72483,-0.0767 0.60914,0.20684 1.71119,0.47927 2.44899,0.6054 0.7378,0.12612 1.4261,0.44988 1.52955,0.71946 0.10344,0.26959 1.03285,1.12796 2.06534,1.9075 1.51033,1.1403 1.99414,1.7692 2.47515,3.21741 0.32884,0.99003 0.67885,1.7191 0.7778,1.62015 0.099,-0.099 0.23853,-1.73637 0.31019,-3.6387 0.14323,-3.80265 0.4549,-4.38595 2.16847,-4.05838 1.20275,0.22992 4.35794,2.83339 7.83935,6.46854 1.46265,1.52724 2.95276,2.77614 3.31136,2.77533 0.59015,-0.001 0.6292,-0.21064 0.41165,-2.20634 -0.13219,-1.21268 -0.46836,-3.6658 -0.74703,-5.4514 -0.48293,-3.09438 -0.37653,-5.9144 0.23748,-6.29387 0.15677,-0.0969 0.91992,-0.0746 1.6959,0.0494 1.21075,0.19361 1.48244,0.40735 1.91549,1.5069 0.53616,1.36136 0.82293,3.05795 1.13507,6.71531 0.10603,1.24245 0.25853,2.36538 0.33887,2.49537 0.0803,0.13001 0.32049,1.65345 0.53365,3.38544 0.21317,1.73198 0.61898,4.04893 0.90181,5.14877 0.91871,3.57255 -0.27816,4.69328 -3.34256,3.12994 -0.74516,-0.38016 -2.063,-1.39936 -2.92855,-2.2649 -2.52423,-2.52424 -7.67207,-6.92169 -8.10281,-6.92169 -0.28389,0 -0.33477,1.47661 -0.18044,5.23641 0.17853,4.34905 0.12465,5.36535 -0.31793,5.99723 -0.64392,0.91932 -1.94199,0.9878 -2.70671,0.14279 z m -9.25145,-6.71336 c 2.36732,-1.97923 2.50077,-4.87291 0.36757,-7.97023 -1.60002,-2.32315 -2.73837,-2.95142 -3.93134,-2.16976 -1.47463,0.96622 -2.03168,2.5539 -2.05725,5.86354 -0.0254,3.29025 0.1888,3.79796 2.09206,4.95837 1.21663,0.74178 2.0093,0.5886 3.52896,-0.68192 z M 47.043368,242.5434 c -0.455941,-0.67099 -0.747363,-1.43268 -0.6476,-1.69266 0.09977,-0.25998 0.02043,-0.99518 -0.176281,-1.63377 -0.19672,-0.6386 -0.46341,-2.24626 -0.592645,-3.5726 -0.168757,-1.7319 -0.424995,-2.57422 -0.909212,-2.98882 -0.807445,-0.69135 -0.857522,-1.45443 -0.156287,-2.38154 1.133586,-1.49874 0.153115,-5.17119 -1.989513,-7.45192 -1.740863,-1.85306 -0.02949,-2.42247 8.293161,-2.75931 5.847331,-0.23666 5.952889,-0.22796 6.790973,0.55938 0.468228,0.43988 0.851318,1.00615 0.851318,1.25838 0,0.81601 -1.868945,1.43188 -5.058656,1.66698 -4.376206,0.32255 -4.521192,0.43238 -4.393795,3.32846 l 0.103841,2.36046 3.880556,0.31798 c 2.134304,0.17488 3.997188,0.49238 4.139737,0.70555 0.400071,0.59828 0.317185,1.77694 -0.170987,2.43148 -0.340778,0.45691 -1.239538,0.63621 -3.955531,0.78916 -1.933009,0.10885 -3.556312,0.23967 -3.60734,0.29069 -0.231547,0.23155 0.383207,3.81268 0.737735,4.29753 0.302684,0.41394 1.42044,0.59411 4.71278,0.75965 4.275574,0.21497 4.329205,0.22832 5.72771,1.42539 1.563944,1.33868 1.651029,1.56927 0.882775,2.33752 -0.632183,0.63218 -2.652911,0.86783 -8.933646,1.04179 l -4.700101,0.13018 z M 155.49284,219.27047 c -0.68294,-2.42039 -0.70087,-19.14134 -0.0214,-19.96014 0.33909,-0.40861 0.95869,-0.55504 2.11667,-0.50021 0.90048,0.0426 3.62161,-0.0527 6.04696,-0.21189 l 4.40973,-0.28942 0.87448,0.93221 0.87449,0.93222 -0.9376,1.65521 c -0.83326,1.47104 -1.10721,1.68141 -2.46198,1.89066 -0.83842,0.12949 -2.58741,0.14718 -3.88665,0.0393 -2.31028,-0.19183 -2.36726,-0.17622 -2.5895,0.70923 -0.12497,0.49796 -0.11542,1.25766 0.0212,1.68823 0.24327,0.76646 0.33541,0.77848 4.40136,0.57405 l 4.1529,-0.20881 0.2166,1.08301 c 0.29991,1.49955 0.28776,1.57882 -0.33776,2.20435 -0.43294,0.43293 -1.35845,0.55436 -4.2252,0.55436 -3.53657,0 -3.6922,0.0326 -4.25485,0.89132 -0.47863,0.73048 -0.55333,1.5286 -0.41395,4.42299 l 0.17006,3.53168 -1.03236,0.86867 c -0.5678,0.47777 -1.39642,0.86868 -1.84139,0.86868 -0.66361,0 -0.89401,-0.30119 -1.28184,-1.6757 z m 30.79736,0.17054 c -0.68274,-0.72674 -0.75879,-1.24909 -0.83465,-5.73264 -0.0459,-2.71317 -0.14906,-5.13056 -0.22922,-5.37199 -0.31805,-0.95784 -0.77738,0.0486 -0.77738,1.7033 0,2.34389 -1.94717,6.30149 -3.40963,6.93004 -1.31228,0.564 -6.10972,0.0591 -7.38632,-0.77735 -1.3459,-0.88188 -2.70781,-4.10977 -2.6634,-6.31262 0.038,-1.88403 0.45877,-3.18 2.19582,-6.76281 0.56813,-1.17184 1.03298,-2.47252 1.03298,-2.89041 0,-0.80391 1.2019,-1.86126 2.10697,-1.85356 1.28153,0.0109 4.55746,2.06663 6.35005,3.98483 1.61637,1.72962 1.90249,2.23429 1.83498,3.23665 -0.044,0.65313 0.0829,1.2882 0.28207,1.41127 0.24046,0.14861 0.36204,-1.32057 0.36204,-4.37505 0,-4.47414 0.0231,-4.61394 0.85276,-5.15755 0.69622,-0.45618 1.11136,-0.48912 2.26142,-0.17944 1.00488,0.27058 2.38416,0.27053 4.81191,-1.8e-4 2.89767,-0.32311 3.65828,-0.29478 5.11977,0.19065 1.95149,0.64818 2.30289,0.9853 2.57645,2.47174 0.33906,1.84243 -0.62612,3.19182 -3.57986,5.00492 -1.48162,0.90945 -2.75615,1.69937 -2.83231,1.75537 -0.35675,0.26234 0.92631,1.24799 2.73222,2.0989 2.21506,1.04369 4.42342,2.47814 6.63673,4.31092 1.74932,1.44857 2.20374,2.99973 1.35793,4.63534 -0.72149,1.39522 -1.53548,1.35483 -3.35647,-0.16656 -0.81282,-0.6791 -1.66128,-1.23499 -1.88546,-1.23531 -0.22418,-2.6e-4 -1.28072,-0.63204 -2.34787,-1.40382 -4.2899,-3.10252 -7.04233,-4.9456 -7.38568,-4.9456 -0.61824,0 -0.80119,1.58486 -0.58195,5.0413 0.1912,3.0145 0.14246,3.41165 -0.52246,4.25697 -0.8991,1.14301 -1.73405,1.18372 -2.72144,0.13269 z m -6.96875,-7.09361 c 1.48329,-1.48328 1.71695,-7.19346 0.3559,-8.69741 -0.94409,-1.0432 -1.92584,-0.73618 -3.12853,0.97837 -1.54088,2.19669 -1.72053,5.19853 -0.42798,7.15168 1.08021,1.63232 1.97673,1.79125 3.20061,0.56736 z m 13.40878,-9.03583 c 2.34709,-1.12016 3.32938,-1.97106 2.79863,-2.42428 -0.6779,-0.57886 -4.63713,-1.1256 -5.5734,-0.76963 -0.77723,0.2955 -0.9204,0.5663 -0.9204,1.74092 0,2.85771 0.41222,3.0198 3.69517,1.45299 z m -68.52778,16.02709 c -0.43123,-0.30204 -0.78406,-0.68858 -0.78406,-0.85898 0,-0.17039 -0.16049,-0.73193 -0.35664,-1.24786 l -0.35665,-0.93806 -1.24313,1.09148 c -0.68372,0.60032 -1.35666,1.0914 -1.49544,1.09131 -0.61646,-2.7e-4 -4.19216,-1.52299 -4.74707,-2.02133 -2.71853,-2.44139 -3.99311,-9.76206 -2.91674,-16.75255 0.44118,-2.86525 1.96171,-3.11457 3.55943,-0.58362 0.85988,1.36215 0.87515,1.49744 0.56083,4.96852 -0.2627,2.90096 -0.21607,4.0286 0.24934,6.02995 0.59154,2.54374 1.41167,3.60417 2.18744,2.82839 0.58115,-0.58114 1.12531,-4.95947 1.21238,-9.75468 0.0601,-3.30898 0.19443,-4.29166 0.64884,-4.74606 0.52889,-0.5289 0.64812,-0.51775 1.54704,0.14463 1.45872,1.07488 3.11081,4.9042 2.97297,6.89093 -0.0358,0.5163 0.11528,1.38943 0.33578,1.94027 0.22051,0.55086 0.67964,2.27155 1.02031,3.82378 0.34067,1.55222 0.82396,3.70872 1.07398,4.79223 0.4162,1.8037 0.39734,2.04848 -0.22335,2.89933 -0.78025,1.06959 -2.06518,1.22888 -3.24526,0.40232 z M 16.182828,217.83432 c -0.867219,-0.86722 -1.02476,-1.35484 -1.225246,-3.79236 -0.126539,-1.53845 -0.334623,-3.19406 -0.462412,-3.67913 -0.127788,-0.48507 -0.238903,-2.20225 -0.24692,-3.81595 -0.01204,-2.4173 -0.123301,-2.99507 -0.631941,-3.28073 -0.857938,-0.48182 -0.771107,-1.80865 0.17639,-2.69545 0.676561,-0.63322 1.695664,-0.83496 6.902651,-1.36641 4.80609,-0.49054 6.25334,-0.53331 6.786184,-0.20054 0.405487,0.25323 2.059522,0.42376 4.121655,0.42494 4.592307,0.002 5.871462,0.38817 7.013525,2.11395 0.499793,0.75523 0.933069,1.8939 0.962837,2.53038 0.05087,1.08772 -0.08887,1.23148 -2.327129,2.39404 -1.309688,0.68024 -2.38125,1.33393 -2.38125,1.45263 0,0.34993 7.72337,4.20338 7.87418,3.9287 0.193876,-0.35314 -0.426286,-5.45107 -0.996106,-8.18834 -0.39886,-1.916 -0.399664,-2.37284 -0.0049,-2.77827 0.507307,-0.52101 9.210532,-1.27738 10.672143,-0.92749 0.898293,0.21505 1.45678,1.7781 0.85157,2.38332 -0.214384,0.21438 -1.782321,0.4601 -3.484311,0.54604 -3.565099,0.18001 -4.418338,0.4991 -4.262459,1.59402 0.101293,0.71153 0.352996,0.78326 3.320669,0.94627 3.442033,0.18908 4.482317,0.65075 4.302485,1.90941 -0.09511,0.66563 -0.424844,0.76099 -3.430207,0.99198 -4.061121,0.31213 -4.73733,0.88642 -3.041046,2.5827 0.813659,0.81367 1.098412,0.86591 4.719301,0.86591 4.315008,0 4.769853,0.21663 4.581218,2.18182 l -0.112255,1.16957 -5.165455,0.0974 c -5.143648,0.097 -5.17017,0.0934 -6.282579,-0.84259 l -1.117118,-0.94 -0.528402,0.7544 c -0.705975,1.00792 -1.07338,0.95883 -3.138932,-0.41945 -2.011008,-1.34189 -6.816228,-3.41227 -7.919651,-3.41227 -0.697458,0 -0.735553,0.16007 -0.641882,2.69724 0.108519,2.93951 -0.173284,3.39071 -1.402482,2.24554 -1.025449,-0.95535 -1.430669,-2.63206 -1.834999,-7.59279 -0.346639,-4.25293 -0.660289,-5.18695 -1.506093,-4.485 -0.254829,0.21149 -1.694974,0.3797 -3.200318,0.37379 -2.930398,-0.0115 -3.7782,0.34861 -3.769188,1.60094 0.01035,1.43511 0.50606,1.69901 3.650982,1.94354 2.221982,0.17278 3.20638,0.40572 3.660265,0.86616 0.59268,0.60123 0.591772,0.65139 -0.02,1.1053 -0.609462,0.45219 -4.275135,1.24528 -5.75568,1.24528 -1.258379,0 -1.468617,0.6137 -1.274754,3.72108 0.14872,2.38381 0.07092,3.12942 -0.401802,3.85089 -0.764942,1.16745 -1.796812,1.13324 -3.030529,-0.10048 z m 18.610784,-13.06049 c 2.936351,-1.44895 2.021869,-2.37686 -2.530782,-2.56793 -2.084647,-0.0875 -2.786978,0.56823 -2.326889,2.17246 0.161301,0.56243 0.391372,1.18133 0.511265,1.37531 0.313336,0.50699 2.191232,0.0837 4.346406,-0.97984 z m 63.93034,13.17372 c -0.24154,-0.29104 -0.63019,-0.52916 -0.86365,-0.52916 -0.60752,0 -1.75871,-1.3479 -2.62432,-3.07275 -0.83895,-1.67173 -0.89711,-2.23172 -0.39278,-3.78137 0.19392,-0.59586 0.50734,-1.71838 0.69648,-2.49449 0.18914,-0.77611 0.9036,-2.27889 1.58769,-3.3395 0.68409,-1.06061 1.2438,-2.20073 1.2438,-2.53361 0,-1.41895 3.719668,-2.95231 5.781068,-2.38313 2.41622,0.66715 6.36971,6.0273 6.77165,9.18103 0.13301,1.04359 0.39494,2.19403 0.58208,2.55653 0.6237,1.20815 -0.64637,3.2508 -2.76454,4.44623 -3.55336,2.00538 -9.078918,3.08112 -10.017478,1.95022 z m 5.416598,-4.76464 c 1.40137,-1.23042 2.34508,-3.02702 2.34319,-4.46089 -0.002,-1.24762 -1.08014,-3.06581 -2.28801,-3.85724 -0.87739,-0.57489 -0.94537,-0.56608 -1.79593,0.23298 -1.26693,1.19023 -3.054138,5.0134 -3.096358,6.62372 -0.0476,1.81581 0.58898,2.52191 2.273648,2.52191 1.00383,0 1.66909,-0.27521 2.56346,-1.06048 z m 27.67447,4.85284 c -0.72715,-0.575 -1.1692,-2.12333 -1.83809,-6.4382 -0.47105,-3.03873 -1.26687,-8.79841 -1.26687,-9.16897 0,-0.0671 -0.55562,-0.46548 -1.23472,-0.88519 -1.48335,-0.91676 -1.58446,-1.67049 -0.26458,-1.97226 0.53357,-0.12199 1.66723,-0.44824 2.51924,-0.725 0.85201,-0.27675 3.01071,-0.5992 4.79712,-0.71654 3.8403,-0.25226 6.48558,0.40614 8.7961,2.18934 1.24797,0.96314 1.42481,1.26923 1.3368,2.31375 -0.13233,1.5704 -1.69719,3.80326 -2.86143,4.0829 -0.50473,0.12122 -1.63207,0.56944 -2.50519,0.99603 -0.87313,0.42659 -2.35691,0.98443 -3.29729,1.23964 l -1.70978,0.46403 0.24657,3.44505 c 0.21346,2.98233 0.16044,3.59085 -0.39475,4.53071 -0.68316,1.15651 -1.418,1.36043 -2.32313,0.64471 z m 5.19462,-13.17842 c 4.16966,-1.48026 3.93637,-2.70449 -0.5542,-2.90842 l -2.80649,-0.12745 v 1.74244 c 0,1.56686 0.18118,2.21282 0.62064,2.21282 0.0827,0 1.31567,-0.41373 2.74005,-0.91939 z m -56.453748,11.28112 c -1.47789,-0.83264 -1.91609,-1.51702 -1.92906,-3.01274 -0.0132,-1.52016 0.27393,-2.4101 0.77752,-2.4101 0.19826,0 0.97549,0.55562 1.72716,1.23472 1.31571,1.18866 1.46865,1.23453 4.09971,1.22952 3.0384,-0.006 4.44176,-0.51136 4.60706,-1.65977 0.1903,-1.32205 -2.25863,-2.60096 -6.98933,-3.65009 -1.69477,-0.37585 -2.4601,-0.79532 -4.49792,-2.46527 -0.24253,-0.19875 -0.44097,-0.98459 -0.44097,-1.7463 0,-2.06223 1.46166,-3.52819 4.8766,-4.89094 1.79289,-0.71546 3.38266,-1.10465 4.51232,-1.10465 1.52101,0 1.90928,0.16039 3.03483,1.25363 1.68162,1.63336 2.65108,4.07277 2.0996,5.28315 -0.80066,1.75724 -2.32452,0.81748 -2.87705,-1.77428 -0.22083,-1.03584 -0.26639,-1.05609 -2.1436,-0.95272 -1.90183,0.10471 -4.2033,1.21289 -4.20862,2.02648 -0.001,0.20251 0.9104,0.57418 2.02606,0.82592 1.11566,0.25176 3.06034,0.95919 4.32153,1.57208 2.01101,0.97729 2.39614,1.33037 3.13118,2.87061 1.13699,2.38252 1.28225,3.96298 0.50326,5.47569 -0.8544,1.65915 -2.44544,2.15494 -7.515,2.3418 -3.35015,0.12348 -4.24133,0.0456 -5.11528,-0.44674 z m -19.128851,-0.38902 c -2.196653,-0.19842 -3.45382,-1.84151 -3.769966,-4.92727 -0.130408,-1.27286 -0.482219,-2.7883 -0.781801,-3.36762 -0.391613,-0.75729 -0.437113,-1.16092 -0.161901,-1.43613 0.660016,-0.66002 0.418846,-2.89103 -0.499145,-4.61754 -1.037058,-1.95043 -1.118116,-2.91829 -0.264583,-3.15916 0.339548,-0.0958 1.88736,-0.16729 3.439583,-0.15883 1.552221,0.008 4.124712,-0.10557 5.716643,-0.25339 3.300114,-0.30644 4.690301,0.20886 4.690301,1.73856 0,1.3512 -0.835549,1.68684 -4.958937,1.99198 -2.149425,0.15906 -4.142531,0.48381 -4.429125,0.72166 -0.545489,0.45271 -0.384077,2.2723 0.262363,2.95758 0.178731,0.18948 1.708372,0.4276 3.399197,0.52917 2.922106,0.17553 3.097001,0.23234 3.53444,1.14807 0.340373,0.71253 0.360947,1.14887 0.079,1.67569 -0.336494,0.62874 -0.732808,0.7123 -3.378483,0.7123 -3.225276,0 -3.612817,0.22789 -3.198019,1.88059 0.325237,1.29585 1.645936,1.67751 4.931093,1.42499 2.281774,-0.1754 3.138262,-0.10456 3.976381,0.32884 1.60048,0.82764 2.02573,1.46638 1.55805,2.34025 -0.36278,0.67786 -0.67488,0.72385 -4.522403,0.66647 -2.273001,-0.0339 -4.803214,-0.12219 -5.622692,-0.19621 z M 15.541764,195.69896 c -0.434044,-0.30402 -1.017312,-1.09878 -1.296151,-1.76613 -0.624629,-1.49494 -1.964257,-2.10225 -3.475308,-1.57549 -3.3029221,1.1514 -6.3860321,-0.53791 -4.5945521,-2.51747 0.47621,-0.5262 0.51045,-0.81049 0.18395,-1.52708 -0.34784,-0.76343 -0.6297,-0.88051 -2.11971,-0.88051 -1.34961,0 -2.03214,-0.22719 -3.1795,-1.05834 -0.80355004,-0.58208 -1.71568004,-1.05833 -2.02698004,-1.05833 -0.73814996,0 -2.61511996,-1.11273 -2.61511996,-1.55032 0,-0.18693 0.1892,-0.86308 0.42044,-1.50257 0.23124,-0.63949 0.32075,-1.2624 0.19891,-1.38424 -0.12184,-0.12184 -1.0651,0.17727 -2.09613,0.66468 -3.60003,1.7019 -5.7947199,1.5055 -7.2035199,-0.64462 -0.46335,-0.70715 -0.86433,-0.8746 -2.09439,-0.8746 -1.2192,0 -1.66499,-0.18263 -2.24472,-0.91964 -0.52944,-0.67308 -0.63422,-1.08627 -0.39079,-1.54112 0.44335,-0.82842 0.13613,-1.06675 -1.37707,-1.06833 -0.69527,-8e-4 -1.783,-0.31768 -2.41719,-0.70435 -1.03832,-0.63307 -1.14363,-0.84835 -1.05833,-2.16347 0.0883,-1.36123 0.0175,-1.48713 -1.04155,-1.85329 -1.49478,-0.5168 -2.59886,-1.48914 -2.36953,-2.08678 0.12279,-0.31998 -0.28379,-0.61874 -1.22629,-0.90112 -0.7755,-0.23234 -1.66274,-0.67519 -1.97165,-0.9841 -0.50724,-0.50724 -0.50876,-0.6201 -0.0158,-1.16487 0.30024,-0.33176 0.54589,-0.83867 0.54589,-1.12645 0,-0.54269 -1.81056,-2.06703 -2.45516,-2.06703 -0.21746,0 -0.36706,-0.95692 -0.36706,-2.34797 0,-1.91719 0.15171,-2.54822 0.82695,-3.43958 0.45482,-0.60039 1.01855,-1.45353 1.25274,-1.89585 0.39235,-0.74107 0.32742,-0.84533 -0.82695,-1.32765 -0.68901,-0.28789 -1.25057,-0.64037 -1.24792,-0.78328 0.0159,-0.85861 0.49801,-1.84735 0.90074,-1.84735 0.25877,0 0.62712,-0.27781 0.81855,-0.61736 0.26882,-0.4768 0.14008,-0.83535 -0.56542,-1.57474 -0.76235,-0.799 -0.83907,-1.04705 -0.46372,-1.49931 0.24736,-0.29806 0.76633,-0.54192 1.15326,-0.54192 0.53681,0 0.65844,-0.17232 0.51333,-0.72722 -0.13218,-0.50547 0.11175,-0.99623 0.79999,-1.60945 0.82628,-0.73621 1.01527,-1.22946 1.14191,-2.98014 0.13233,-1.82952 0.3068,-2.24828 1.36373,-3.27328 0.66658,-0.64645 1.4972,-1.59751 1.84581,-2.11347 0.38935,-0.57627 0.95839,-0.93811 1.47528,-0.93811 0.53876,0 1.12225,-0.39434 1.62203,-1.09622 0.67856,-0.95294 0.9363,-1.07094 1.97214,-0.90285 0.68189,0.11066 1.60317,-0.0101 2.15386,-0.28226 0.52927,-0.2616 1.36702,-0.65885 1.86169,-0.88278 0.49466,-0.22394 1.97271,-1.21097 3.28456,-2.1934 2.2925899,-1.71691 4.0842399,-2.29348 4.3789999,-1.4092 0.0691,0.20737 0.58142,0.95051 1.13844,1.65143 0.55702,0.70092 1.06571,1.43326 1.13044,1.62742 0.078,0.23386 0.63492,0.23682 1.64988,0.009 0.8427,-0.18935 2.04390996,-0.26123 2.66933996,-0.15973 0.75905,0.12317 1.62097004,-0.0623 2.59219004,-0.55777 0.80028,-0.40828 1.78339,-0.74232 2.18471,-0.74232 0.40132,0 1.63796,-0.44748 2.74808,-0.9944 1.11013,-0.54692 2.7166611,-1.21511 3.5700721,-1.48486 1.473354,-0.4657 1.633585,-0.44482 3.175003,0.41368 1.733013,0.96521 1.218554,0.93667 9.56084,0.53051 2.998052,-0.14597 4.909048,-0.4969 5.55941,-1.02093 0.244268,-0.19682 0.544337,-0.98453 0.666816,-1.75047 0.285366,-1.78458 2.246153,-3.98046 3.306667,-3.70313 0.560208,0.1465 0.92492,-0.12553 1.598128,-1.19196 1.181595,-1.87176 2.439173,-1.91822 3.191399,-0.11789 0.440055,1.0532 0.614693,1.192 1.04766,0.83266 0.285769,-0.23716 0.701,-1.1517 0.922737,-2.03229 0.231773,-0.92045 0.929968,-2.1842 1.642391,-2.97277 1.228333,-1.35961 1.233958,-1.38061 0.639627,-2.38673 -1.160473,-1.96452 -2.339149,-6.20342 -2.024898,-7.2822 0.550217,-1.88883 2.651008,-5.76736 3.222035,-5.94859 1.017698,-0.32301 2.533528,-3.031894 2.313154,-4.133762 -0.118716,-0.593577 0.08764,-1.71268 0.516395,-2.800432 0.44132,-1.119632 0.632682,-2.182588 0.50093,-2.782456 -0.118419,-0.539158 -0.04718,-1.073298 0.160229,-1.201492 0.205388,-0.126936 0.373433,-0.513262 0.373433,-0.858501 0,-0.345244 1.047528,-2.082123 2.327844,-3.859739 1.844749,-2.561286 2.507208,-3.232023 3.192145,-3.232023 0.475364,0 2.200468,-0.804167 3.833561,-1.787041 2.313192,-1.392193 3.591507,-2.502937 5.785483,-5.027083 5.01265,-5.767015 5.998048,-6.653991 7.118838,-6.407825 1.12984,0.248158 2.31614,-0.288131 3.24254,-1.465853 0.35364,-0.449577 1.26946,-0.98611 2.03517,-1.192294 1.77165,-0.477054 1.81695,-1.257356 0.20177,-3.475419 -0.65473,-0.89912 -1.54577,-2.34914 -1.98008,-3.222265 -0.43432,-0.873125 -1.10343,-1.930318 -1.48691,-2.34932 -0.60764,-0.663913 -0.6657,-1.05641 -0.45177,-3.054035 0.21375,-1.996019 0.40335,-2.444596 1.46728,-3.471511 0.67199,-0.648615 1.783,-2.100651 2.46892,-3.226747 0.72509,-1.190396 1.82229,-2.410535 2.62117,-2.914842 0.75572,-0.477067 1.37404,-0.999595 1.37404,-1.161172 0,-0.161578 1.07156,-1.352196 2.38125,-2.645818 2.44406,-2.414079 4.1662,-3.323748 7.94261,-4.195449 1.43015,-0.330118 1.99424,-0.29116 3.53808,0.244355 1.01017,0.350398 2.41868,1.026638 3.13003,1.502755 1.2446,0.833024 1.3279,0.843044 2.20901,0.265717 0.95326,-0.624598 1.08566,-0.981628 1.41078,-3.804124 0.135528,-1.176651 0.524308,-2.101321 1.257488,-2.990795 0.58372,-0.708151 1.06131,-1.433169 1.06131,-1.61115 0,-0.701158 1.97232,-3.394973 2.48612,-3.395566 0.30021,-3.44e-4 1.09396,-0.834069 1.76389,-1.852714 1.1939,-1.815385 1.26217,-1.858362 3.44514,-2.16895 1.96896,-0.280141 2.33695,-0.2355 3.175,0.385154 1.1056,0.818814 3.08383,4.628325 3.38659,6.521613 0.15493,0.968917 0.4608,1.430673 1.17415,1.772574 1.12317,0.538324 1.47133,1.660018 0.65674,2.115887 -0.38857,0.217453 -0.56541,0.814898 -0.56541,1.910164 0,1.416052 0.0762,1.569557 0.68349,1.376812 0.37592,-0.119313 0.97607,-0.03421 1.33368,0.189118 0.53353,0.333195 0.98335,0.209611 2.50703,-0.688786 1.02127,-0.60216 2.06855,-1.094836 2.3273,-1.094836 0.25874,0 0.66807,-0.238125 0.90961,-0.529167 0.55666,-0.670733 1.43623,-0.674998 2.31383,-0.01122 0.37663,0.284871 0.93799,0.522996 1.24747,0.529167 0.8921,0.01779 1.71381,1.182139 1.63044,2.310324 -0.0697,0.943703 0.0231,1.035526 1.05488,1.04352 0.70586,0.0055 1.31998,0.266744 1.63293,0.694721 0.54883,0.750575 0.32556,0.832064 2.98189,-1.088304 0.70446,-0.509288 0.98526,-0.524861 2.20506,-0.122291 1.4113,0.465772 2.03439,0.335447 3.51406,-0.735006 0.37891,-0.274117 0.8108,-0.274982 1.52099,-0.003 0.93268,0.357125 0.97823,0.470425 0.76389,1.899781 -0.17403,1.160524 -0.0957,1.629732 0.33109,1.983959 0.43204,0.358565 0.55903,1.163326 0.55903,3.542827 0,2.862549 0.0745,3.181738 1.06054,4.542917 0.5833,0.805209 1.20749,1.464027 1.38709,1.464027 0.37002,0 1.54965,-1.60554 1.90942,-2.598833 0.61908,-1.709221 6.30975,-10.697342 9.01814,-14.243686 2.85661,-3.740432 3.09924,-3.965146 4.2637,-3.948839 0.67909,0.0095 1.79034,0.208941 2.46944,0.443181 1.37551,0.474453 1.35782,0.36749 0.76916,4.649565 -0.40651,2.957124 -0.791,4.008143 -1.79819,4.915489 -1.00092,0.901695 -2.95277,4.336679 -2.69824,4.74852 0.11011,0.178156 0.49962,0.245618 0.86559,0.149916 1.20654,-0.315518 1.17076,0.586444 -0.0992,2.49965 -0.68837,1.037075 -1.42887,2.659528 -1.64554,3.605453 -0.21667,0.945923 -0.54938,2.23642 -0.73934,2.867771 -0.18997,0.631352 -0.25194,1.442376 -0.13771,1.802278 0.12101,0.38126 -0.0228,0.845627 -0.34449,1.112632 -0.3037,0.252044 -1.07378,1.584145 -1.71129,2.960224 -0.63751,1.376077 -1.4245,2.719832 -1.74885,2.986122 -0.33222,0.272754 -0.58973,0.987981 -0.58973,1.637956 0,0.700151 -0.20805,1.233617 -0.52916,1.356842 -0.29105,0.111683 -0.52917,0.408831 -0.52917,0.660325 0,0.2515 -0.3175,1.049655 -0.70556,1.773682 -0.65556,1.223148 -0.92,2.377308 -0.54469,2.377308 0.39364,0 3.87557,-2.223474 5.53064,-3.53173 1.00122,-0.791421 2.07491,-1.386493 2.38598,-1.322379 0.85538,0.176297 0.55276,2.313718 -0.67111,4.740068 l -1.03621,2.054297 2.32584,2.258227 c 1.78816,1.736172 2.61265,2.289833 3.56645,2.394944 2.17058,0.239194 2.53411,0.615188 2.41134,2.494024 -0.13879,2.124109 0.29427,3.034024 1.32132,2.776252 1.4384,-0.361017 1.80461,0.256069 1.94155,3.271721 l 0.12798,2.818003 1.27832,0.107315 c 0.9389,0.07882 1.39067,0.333909 1.70148,0.960733 0.23275,0.469377 0.67296,0.993204 0.97826,1.164056 0.30529,0.170852 0.55508,0.611124 0.55508,0.978382 0,0.533246 0.30166,0.689591 1.49769,0.776218 1.49449,0.108247 1.49836,0.112181 1.81262,1.842024 0.21687,1.193774 0.18991,1.933729 -0.0866,2.376461 -0.58252,0.932757 -0.50526,1.197525 0.48043,1.64664 0.93329,0.425235 1.13899,1.394184 0.53539,2.522014 -0.23102,0.43166 -0.21881,1.01403 0.0366,1.74674 0.30799,0.8835 0.27217,1.26861 -0.18261,1.96268 -0.31117,0.47492 -0.56578,1.15623 -0.56578,1.51403 0,0.3578 -0.23307,0.9587 -0.51794,1.33533 -0.96155,1.27128 -0.6896,1.90719 0.77867,1.82076 l 1.31905,-0.0776 0.22942,2.10046 c 0.24506,2.24379 -0.002,2.93203 -1.73674,4.83942 l -0.85736,0.94266 0.62233,1.62954 c 0.60555,1.5856 0.60278,1.67432 -0.10253,3.29068 -0.47182,1.08127 -0.73347,2.46158 -0.74955,3.95419 -0.032,2.96808 0.14472,3.46111 1.28809,3.59416 0.73662,0.0857 1.06385,0.42153 1.48245,1.52132 0.81219,2.13388 1.00819,2.3488 1.77011,1.94102 0.36353,-0.19454 1.23512,-0.35373 1.93687,-0.35373 1.12474,0 1.33704,0.1463 1.79182,1.23473 0.28374,0.67909 0.744,1.23472 1.0228,1.23472 0.27879,0 0.65807,0.27013 0.84284,0.60029 0.18477,0.33016 1.02609,0.76672 1.86961,0.97014 1.44824,0.34924 1.53988,0.44535 1.6451,1.72518 0.0979,1.19084 0.20493,1.33353 0.88194,1.17576 0.42379,-0.0988 1.56427,-0.0509 2.53441,0.10629 1.208,0.19576 2.10085,0.14682 2.83309,-0.15532 0.58807,-0.24264 1.95093,-0.55133 3.02858,-0.68598 1.55498,-0.19427 2.05313,-0.13185 2.41358,0.30248 0.24981,0.301 0.72233,0.54727 1.05004,0.54727 0.7498,0 2.13999,1.26938 2.13999,1.95402 0,0.28348 0.31342,0.51542 0.6965,0.51542 0.41353,0 0.91385,0.42033 1.2315,1.0346 0.35776,0.69182 0.85374,1.07167 1.49706,1.14652 0.78781,0.0917 1.01837,0.35154 1.27299,1.43486 0.33498,1.42524 1.19729,1.76665 2.00473,0.79375 0.50542,-0.609 1.96478,-0.70756 2.30582,-0.15574 0.13084,0.2117 0.66565,0.27792 1.23485,0.1529 1.25427,-0.27548 2.45655,0.33628 2.45655,1.24997 0,0.7689 0.55286,0.86786 1.92782,0.34511 0.58918,-0.22401 1.15125,-0.89822 1.57716,-1.89183 l 0.66174,-1.54378 2.85067,-0.24866 c 1.56788,-0.13677 3.01162,-0.14921 3.20831,-0.0277 0.46035,0.28452 0.46365,1.48334 0.005,1.76689 -0.19403,0.11992 -0.35278,0.52616 -0.35278,0.90277 0,0.49245 0.244,0.68473 0.86889,0.68473 1.25672,0 4.45325,-1.3273 5.48113,-2.27593 0.48506,-0.44768 1.51693,-1.01097 2.29304,-1.25177 0.77612,-0.24079 3.20706,-1.30737 5.4021,-2.37015 3.9194,-1.89768 4.00418,-1.92065 4.72554,-1.28044 0.40399,0.35854 1.04457,1.34505 1.42351,2.19224 0.64058,1.43207 0.65847,1.78955 0.25469,5.08583 -0.41291,3.37058 -0.50163,3.6185 -1.79856,5.0255 -0.75033,0.81402 -1.36425,1.64941 -1.36425,1.85643 0,0.48741 -1.88325,2.42704 -3.80357,3.91745 -0.9339,0.72482 -1.88404,1.93199 -2.48901,3.16231 -0.65754,1.33725 -1.33205,2.16351 -2.0564,2.51911 -0.59282,0.29105 -1.61589,1.10029 -2.27346,1.79831 -0.65759,0.69804 -1.35434,1.33304 -1.54839,1.41112 -0.19402,0.0781 -0.76868,0.78203 -1.277,1.56434 -0.50834,0.78231 -1.49804,1.81419 -2.19934,2.29306 -1.5384,1.05046 -1.74255,1.492 -1.22006,2.63874 0.2602,0.57108 0.68831,0.87777 1.22526,0.87777 0.45392,0 1.14645,0.32114 1.53896,0.71364 0.89621,0.89621 0.48267,1.84283 -1.25227,2.86646 -0.93573,0.55209 -1.30661,1.10527 -1.73957,2.5946 -0.55933,1.92403 -1.83242,3.3503 -2.99049,3.3503 -0.85186,0 -1.43409,0.71291 -1.43409,1.75595 0,1.24749 -0.92243,2.4566 -2.31945,3.04031 -1.41361,0.59065 -2.06587,0.38274 -3.67778,-1.17227 -1.058,-1.02066 -1.40352,-1.1601 -2.41414,-0.97429 -1.16298,0.21381 -1.17612,0.20177 -0.94211,-0.86365 0.27907,-1.27061 -0.024,-1.34555 -1.65066,-0.4081 -1.41782,0.81712 -4.69054,1.31589 -5.03003,0.76659 -0.3454,-0.55888 -1.44943,-0.46367 -1.97564,0.17037 -0.25151,0.30306 -1.31233,1.11855 -2.35736,1.8122 -1.71807,1.14039 -1.98207,1.21729 -2.75637,0.8029 -0.98922,-0.52942 -3.28178,-0.0232 -4.0417,0.89245 -0.56143,0.67647 -1.55318,0.67571 -2.11532,-0.002 -0.62384,-0.75167 -0.98726,-0.68015 -3.54416,0.69755 -2.31653,1.24819 -3.45706,1.50469 -4.0582,0.91269 -0.20817,-0.20499 -0.89503,-0.17956 -1.81293,0.0671 -1.27158,0.34176 -1.65309,0.30278 -2.73403,-0.27935 -0.69093,-0.37195 -1.25624,-0.79904 -1.25624,-0.94894 0,-0.47951 -1.0221,-0.29335 -2.3773,0.433 -0.81984,0.43941 -1.9904,0.70556 -3.10317,0.70556 -0.98271,0 -1.93756,0.14127 -2.12189,0.31394 -0.18432,0.17268 -1.50192,0.82037 -2.92799,1.43933 -2.3002,0.99835 -2.70986,1.07691 -3.62945,0.696 -1.19281,-0.49408 -1.81131,-1.43555 -1.49116,-2.26983 0.1412,-0.36798 -0.055,-0.77088 -0.54125,-1.11146 -0.62409,-0.43713 -0.7217,-0.75302 -0.53698,-1.73767 0.31931,-1.70208 -0.52571,-1.92514 -2.22572,-0.58751 -2.43669,1.91725 -3.66646,2.01842 -5.06163,0.4164 -0.87871,-1.00899 -0.97046,-1.03292 -2.70202,-0.70453 -1.42843,0.27089 -2.6765,0.98838 -6.14596,3.53318 -4.71276,3.45674 -5.53024,3.84034 -6.8767,3.22686 -1.20304,-0.54815 -0.93838,-1.04959 1.36184,-2.58027 2.23519,-1.48741 3.09449,-3.06061 2.17434,-3.98076 -0.72526,-0.72525 -0.87966,-0.69221 -2.45987,0.5264 -4.38161,3.37897 -8.40565,5.505 -9.77098,5.16233 -0.49828,-0.12507 -1.00121,-0.52745 -1.1176,-0.89419 -0.31585,-0.99514 -2.04165,-1.5843 -3.62188,-1.23644 -1.41806,0.31217 -2.3869,0.39071 -7.22231,0.58544 -2.37182,0.0955 -3.23552,0.2723 -3.79236,0.77624 -0.66703,0.60365 -0.76849,0.60964 -1.35389,0.0799 -0.81437,-0.737 -2.26799,-0.8296 -4.49927,-0.28663 -1.84876,0.44988 -2.79372,0.19754 -5.80402,-1.54989 -1.25651,-0.72939 -2.31693,-0.64575 -4.41858,0.34849 -2.077368,0.98275 -5.862918,1.33598 -6.584498,0.61441 -0.6356,-0.63561 -1.20626,-0.52819 -2.80117,0.52728 -1.2419,0.82185 -1.81447,0.95642 -4.12784,0.97014 -2.60436,0.0154 -2.70058,-0.0143 -3.16819,-0.97985 -0.33324,-0.6881 -0.65731,-0.9286 -1.04882,-0.77836 -0.31161,0.11957 -1.34015,0.47044 -2.28565,0.77969 -1.65837,0.54243 -1.75509,0.53566 -2.73899,-0.19177 -1.15753,-0.85581 -2.19284,-0.96424 -2.87537,-0.30117 -1.26994,1.23374 -3.83912,2.36934 -5.36043,2.36934 -1.38604,0 -1.65665,-0.12638 -2.0774,-0.97014 -0.269928,-0.54132 -0.707266,-0.91182 -0.989388,-0.8382 -3.778578,0.98603 -5.021893,0.83833 -5.812476,-0.69048 -0.292652,-0.56593 -0.66494,-1.02896 -0.827307,-1.02896 -0.162361,0 -0.875014,-0.46078 -1.583668,-1.02394 -0.817619,-0.64976 -1.544151,-0.95708 -1.988159,-0.84097 -0.384839,0.10064 -1.091277,-0.0736 -1.569863,-0.38717 -1.138375,-0.74589 -1.49239,-0.72281 -3.258156,0.21243 -1.400934,0.74201 -1.573056,0.75666 -3.175,0.27017 -2.841127,-0.86281 -5.210468,-0.61308 -8.359042,0.88104 -2.329939,1.10566 -2.904469,1.25371 -3.612727,0.93101 -0.888939,-0.40503 -4.800036,-0.1723 -5.814406,0.34598 -0.321313,0.16417 -1.014217,0.12705 -1.5875,-0.0851 -0.895842,-0.33144 -1.267579,-0.2246 -3.113228,0.89478 -2.179045,1.32159 -3.293925,1.56106 -3.99655,0.85843 -0.459372,-0.45937 -2.365856,0.0157 -4.741399,1.18152 -1.599152,0.78479 -2.01726,0.79716 -3.02749,0.0896 z m -0.249759,-13.20557 c 0.119915,-0.19403 -0.09947,-0.35278 -0.487529,-0.35278 -0.388056,0 -0.803667,0.15875 -0.923584,0.35278 -0.119914,0.19402 0.09947,0.35277 0.48753,0.35277 0.388056,0 0.803666,-0.15875 0.923583,-0.35277 z m 180.705985,0.0183 c 2.19826,-0.21271 3.89164,-0.60506 5.20348,-1.20564 2.06445,-0.94514 2.39874,-1.44325 1.21973,-1.81746 -1.3906,-0.44136 -0.45481,-1.05214 1.88232,-1.22856 1.28517,-0.097 2.53477,-0.37483 2.77689,-0.61736 0.52161,-0.52251 0.41239,-0.5431 -2.39551,-0.45145 -1.19099,0.0389 -2.26394,-0.0887 -2.38433,-0.2835 -0.22653,-0.36653 0.47935,-0.5579 3.49144,-0.94657 2.2864,-0.29503 5.11528,-1.21307 5.11528,-1.66002 0,-0.20348 -0.25836,-0.23412 -0.61736,-0.0732 -0.33955,0.15219 -1.41112,0.33374 -2.38125,0.40345 -1.61677,0.11617 -1.70842,0.0827 -1.0989,-0.40088 0.36575,-0.29019 1.39762,-0.63715 2.29306,-0.77102 1.65969,-0.24815 4.27389,-1.40357 4.27389,-1.88898 0,-0.26079 -5.64233,0.50102 -6.70278,0.90498 -1.68424,0.64158 -8.33049,1.29708 -13.51917,1.33335 -8.01764,0.056 -12.31453,-0.34242 -20.78663,-1.92764 -1.30867,-0.24486 -2.48764,-0.33697 -2.61994,-0.20467 -0.35962,0.35962 4.93349,5.14907 7.4182,6.71234 2.91305,1.83276 7.005,3.73222 8.80832,4.08877 2.01473,0.39836 6.11455,0.41229 10.02326,0.0341 z M 18.232002,182.18431 c 0.375021,-0.23772 0.35065,-0.34429 -0.120033,-0.5249 -0.651142,-0.24987 -1.232464,-0.0131 -1.232464,0.50203 0,0.41032 0.722019,0.42253 1.352497,0.0229 z m 93.584768,-0.77517 c 1.04513,-0.20829 4.44024,-0.4264 7.54468,-0.48469 4.47686,-0.0841 6.55662,-0.30022 10.05417,-1.04491 4.84536,-1.03167 5.26969,-1.16587 9.2955,-2.9399 3.22536,-1.4213 5.21648,-2.70917 6.91201,-4.47074 l 1.21446,-1.26176 -0.77349,-0.72061 c -0.99804,-0.92982 -0.9744,-1.25078 0.14622,-1.98503 0.84839,-0.55589 0.87242,-0.63719 0.30992,-1.04851 -0.56048,-0.40983 -0.50647,-0.5666 0.66779,-1.93846 1.48093,-1.73013 1.65325,-2.39842 0.40805,-1.58254 -0.47824,0.31336 -1.11324,0.56974 -1.41111,0.56974 -0.69272,0 -0.70011,-0.84036 -0.0124,-1.41111 0.72728,-0.60359 0.66335,-0.94095 -0.22221,-1.17254 -0.57441,-0.15021 -0.68335,-0.34684 -0.46257,-0.83489 0.15884,-0.35113 0.26845,-1.17822 0.24359,-1.83799 -0.0275,-0.73085 0.42889,-2.15888 1.16813,-3.65467 1.4031,-2.83906 1.37633,-2.73047 0.6731,-2.73047 -0.90034,0 -0.98609,-0.98117 -0.20192,-2.31025 0.98867,-1.67567 0.93845,-1.94471 -0.31617,-1.69378 -1.20237,0.24047 -1.36268,-0.2337 -0.6258,-1.85097 0.38568,-0.84649 0.34747,-1.0058 -0.35278,-1.47074 -1.02525,-0.68075 -1.00104,-0.86501 0.39703,-3.02142 3.16433,-4.88072 3.79813,-6.17944 3.59566,-7.36791 -0.19378,-1.13749 -0.53924,-6.61917 -0.66625,-10.57205 -0.0789,-2.45499 -1.10727,-3.81567 -2.88384,-3.81567 -1.4014,0 -2.25212,0.90581 -2.52666,2.69027 -0.26102,1.6966 -0.67831,2.24861 -1.69986,2.24861 -1.21092,0 -1.53982,-0.67025 -1.89744,-3.86669 -0.33854,-3.02599 0.15033,-6.00554 1.0796,-6.57986 0.21919,-0.13547 1.46835,-0.28651 2.77591,-0.33564 3.44855,-0.12958 3.86222,-0.43998 3.86526,-2.90035 0.001,-1.10883 0.24656,-3.52419 0.54487,-5.36745 0.2983,-1.84327 0.61124,-3.98639 0.69543,-4.7625 0.0842,-0.77611 0.42027,-2.009854 0.74687,-2.741649 0.56485,-1.265643 0.56218,-1.353656 -0.0548,-1.804779 -0.56975,-0.416602 -0.59467,-0.604401 -0.20504,-1.545037 0.24394,-0.588936 0.82764,-1.431644 1.29712,-1.872689 0.46946,-0.441042 0.85357,-1.094824 0.85357,-1.452848 0,-0.485799 -0.78314,0.0035 -3.0868,1.928733 -3.29106,2.750386 -5.03438,3.905954 -9.28222,6.152799 -3.58827,1.89797 -6.06047,2.70189 -11.0907,3.60654 -2.32833,0.41873 -5.02708,0.95216 -5.99722,1.18541 -1.22882,0.29543 -5.51396,0.40528 -14.12612,0.36212 -13.446998,-0.0674 -11.983738,0.0861 -25.032218,-2.62613 -5.10774,-1.0617 -14.11093,-3.731398 -16.656737,-4.9392 -3.013183,-1.429541 -6.289299,-4.621924 -6.61054,-6.441585 -0.293142,-1.660525 0.258463,-2.465626 0.997156,-1.455404 0.461815,0.631565 0.516435,0.60806 1.068716,-0.459936 0.650166,-1.257282 0.97618,-1.374807 1.629627,-0.587449 0.398142,0.479732 0.519901,0.471694 1.123066,-0.07417 0.582795,-0.527423 0.721649,-0.540872 1.00235,-0.0971 0.179211,0.283327 0.328272,0.951704 0.33124,1.485279 0.0028,0.533577 0.164153,0.970139 0.35818,0.970139 0.194027,0 0.352777,-0.782412 0.352777,-1.73869 0,-1.800813 0.677322,-2.971486 1.52994,-2.644304 0.327586,0.125703 0.44559,1.160496 0.430762,3.777371 -0.02748,4.850659 0.587523,4.848548 1.037913,-0.0036 0.38336,-4.129987 0.62826,-4.831114 1.59887,-4.577294 0.38435,0.10051 0.92772,-0.167344 1.36897,-0.674822 1.34277,-1.544328 1.77987,-0.956054 1.82081,2.450568 0.0144,1.1968 0.13694,2.890382 0.27236,3.763507 0.20269,1.306822 0.36959,1.572657 0.94399,1.503564 2.53099,-0.304459 6.36305,-0.908458 8.53221,-1.344822 1.39852,-0.281329 3.24445,-0.511513 4.10206,-0.511513 0.85761,0 2.09461,-0.219192 2.7489,-0.48709 3.29629,-1.349682 30.215378,-1.642248 38.391138,-0.417248 1.94058,0.290761 3.56945,0.374123 3.89596,0.199382 0.60405,-0.323279 1.42231,-2.731823 2.1259,-6.2576 0.51416,-2.576499 0.19471,-3.268001 -1.50969,-3.268001 -1.16722,0 -3.7429,-0.661866 -4.35384,-1.118796 -0.62372,-0.466497 0.91492,-5.168955 2.511,-7.674179 0.77228,-1.212172 1.92695,-2.78558 2.56595,-3.496458 0.9225,-1.026276 1.1405,-1.545521 1.05833,-2.520809 -0.0863,-1.024941 -0.27869,-1.278179 -1.16181,-1.529591 -3.04487,-0.866839 -3.59154,-1.088914 -4.32153,-1.755532 -0.43656,-0.398663 -0.79375,-0.934042 -0.79375,-1.18973 0,-0.255688 1.83078,-2.24589 4.06839,-4.422667 2.23761,-2.17678 4.44713,-4.635426 4.91004,-5.463662 0.91615,-1.63916 1.50037,-5.597904 0.94779,-6.422343 -0.60445,-0.901836 -1.39286,-0.116185 -1.79916,1.792836 -0.61701,2.899143 -1.54749,4.228026 -5.96187,8.51449 -2.36366,2.295179 -4.63463,5.399588 -4.63463,6.335546 0,0.825299 1.59502,1.928278 3.78826,2.619637 3.29729,1.039379 3.70691,2.851555 1.36802,6.052251 -0.6575,0.899777 -1.78469,2.864776 -2.50485,4.36667 -1.16726,2.434299 -1.31522,3.05552 -1.36305,5.722827 -0.032,1.783791 0.0888,3.000494 0.29912,3.012884 0.19403,0.01143 0.40301,-0.381026 0.4644,-0.872127 0.187,-1.495828 0.65947,-0.999096 0.88842,0.93405 0.24125,2.036985 -0.11283,2.759149 -1.35282,2.759149 -1.32925,0 -1.74627,-0.935889 -1.93778,-4.348739 -0.17823,-3.176238 -0.18279,-3.189192 -1.23722,-3.514053 -0.58209,-0.17934 -7.32896,-0.34707 -14.99306,-0.372742 -13.407178,-0.0449 -18.194698,0.199845 -22.705078,1.160735 -2.87515,0.612523 -3.04651,0.04094 -0.68554,-2.28663 2.29902,-2.2665 4.6934,-5.764522 4.6934,-6.856748 0,-1.634871 -2.01124,-4.013888 -5.82084,-6.885223 -3.4376,-2.590967 -6.41559,-5.493642 -6.89997,-6.725471 -0.40427,-1.028096 -0.41253,-1.030785 -0.77408,-0.251947 -0.82193,1.770555 1.54748,4.407541 10.25295,11.410847 3.30007,2.654814 3.09926,3.537625 -1.97568,8.685491 -4.13097,4.190351 -3.58402,3.904562 -8.98564,4.695092 -2.43952,0.357021 -6.97177,1.781754 -11.373132,3.575185 -1.358194,0.553426 -2.603386,1.006774 -2.767092,1.007438 -0.163708,7.93e-4 -1.14558,0.508381 -2.181939,1.128252 -1.462125,0.874538 -2.096537,1.546537 -2.831624,2.999412 -1.367166,2.702155 -0.982221,3.410159 3.4392,6.325505 6.253287,4.123218 11.743027,6.733108 15.983127,7.598588 0.97013,0.19802 2.87513,0.58691 4.23333,0.86421 4.88915,0.99818 6.06536,1.14668 10.58333,1.33618 2.52236,0.10579 5.53861,0.3741 6.70278,0.59624 1.314838,0.25089 3.748438,0.32413 6.424188,0.19334 2.36914,-0.1158 7.29039,-0.28305 10.93611,-0.37166 3.64573,-0.0886 7.42234,-0.32068 8.39248,-0.51567 0.97014,-0.195 3.58952,-0.62082 5.82083,-0.94627 2.23132,-0.32545 5.00945,-0.80049 6.17361,-1.05564 2.45525,-0.53813 6.69035,-2.4355 7.32559,-3.28196 0.66363,-0.88427 3.78691,-2.915623 3.78691,-2.462963 0,0.411638 -2.09353,3.098913 -3.21042,4.120923 -0.35008,0.32034 -2.11252,1.03234 -3.91651,1.58222 -1.80401,0.54987 -4.07325,1.2406 -5.04276,1.53494 -0.96951,0.29435 -3.11264,0.66766 -4.7625,0.8296 -1.64986,0.16193 -4.34912,0.57725 -5.99836,0.92294 -2.48672,0.52122 -4.77519,0.62816 -13.40556,0.62643 -12.426448,-0.002 -23.776028,-0.37422 -25.889798,-0.84792 -0.8421,-0.18872 -2.86234,-0.49543 -4.4894,-0.68159 -1.62706,-0.18615 -4.2283,-0.73326 -5.78052,-1.21579 -1.55222,-0.48253 -3.47406,-1.04828 -4.27074,-1.25722 -0.79669,-0.20894 -1.98766,-0.74575 -2.646595,-1.19292 -0.658931,-0.44716 -2.113933,-1.19263 -3.233327,-1.6566 -1.928776,-0.79943 -2.067179,-0.81166 -2.645082,-0.23374 -0.5193,0.51931 -0.594376,1.19703 -0.505807,4.56596 0.101381,3.85628 0.129498,3.97839 1.113991,4.83808 2.565993,2.24069 2.793278,5.56212 0.526032,7.68719 -0.782146,0.7331 -0.867916,1.10929 -0.924978,4.05695 -0.03461,1.78689 -0.04738,3.56642 -0.02843,3.95446 0.09138,1.87046 0.113657,23.58975 0.03221,31.39723 -0.08965,8.59328 -0.07134,8.8588 0.714166,10.35384 1.86199,3.54388 5.56772,6.46484 10.3323,8.1442 3.94796,1.39154 9.55095,2.8887 9.8048,2.61992 0.10897,-0.11537 -0.27568,-0.54848 -0.85477,-0.96248 -2.03475,-1.45463 -3.35682,-2.96588 -3.35682,-3.83718 0,-0.4741 -0.29265,-1.7203 -0.65033,-2.76931 -0.85119,-2.49636 -0.63205,-3.96343 0.94363,-6.31717 1.06661,-1.59329 1.75465,-2.16979 3.91252,-3.27824 l 2.61831,-1.34496 -0.0856,-2.18625 c -0.11201,-2.86143 -0.48452,-3.18772 -1.80727,-1.583 -0.70255,0.85231 -1.65334,1.48047 -2.83489,1.87292 -1.71952,0.57114 -1.83795,0.56572 -3.61278,-0.1651 -2.29495,-0.94501 -3.15488,-2.08743 -3.35095,-4.45182 -0.23435,-2.826 0.37256,-4.19613 2.26439,-5.11195 2.22733,-1.07823 5.90796,-1.34855 6.84277,-0.50256 0.3845,0.34797 0.69908,0.89789 0.69908,1.22205 0,0.32416 0.3702,0.93716 0.82267,1.36224 l 0.82267,0.77285 0.40449,-0.88775 c 0.58584,-1.28576 1.49535,-1.09852 3.39911,0.69975 0.92435,0.87312 1.81726,1.5875 1.98424,1.5875 0.16698,0 0.7908,-0.47625 1.38627,-1.05834 1.44615,-1.41365 2.95839,-1.44217 3.66839,-0.0692 0.60711,1.17403 1.62327,6.29394 1.62327,8.17884 0,1.56909 -0.6968,2.28813 -1.91987,1.98116 -0.9963,-0.25005 -1.6027,-1.8957 -1.60593,-4.35817 -0.002,-1.77177 -0.33108,-1.85615 -2.19615,-0.56364 l -1.35016,0.93565 -0.80821,-0.75927 c -1.07957,-1.0142 -1.1747,-0.96899 -1.00578,0.47802 0.0917,0.78502 -0.0768,1.57494 -0.46082,2.16104 -0.74952,1.1439 -0.56602,1.28304 2.77066,2.10073 2.94654,0.7221 5.63357,2.71419 6.86743,5.09134 0.694588,1.33819 0.790558,1.92586 0.6261,3.8339 -0.28369,3.29129 -1.99583,5.40569 -5.85616,7.23202 -1.85016,0.87532 -2.68062,1.06875 -4.29965,1.00147 -1.10364,-0.0459 -2.10519,0.0761 -2.22568,0.27109 -0.1205,0.19495 -0.17003,0.35655 -0.11007,0.3591 0.06,0.002 1.61714,0.31796 3.4604,0.70092 1.84327,0.38296 4.62139,0.7142 6.17362,0.73609 1.55222,0.0219 3.219098,0.1669 3.704158,0.32225 1.32375,0.42393 8.80757,0.40626 10.97616,-0.0259 z m -9.62984,-17.172 c -0.39201,-0.95049 -0.5462,-1.85689 -1.32296,-7.77701 -0.53507,-4.07807 -0.37655,-4.30564 2.999,-4.30564 1.5512,0 3.16769,0.21849 3.90948,0.52843 1.07726,0.45011 1.22698,0.6462 1.01005,1.32292 -0.14008,0.43696 -0.27774,1.19136 -0.30592,1.67642 -0.0416,0.7152 0.13202,0.90304 0.91804,0.99349 0.68536,0.0789 1.03257,0.36372 1.18535,0.97246 0.69195,2.75696 -1.70059,5.8695 -5.34094,6.94819 -2.65474,0.78665 -2.57566,0.79596 -3.0521,-0.35926 z m 4.31002,-3.27537 c 1.17721,-1.20427 1.29643,-1.67794 0.49933,-1.98382 -1.08406,-0.41599 -2.84351,2.01554 -2.03992,2.81913 0.35254,0.35255 0.40976,0.32153 1.54059,-0.83531 z m -1.423,-5.45589 c 0,-0.29104 -0.23813,-0.52917 -0.52917,-0.52917 -0.29104,0 -0.52916,0.23813 -0.52916,0.52917 0,0.29104 0.23812,0.52916 0.52916,0.52916 0.29104,0 0.52917,-0.23812 0.52917,-0.52916 z m 7.48369,8.44447 c -0.66178,-0.46353 -1.83925,-2.2207 -1.83925,-2.74477 0,-0.48579 1.27765,-0.52187 1.98843,-0.0562 0.9944,0.65155 2.46404,0.38061 2.95977,-0.54566 0.48969,-0.91501 0.46677,-0.9607 -0.80306,-1.60055 -1.7829,-0.89838 -3.43958,-2.64265 -3.43958,-3.62144 0,-1.40748 1.53194,-3.0826 3.20823,-3.50809 1.39363,-0.35373 1.54039,-0.31652 2.48777,0.63086 1.81776,1.81776 1.05869,3.15923 -1.10885,1.95963 -0.62442,-0.34558 -1.01087,-0.37967 -1.32727,-0.11708 -0.54369,0.45122 0.0505,1.33516 0.89746,1.33516 0.29874,0 1.22513,0.39966 2.05865,0.88813 1.15166,0.67492 1.56699,1.16277 1.73009,2.03214 0.42883,2.28585 -1.13223,4.60456 -3.51338,5.2186 -0.78875,0.20339 -1.67708,0.43938 -1.97408,0.52441 -0.29699,0.085 -0.89321,-0.0928 -1.32493,-0.39519 z m -44.945405,-8.52287 c -1.222031,-0.75802 -1.348515,-1.34849 -1.155473,-5.39399 0.399095,-8.36369 0.501084,-8.54213 4.01758,-7.02937 2.50318,1.07684 3.9336,3.3612 3.4103,5.4462 -0.12175,0.48507 -0.46144,0.88194 -0.75487,0.88194 -0.94999,0 -0.95856,1.02068 -0.018,2.13853 1.13426,1.34798 1.15663,2.10012 0.0922,3.10007 -1.53257,1.43978 -4.033925,1.82296 -5.591813,0.85662 z m 3.877717,-2.63394 c 0.0624,-0.32762 -0.23078,-0.93994 -0.65155,-1.36072 -0.69524,-0.69524 -0.81559,-0.7145 -1.31898,-0.21111 -0.455863,0.45587 -0.479794,0.71665 -0.13518,1.473 0.4773,1.04756 1.91213,1.1149 2.10571,0.0988 z m -0.42082,-5.37399 c 0.28622,-0.74589 -0.52745,-2.02727 -1.20452,-1.89688 -0.635053,0.1223 -0.954257,1.06711 -0.638514,1.88992 0.251604,0.65568 1.592154,0.66074 1.843034,0.007 z m 30.201388,2.70646 c -0.29444,-0.71702 -0.33034,-4.20569 -0.0771,-7.49436 l 0.17639,-2.29089 -1.22311,-0.39748 c -1.288878,-0.41887 -2.118468,-1.32174 -1.647338,-1.79287 0.62711,-0.62712 7.474178,-0.002 9.132258,0.83327 1.88972,0.95237 1.05806,1.88192 -1.68373,1.88192 -0.8458,0 -1.61587,0.12627 -1.71125,0.2806 -0.0954,0.15434 -0.36145,2.01965 -0.59124,4.14514 -0.39649,3.66722 -0.9745,5.45204 -1.76563,5.45204 -0.19564,0 -0.46979,-0.27782 -0.60922,-0.61737 z m -12.071568,-1.79134 c -1.63754,-0.62556 -2.55197,-1.85998 -2.99566,-4.04392 -0.24908,-1.22602 -0.8849,-0.91193 -0.8849,0.43714 0,0.54914 -0.31644,1.37321 -0.7032,1.83127 l -0.7032,0.83283 -1.09497,-1.23473 c -0.60224,-0.67909 -1.7015,-1.92684 -2.4428,-2.77277 -1.46108,-1.66728 -2.11138,-1.66895 -2.11138,-0.005 0,2.22488 -1.35968,3.14106 -2.61046,1.75897 -0.48164,-0.53221 -0.58919,-1.26057 -0.53391,-3.61597 0.0988,-4.21066 0.67589,-7.00646 1.44615,-7.00646 0.58919,0 1.02144,0.47204 3.55345,3.88055 1.59689,2.14969 2.15655,2.07511 2.3781,-0.3169 0.11838,-1.27813 0.37622,-2.0296 0.78404,-2.28513 1.01136,-0.63367 1.42653,0.22453 1.68541,3.48398 0.28941,3.64395 0.82147,4.48662 1.42047,2.24973 0.90457,-3.37799 2.79757,-4.8388 5.70077,-4.39923 2.61097,0.39532 4.21874,1.54605 5.3655,3.84026 0.91983,1.84021 0.98185,2.17577 0.62329,3.37251 -0.51707,1.72583 -1.50057,2.5992 -4.19177,3.72236 -2.55201,1.06507 -2.599,1.06779 -4.68493,0.27094 z m 5.16586,-3.27772 c 0.86215,-0.71552 1.2368,-2.02267 0.8089,-2.82222 -0.57587,-1.07601 -2.47557,-2.0719 -3.95502,-2.07337 -1.10543,-0.001 -1.3901,0.15241 -1.67569,0.90359 -0.60161,1.58235 -0.40486,2.94691 0.56471,3.91648 0.76255,0.76255 1.13371,0.87859 2.30689,0.72123 0.76897,-0.10314 1.64657,-0.39371 1.95021,-0.64571 z m 12.009548,-7.80732 c -0.5351,-0.39437 -0.56226,-0.81782 -0.25697,-4.00636 0.18776,-1.96096 0.49552,-4.25139 0.68391,-5.08984 0.26209,-1.1665 0.22437,-1.75294 -0.16063,-2.49746 -0.445,-0.86053 -0.43674,-1.03941 0.0715,-1.54762 0.42968,-0.42968 0.9407,-0.52024 2.02586,-0.359 4.99052,0.74152 6.43652,1.55507 7.68539,4.32396 0.69241,1.53517 0.58757,2.79955 -0.44642,5.38395 -0.54131,1.35297 -3.08028,3.0534 -5.4859,3.67407 -2.61486,0.67467 -3.33377,0.69533 -4.11672,0.1183 z m 5.828,-3.94459 c 2.06701,-1.57829 2.65209,-2.91651 1.90594,-4.35941 -0.87497,-1.69201 -4.08037,-2.47936 -4.77903,-1.17389 -0.47771,0.8926 -1.19063,5.59478 -0.94522,6.23431 0.34745,0.90544 2.14712,0.57503 3.81831,-0.70101 z m -18.593688,2.71379 c -2.69087,-1.36939 -3.51065,-3.06247 -3.1973,-6.60329 0.41629,-4.70422 2.92265,-7.07077 7.48844,-7.07077 1.84606,0 2.405508,0.16084 3.704168,1.06492 1.8118,1.2613 2.7414,2.98065 3.00796,5.56338 0.33363,3.2326 -1.30393,5.28054 -5.401508,6.75515 -2.81552,1.01323 -4.05541,1.07756 -5.60176,0.29061 z m 4.51693,-2.85838 c 2.737988,-0.85476 3.863748,-2.00166 3.837418,-3.90948 -0.0413,-2.99329 -2.199048,-4.91048 -4.994978,-4.43811 -2.57699,0.43538 -4.233,2.57941 -4.23935,5.48866 -0.002,0.98471 2.06667,3.51197 2.86784,3.50332 0.26487,-0.003 1.40295,-0.29283 2.52907,-0.64439 z m -18.12413,0.0618 c -2.40998,-2.58698 -3.24333,-4.92103 -2.47362,-6.92814 0.52458,-1.36789 2.83012,-4.08106 3.98066,-4.68448 2.45744,-1.28884 5.55896,0.28726 6.58324,3.34539 0.54828,1.63695 0.50528,4.74906 -0.0851,6.16213 -0.59438,1.42256 -3.07949,2.97031 -5.22776,3.25589 -1.41541,0.18816 -1.60209,0.11081 -2.77738,-1.15079 z m 5.05209,-2.49904 c 1.93697,-2.03039 2.0023,-4.04243 0.20215,-6.22632 -1.8036,-2.18807 -3.37941,-1.68165 -4.84906,1.55835 -1.12516,2.48054 -0.85102,3.48426 1.37427,5.03159 1.23855,0.86122 2.20678,0.75364 3.27264,-0.36362 z m -15.06807,-0.7728 c -0.2054,-0.33234 -0.0163,-4.22971 0.44613,-9.19314 l 0.2465,-2.64583 1.13838,0.0511 c 0.6261,0.0281 2.17392,0.53571 3.43958,1.12799 1.73589,0.81232 2.3012,1.25474 2.3012,1.80095 0,0.86301 -0.39231,0.89212 -2.67796,0.19874 -2.38205,-0.72262 -2.6137,-0.68193 -2.6137,0.45901 0,0.69315 0.31882,1.22771 1.05833,1.77444 1.26852,0.93787 1.38819,1.81967 0.24694,1.81967 -1.18513,0 -1.65805,0.65858 -1.65805,2.30894 0,1.75533 -1.30276,3.3087 -1.92735,2.2981 z m 12.51785,-41.281867 c -0.83801,-1.642642 -0.90255,-2.592337 -0.21497,-3.162988 0.59186,-0.491194 0.75793,-0.278077 1.41325,1.813571 0.2605,0.831463 0.58907,1.789565 0.73017,2.129112 0.19641,0.472684 0.084,0.617363 -0.4796,0.617363 -0.50241,0 -0.96241,-0.443553 -1.44885,-1.397058 z M 22.700339,181.08228 c 0.27759,-0.44916 -0.539708,-0.44916 -1.234724,0 -0.430204,0.27802 -0.384616,0.34298 0.243764,0.34737 0.425111,0.003 0.871042,-0.15335 0.99096,-0.34737 z m -1.022782,-1.72974 c 1.086874,-0.3386 6.752241,-1.34912 13.722782,-2.44771 4.661812,-0.73473 6.033695,-0.57676 5.644356,0.64994 -0.270127,0.8511 -0.48749,0.84417 5.115367,0.1632 2.425345,-0.29478 5.759095,-0.69333 7.408333,-0.88568 1.649235,-0.19234 3.871735,-0.50609 4.938887,-0.6972 1.067155,-0.19112 2.637393,-0.3865 3.48942,-0.43418 1.235657,-0.0692 1.607355,-0.24517 1.836801,-0.86986 0.286359,-0.77962 0.270182,-0.78307 -3.576272,-0.76223 -2.125165,0.0115 -3.953282,0.16551 -4.062484,0.3422 -0.109201,0.17669 -1.379805,0.32126 -2.823562,0.32126 -2.316326,0 -2.625013,-0.0765 -2.625013,-0.65088 0,-0.35799 0.285782,-0.90951 0.635071,-1.22561 0.527103,-0.47702 1.471697,-0.56913 5.55625,-0.54176 6.050809,0.0405 5.918489,0.0527 5.697117,-0.52416 -0.09982,-0.26013 -0.04791,-0.68911 0.115369,-0.9533 0.529019,-0.85597 0.02553,-0.98853 -1.862381,-0.49033 -1.01813,0.26867 -2.565524,0.48186 -3.438649,0.47375 -0.873125,-0.008 -2.142077,0.15446 -2.819892,0.36127 -1.410764,0.43044 -3.872799,0.48911 -4.449361,0.10603 -0.214545,-0.14255 -0.499001,-0.85156 -0.632121,-1.57557 l -0.242036,-1.31638 1.42843,-0.22842 c 1.066522,-0.17054 1.539523,-0.46021 1.866924,-1.14331 0.321297,-0.67036 0.815626,-0.98201 1.849528,-1.16601 0.776065,-0.13812 2.046028,-0.48457 2.822141,-0.76989 l 1.41111,-0.51877 -2.116667,0.16004 c -1.886582,0.14265 -7.24899,1.26985 -8.643056,1.81682 -0.510022,0.20011 -2.036789,0.37801 -3.880554,0.45218 -0.485071,0.0195 -1.061053,0.18361 -1.279967,0.36466 -0.218908,0.18105 -2.203283,0.63342 -4.409723,1.00527 -2.206434,0.37185 -4.884825,0.83692 -5.951979,1.0335 -4.801555,0.88448 -6.644791,1.21638 -8.277852,1.49051 -5.224389,0.877 -6.455207,1.36678 -4.774925,1.90008 0.388056,0.12316 0.705556,0.44236 0.705556,0.70932 0,0.26697 0.338371,0.7224 0.75193,1.01206 1.08159,0.75758 0.594704,1.57557 -1.099029,1.84641 -1.758907,0.28126 -2.017191,0.61585 -0.876562,1.13556 0.590815,0.26919 0.870882,0.68285 0.870882,1.28631 0,0.9648 0.369062,1.07143 1.975831,0.57088 z M 9.6218069,177.03291 c -1.031214,-0.78016 -1.506354,-0.61404 -0.541634,0.18937 0.46405,0.38645 0.9287121,0.61765 1.0325791,0.51378 0.103873,-0.10387 -0.1170541,-0.42029 -0.4909451,-0.70315 z m 81.4264751,-1.26009 c 1.6232,-0.45079 1.99379,-1.5041 1.15277,-3.27641 -0.6984,-1.47178 -0.81504,-1.52551 -3.99147,-1.83851 l -2.47264,-0.24364 -1.09533,1.51206 c -0.96598,1.3335 -1.03998,1.59543 -0.6266,2.21801 1.15601,1.74105 4.14008,2.43198 7.03327,1.62849 z M 3.1489529,173.81107 c 0.30631,-0.26945 0.74846,-0.48991 0.98255,-0.48991 0.31146,0 0.32766,-0.18299 0.0604,-0.68236 -0.51028,-0.95346 -0.45531,-1.4343 0.16397,-1.4343 0.74883,0 0.65615,-0.83407 -0.17639,-1.5875 -0.78143,-0.70719 -0.93868,-1.5875 -0.28357,-1.5875 0.23209,0 -0.11163,-0.55055 -0.76382,-1.22344 -2.58791004,-2.67004 1.08272,-1.60621 5.60441,1.62428 1.8025331,1.28781 1.9481331,1.33199 2.5613321,0.77705 0.608885,-0.55103 0.700307,-0.54418 1.440209,0.10787 0.43453,0.38294 1.245126,0.89033 1.801323,1.12753 0.82991,0.35394 1.082979,0.34136 1.41111,-0.0701 0.590931,-0.74105 2.482289,-1.24345 6.23121,-1.65522 5.538364,-0.60831 7.50529,-0.89546 8.9853,-1.31176 0.77611,-0.21831 3.79236,-0.73288 6.702777,-1.1435 2.910417,-0.41062 6.164792,-0.89797 7.231946,-1.08302 5.751095,-0.99722 8.245941,-1.34301 8.510403,-1.17956 0.162126,0.10019 1.017905,-0.0633 1.901737,-0.3634 0.883828,-0.30007 2.147668,-0.54558 2.808534,-0.54558 0.660866,0 1.290071,-0.14319 1.398233,-0.3182 0.237045,-0.38355 -4.107357,-4.67321 -6.988437,-6.90037 -2.106906,-1.62871 -2.994319,-1.8707 -4.608894,-1.25684 -1.314418,0.49974 -1.133506,1.4472 0.682591,3.57481 1.76113,2.06322 1.801794,2.1669 1.083672,2.76289 -0.732618,0.60802 -2.069867,-0.19845 -4.600408,-2.77443 -1.907349,-1.94159 -2.243778,-2.14343 -3.572774,-2.14343 -1.476264,0 -2.45486,-0.64745 -2.188113,-1.44769 0.118116,-0.35435 2.083396,-0.96547 6.014427,-1.87024 1.169463,-0.26917 1.262004,-1.08715 0.188018,-1.66193 -0.43017,-0.23022 -2.057358,-1.40254 -3.615973,-2.60516 -5.781077,-4.46064 -7.717811,-5.82342 -10.255036,-7.21593 -2.146593,-1.17812 -2.937221,-1.42683 -4.535823,-1.42683 -2.567628,0 -2.841956,0.57578 -0.371922,0.78061 3.11767,0.25854 3.672713,1.68884 0.655372,1.68884 -2.349857,0 -2.350706,0.70605 -0.0035,2.85132 1.348467,1.23242 1.975601,2.07431 1.975601,2.65213 0,1.40497 -1.589601,1.12524 -3.12756,-0.55037 -0.705192,-0.7683 -2.155288,-2.04874 -3.22244,-2.8454 -1.515806,-1.1316 -2.15255,-1.40674 -2.91057,-1.2577 -1.085263,0.2134 -2.733781,-0.28981 -2.733781,-0.83453 0,-0.19513 0.357187,-0.42559 0.79375,-0.51214 0.436562,-0.0865 1.825625,-0.35019 3.086806,-0.58589 3.261665,-0.60957 3.591857,-1.16617 0.529167,-0.89202 -3.774416,0.33787 -7.9375,1.01457 -7.9375,1.29022 0,0.13576 0.882557,0.91317 1.961243,1.72758 1.479293,1.11688 1.934419,1.66911 1.852083,2.24725 -0.0994,0.69799 -0.280813,0.75526 -2.02973,0.64081 -1.056317,-0.0691 -2.643817,-0.34521 -3.52778,-0.61354 -2.3150011,-0.70271 -3.3437591,-0.62074 -1.783595,0.14212 0.919009,0.44936 1.234723,0.82839 1.234723,1.48236 0,1.4794 -1.265468,1.29394 -3.6751311,-0.53862 -3.71495,-2.82525 -3.58416,-3.72961 0.43809,-3.02916 1.230078,0.21421 2.7588751,0.38947 3.3973311,0.38947 0.990007,0 1.096428,-0.0776 0.723214,-0.52729 -0.240686,-0.29001 -0.349694,-0.86348 -0.242242,-1.27438 0.186878,-0.71462 0.100521,-0.73937 -1.986835,-0.56954 -4.0922081,0.33295 -9.93504814,0.98898 -16.6460881,1.86903 -10.8377899,1.4212 -11.5186199,1.55219 -11.3953199,2.19244 0.15274,0.7931 3.69756,3.51336 10.5133699,8.06783 2.41653,1.61478 7.54324996,5.15437 9.12337,6.29895 0.90057,0.65234 1.34057,0.77621 1.82889,0.51487 0.35366,-0.18928 1.11938,-0.34413 1.70158,-0.34413 0.58221,0 1.47259,-0.15742 1.97862,-0.34981 0.50603,-0.19239 1.90543,-0.42171 3.1097711,-0.50959 1.204341,-0.0879 3.139901,-0.30584 4.301241,-0.48436 2.100774,-0.32293 2.117569,-0.31854 3.298471,0.86237 1.726374,1.72637 2.976457,1.49994 2.11822,-0.38369 -0.499219,-1.09567 -0.08575,-1.66777 1.000111,-1.38381 1.040781,0.27217 5.644275,7.44379 5.116793,7.97127 -0.518554,0.51856 -1.790324,-0.34649 -2.901182,-1.97337 -0.95013,-1.39148 -1.474193,-1.7153 -2.277274,-1.40713 -0.837512,0.32138 -0.62188,1.47063 0.593465,3.16296 0.848932,1.18212 1.023282,1.66259 0.715127,1.97074 -0.751962,0.75196 -2.037493,-0.27135 -4.483405,-3.56888 -2.3925,-3.22553 -2.962436,-3.59908 -4.557445,-2.98702 -0.92084,0.35336 -0.648636,1.12458 1.205871,3.41654 1.942978,2.4013 2.072946,2.71934 1.111263,2.71934 -0.76531,0 -2.69952,-1.37149 -5.160518,-3.65916 -1.6275951,-1.51296 -1.8923891,-1.63251 -3.6159691,-1.63251 -2.1048,0 -2.44107,0.54989 -1.01989,1.66778 2.13103,1.67628 4.5281261,4.01791 4.3230211,4.22302 -0.124741,0.12474 -0.5833641,-0.0975 -1.0191591,-0.49376 -0.435798,-0.39632 -1.506732,-1.17286 -2.379862,-1.72565 -0.87312,-0.5528 -2.30187,-1.67463 -3.175,-2.49297 -3.36708004,-3.15581 -10.08975,-8.04581 -14.8166699,-10.7775 -0.87312,-0.50459 -2.68654,-1.73048 -4.02981,-2.72422 -1.71224,-1.26669 -2.55352,-1.69559 -2.8143,-1.43482 -0.59423,0.59423 0.22821,1.54005 1.57946,1.81641 0.65691,0.13435 1.51488,0.62911 1.90661,1.09947 0.39171,0.47035 1.00097,0.95836 1.3539,1.08447 0.42363,0.15138 0.57273,0.44654 0.43877,0.86862 -0.15631,0.49248 0.48918,1.15848 2.8101199,2.89944 3.17627,2.38255 3.92479,3.54504 2.8083,4.36143 -0.58844,0.43028 -0.58864,0.49805 -0.004,1.39036 0.68077,1.03899 0.51027,2.00181 -0.35449,2.00181 -0.51482,0 -5.0687599,-3.84228 -9.0289699,-7.61796 -0.89662,-0.85485 -1.73006,-1.55427 -1.85208,-1.55427 -0.58191,0 -0.12809,1.43635 0.57189,1.81005 0.43656,0.23306 2.50031,2.01774 4.58611,3.96594 3.5022699,3.27123 3.7923599,3.64222 3.7923599,4.84995 0,1.19232 0.20948,1.47394 2.373,3.19023 1.30515,1.03534 3.48299,2.87963 4.83966,4.09839 2.19451996,1.97147 2.58464996,2.19093 3.53603,1.98922 0.58815,-0.12471 1.31999,-0.44719 1.62631,-0.71664 z m 32.1946961,-9.75032 c -0.360553,-0.63059 -1.358268,-2.71457 -2.217145,-4.63106 -1.414912,-3.15721 -1.50695,-3.52448 -0.979821,-3.90993 0.876176,-0.64067 5.536952,-1.39947 5.965248,-0.97118 0.654725,0.65472 0.136462,1.65481 -1.036632,2.00039 -0.63019,0.18564 -1.145794,0.54283 -1.145794,0.79375 0,0.4921 0.285171,0.55958 1.981899,0.46894 0.745701,-0.0398 1.173718,0.13347 1.329002,0.53814 0.250476,0.65273 -0.328938,1.5658 -0.993616,1.5658 -0.230199,0 -0.702265,0.20746 -1.049039,0.46103 -0.592362,0.43314 -0.596807,0.57446 -0.07351,2.3366 0.306337,1.03155 0.470977,2.01472 0.365858,2.1848 -0.420891,0.68102 -1.524468,0.25054 -2.146448,-0.83728 z m -5.874893,0.41156 c -1.299094,-0.35911 -1.747554,-0.75556 -3.579294,-3.16415 -2.233943,-2.93744 -2.414632,-3.35138 -1.752116,-4.0139 0.304517,-0.30451 0.814832,-0.55366 1.134036,-0.55366 0.319201,0 1.274106,-0.26495 2.122011,-0.58876 1.263108,-0.48238 1.593967,-0.5041 1.831237,-0.12019 0.441002,0.71356 0.05518,1.32698 -1.084519,1.72428 -1.084154,0.37794 -1.210236,0.62359 -0.718389,1.39966 0.204089,0.32203 0.851623,0.4355 2.013249,0.35278 1.403649,-0.1 1.734595,-0.0113 1.835529,0.49154 0.07784,0.38783 -0.210503,0.76549 -0.783934,1.02677 -0.987944,0.45013 -1.186818,1.39258 -0.426943,2.02322 0.360477,0.29917 0.788319,0.2697 1.716861,-0.11828 1.06119,-0.44339 1.331049,-0.4468 1.901131,-0.024 0.589145,0.4369 0.604459,0.55021 0.135224,1.00055 -0.653013,0.62672 -3.010374,0.93288 -4.344083,0.5642 z M 11.499642,154.41375 c -3.6509591,-2.43535 -4.4308391,-3.57077 -2.2044681,-3.20948 1.3653981,0.22157 6.0212361,3.18206 6.5458261,4.16227 1.106434,2.06739 -0.26479,1.76644 -4.341358,-0.95279 z m 5.101019,0.12603 c -1.312916,-0.63236 -0.815134,-1.47904 0.987552,-1.67974 2.561918,-0.28522 1.659975,-0.86781 -1.638472,-1.05833 -3.338441,-0.19283 -3.944059,-0.56953 -3.535122,-2.19886 0.268944,-1.07156 2.1419,-1.92563 4.90506,-2.23674 1.327468,-0.14945 2.043227,-0.0655 2.524139,0.29609 0.936548,0.70416 0.412194,1.31628 -1.133052,1.32269 -0.716153,0.003 -1.524281,0.14608 -1.795846,0.31802 -0.312142,0.19763 0.513522,0.31657 2.244756,0.32336 2.342994,0.009 2.860122,0.12499 3.580556,0.80181 0.995572,0.93528 1.101667,2.45078 0.22469,3.20951 -0.674852,0.58386 -3.44878,1.35319 -4.742328,1.31524 -0.447659,-0.0131 -1.177528,-0.199 -1.621933,-0.41305 z m -25.0864881,-3.09173 c -5.4330899,-3.43106 -6.1800999,-4.36233 -4.4227999,-5.51376 1.12166,-0.73494 7.6726299,-1.16163 8.0658599,-0.52535 0.13586,0.21981 0.0433,0.96303 -0.2057,1.6516 -0.56104,1.55153 -0.25685,1.80317 2.5702,2.12622 2.56324996,0.29291 3.07911996,0.59139 2.41181996,1.39543 -0.40224,0.48468 -0.87385,0.55869 -2.48606996,0.39018 l -1.98965,-0.20796 0.0393,1.27578 c 0.0216,0.70169 -0.11944,1.32678 -0.31347,1.3891 -0.19403,0.0623 -1.8453,-0.82923 -3.6695,-1.98124 z m 0.11287,-3.74103 c 1.14352,-0.43881 0.60317,-1.19698 -0.85309,-1.19698 -0.9407399,0 -1.4111199,0.15679 -1.4111199,0.47037 0,0.90329 0.9823099,1.21852 2.2642099,0.72661 z m 9.87697,2.2301 c -1.30866004,-0.76266 -5.08562,-4.27642 -5.08562,-4.73122 0,-0.55748 1.82076,-1.51634 2.89289996,-1.52348 0.44619,-0.003 1.03253,-0.14551 1.30295,-0.31675 0.62587004,-0.39631 2.58673004,0.25826 2.40617004,0.80322 -0.073,0.22048 -0.9137,0.56815 -1.86811,0.77259 -1.94651004,0.41696 -2.04818004,1.08006 -0.1478,0.96396 1.51095,-0.0923 2.82222,0.16542 2.82222,0.5547 0,0.15919 -0.42258,0.48197 -0.93907,0.7173 -0.84314,0.38416 -0.88391,0.48304 -0.39902,0.96792 0.44189,0.44189 0.78891,0.47095 1.90921,0.15989 1.88843,-0.52434 3.19762,-0.47877 3.42712,0.11928 0.27959,0.72862 -0.37599,1.10285 -2.73416,1.56076 -2.53464,0.49217 -2.66257,0.49046 -3.58679,-0.0482 z M 199.23929,172.27869 c 0.8876,-0.16661 3.20133,-0.48472 5.14161,-0.7069 7.55038,-0.86461 11.28187,-1.71734 13.31736,-3.0433 0.7276,-0.47398 1.32292,-1.09765 1.32292,-1.38594 0,-0.68879 -0.19413,-0.66241 -1.33721,0.18167 -1.32184,0.9761 -4.88251,1.93056 -9.06974,2.4312 -1.94028,0.23199 -4.49858,0.57357 -5.68512,0.75905 -1.18654,0.18549 -3.42504,0.33725 -4.97444,0.33725 -1.54941,0 -3.33254,0.17968 -3.96251,0.3993 -2.20698,0.76935 -14.30174,-0.4296 -22.06927,-2.18772 -0.97148,-0.21988 -2.1621,-0.3347 -2.64583,-0.25515 l -0.8795,0.14465 0.88195,0.37871 c 0.48507,0.2083 2.15194,0.64668 3.70416,0.97419 1.55223,0.32751 4.1716,0.9027 5.82084,1.27821 1.64923,0.37551 4.10986,0.8317 5.46805,1.01376 2.72272,0.36495 12.42474,0.15818 14.96673,-0.31898 z m -189.2025,-0.66243 c -0.1158241,-0.18741 -0.8064071,-0.67948 -1.5346371,-1.09351 l -1.32404,-0.75277 1.35112,1.27702 c 1.209914,1.14356 2.0611451,1.46498 1.5075571,0.56926 z m 71.753832,-1.29371 c 0,-0.29104 -0.15875,-0.52916 -0.35278,-0.52916 -0.19403,0 -0.35278,0.23812 -0.35278,0.52916 0,0.29105 0.15875,0.52917 0.35278,0.52917 0.19403,0 0.35278,-0.23812 0.35278,-0.52917 z M 201.2059,169.45232 c 1.16416,-0.18466 3.72932,-0.49774 5.70035,-0.69574 1.97102,-0.198 3.9554,-0.50673 4.40972,-0.68606 0.45432,-0.17934 1.5928,-0.5974 2.52995,-0.92905 1.51829,-0.5373 1.68089,-0.69471 1.49258,-1.44498 -0.16822,-0.67027 -0.0721,-0.84199 0.47155,-0.84199 0.37559,0 0.76552,0.19843 0.86651,0.44097 0.20987,0.504 0.72459,-0.0455 1.71196,-1.8276 0.76845,-1.38701 2.85101,-2.35764 14.21461,-6.625 1.61821,-0.6077 8.86721,-4.15638 10.42291,-5.10245 0.71569,-0.43525 1.04235,-0.91536 1.04235,-1.5321 0,-1.14883 -0.82352,-1.46383 -1.93059,-0.73845 -0.47675,0.31237 -1.15871,0.56795 -1.5155,0.56795 -0.59114,0 -3.73481,1.34286 -5.02058,2.1446 -0.29104,0.18148 -0.92604,0.50955 -1.4111,0.72904 -2.63242,1.19113 -5.39962,2.71793 -7.6809,4.23793 -3.11744,2.07713 -9.32832,5.23566 -10.2953,5.23566 -0.4242,0 -0.9199,0.41964 -1.25019,1.05834 -0.63228,1.22269 -0.81407,1.24998 -3.33656,0.50088 -1.03242,-0.30659 -2.19797,-0.47354 -2.59012,-0.37099 -0.39215,0.10255 -1.69036,-0.0402 -2.88491,-0.31724 -2.5284,-0.58638 -11.53654,-1.04739 -13.80851,-0.70669 -1.86293,0.27936 -1.71557,0.89404 0.21433,0.89404 0.77063,0 1.60651,0.24141 1.91946,0.55436 0.80097,0.80096 0.72056,3.37253 -0.13964,4.4661 -0.3817,0.48525 -0.59336,0.98291 -0.47036,1.10591 0.33703,0.33703 4.93689,0.26341 7.33798,-0.11744 z M 6.2859529,168.72127 c -0.83653,-0.52904 -1.28849,-0.36496 -0.5447,0.19775 0.37389,0.28286 0.76617,0.42793 0.87173,0.32237 0.10555,-0.10556 -0.0416,-0.33961 -0.32703,-0.52012 z m 90.2508491,-0.90426 c 0.0705,-0.49387 -0.32704,-1.12179 -1.18996,-1.87943 -2.75355,-2.41765 -4.44673,-2.30085 -2.88894,0.1993 0.46725,0.74989 0.95573,1.65092 1.08551,2.00228 0.35839,0.97022 2.84709,0.70239 2.99339,-0.32215 z m -6.98507,0.0361 c 0,-0.29104 -0.23813,-0.52917 -0.52917,-0.52917 -0.55089,0 -0.6999,0.41723 -0.29398,0.82315 0.40592,0.40592 0.82315,0.25691 0.82315,-0.29398 z m -4.42768,-1.70899 c 0.99665,-1.30668 1.17125,-2.34796 0.3937,-2.34796 -1.34008,0 -4.07991,1.70727 -4.07991,2.54231 0,0.35158 1.31471,0.93057 2.1869,0.96311 0.32968,0.0123 1.00437,-0.50856 1.49931,-1.15746 z m 86.171518,-3.24773 c 0.50718,-0.33192 1.71154,-0.51134 3.43244,-0.51134 1.52027,0 3.21845,-0.22445 3.98116,-0.52622 0.93379,-0.36943 3.69492,-0.6186 9.26756,-0.83633 4.36562,-0.17057 8.03173,-0.25725 8.14691,-0.19262 0.32057,0.17986 8.72923,0.79525 14.19738,1.03903 4.56258,0.20341 4.87385,0.17642 4.76037,-0.41284 -0.0714,-0.37101 -0.55608,-0.71992 -1.17762,-0.84783 -0.58092,-0.11954 -1.41122,-0.40808 -1.84512,-0.64121 -0.4339,-0.23312 -3.13265,-0.8342 -5.99722,-1.33573 -7.80767,-1.36697 -19.43879,-1.34245 -28.79578,0.0607 -1.06222,0.15929 -1.97403,0.55427 -2.45645,1.06407 -0.42196,0.44591 -1.66671,1.0685 -2.76612,1.38352 -1.0994,0.31502 -2.1904,0.80349 -2.42444,1.0855 -0.23404,0.28199 -0.62477,0.51272 -0.8683,0.51272 -0.24353,0 -0.66065,0.2641 -0.92694,0.58689 -0.4433,0.53735 -0.35015,0.56562 1.10333,0.33495 0.87312,-0.13857 1.9391,-0.48205 2.36884,-0.76328 z m -89.118438,-7.59092 c 0.81568,-0.58082 1.0246,-0.99641 1.0246,-2.03818 0,-1.87426 -0.81411,-2.87669 -2.33626,-2.87669 -1.61167,0 -2.47055,0.48518 -3.13563,1.7713 -0.69641,1.3467 -0.35944,2.68916 0.83836,3.33995 1.30817,0.71076 2.41993,0.65026 3.60893,-0.19638 z m 100.426258,-0.52199 c 3.35037,-1.39987 3.87705,-3.72675 1.19161,-5.2646 -0.33577,-0.19228 -0.30679,-0.0128 0.0976,0.60428 0.76748,1.17132 0.28765,2.40936 -1.31853,3.40204 -2.50847,1.55032 -2.49072,2.31124 0.0294,1.25828 z m 21.9539,0.17381 c 0,-0.2047 -0.83979,-0.74358 -1.86621,-1.19751 -2.51946,-1.11422 -2.91278,-1.62293 -2.2444,-2.90287 0.28591,-0.54751 1.01026,-1.46174 1.60967,-2.03162 1.17917,-1.12109 1.40214,-2.32243 0.56066,-3.0208 -0.4474,-0.37131 -0.52917,-0.29679 -0.52917,0.48223 0,0.6108 -0.5946,1.57799 -1.76389,2.86916 -2.58676,2.85639 -2.40366,3.47177 1.5366,5.16454 2.53962,1.09103 2.69674,1.12814 2.69674,0.63687 z M 174.1779,138.20258 c 0.46281,-0.48782 0.75161,-0.97679 0.64179,-1.08662 -0.30944,-0.30943 -2.36518,1.02269 -2.36518,1.53265 0,0.72464 0.81219,0.51444 1.72339,-0.44603 z m -30.89602,-17.02431 c 0.86999,-2.17431 1.06223,-2.23827 5.5792,-1.85615 2.43392,0.2059 4.63923,0.21409 5.60176,0.0208 0.87312,-0.17535 2.39953,-0.32572 3.39201,-0.33417 2.48846,-0.0212 3.15757,-0.66151 5.41362,-5.18064 1.05176,-2.10681 2.43835,-4.65749 3.08132,-5.66819 1.60321,-2.52015 1.62061,-3.20802 0.1075,-4.25169 -1.06362,-0.73363 -1.52806,-0.82831 -3.35139,-0.68318 -2.96117,0.23569 -9.10454,1.337 -9.50736,1.70437 -0.46652,0.42544 1.40362,0.37141 3.33375,-0.0963 1.94258,-0.47074 5.90571,-0.45506 7.17733,0.0284 1.29762,0.49336 1.1957,1.40749 -0.42563,3.81711 -0.7492,1.11347 -1.93963,3.07127 -2.6454,4.35067 -2.09144,3.7913 -1.55354,3.59994 -10.22631,3.638 -5.8255,0.0256 -7.6621,0.14264 -8.11336,0.51721 -0.43908,0.36445 -0.5833,1.08407 -0.5833,2.91041 0,1.33444 0.14151,2.42625 0.31447,2.42625 0.17296,0 0.55627,-0.6043 0.85179,-1.34289 z m -78.255667,-4.99505 c 0.395499,-0.63992 -0.902303,-4.24736 -1.721003,-4.78379 -0.434782,-0.28488 -2.128742,-0.68105 -3.76436,-0.88036 -6.222978,-0.75835 -8.632793,-1.1556 -9.059261,-1.49337 -0.685814,-0.54319 -0.520341,-2.18349 0.329226,-3.26354 0.423608,-0.53853 2.050796,-1.83037 3.615973,-2.87074 5.921907,-3.936311 6.564376,-4.710918 4.751335,-5.728551 -1.0222,-0.573743 -0.979647,-0.600847 -8.003876,5.098041 -3.734689,3.03002 -5.354955,5.5331 -4.662993,7.20365 0.71492,1.72596 1.486902,2.11032 5.685329,2.83067 5.133679,0.88082 6.703843,1.3784 9.309312,2.95007 2.142501,1.2924 3.137413,1.55748 3.520318,0.93792 z m 7.592179,-24.198162 c 0,-0.982382 -0.13729,-1.523465 -0.35277,-1.39029 -0.39252,0.242583 -0.46854,1.580901 -0.13865,2.440591 0.35616,0.928147 0.49142,0.639058 0.49142,-1.050301 z m 74.949748,1.062876 c 0.63219,-0.299992 1.60508,-1.021024 2.16197,-1.602295 1.18954,-1.241613 1.36527,-3.190243 0.41807,-4.635852 -0.59636,-0.910156 -6.64052,-4.152519 -7.74081,-4.152519 -0.6877,0 -1.36195,1.022001 -2.21103,3.351387 -0.70091,1.922923 -1.11936,2.547006 -1.4716,2.194769 -0.25899,-0.258993 1.5215,-5.865461 3.08018,-9.698934 0.57367,-1.410902 1.20663,-3.474652 1.40659,-4.586111 0.53335,-2.96459 1.59366,-5.688578 4.24828,-10.91403 4.55903,-8.974193 9.35217,-16.580246 13.55674,-21.512723 1.95558,-2.294127 2.58642,-3.317431 2.91042,-4.721089 0.77893,-3.374489 0.29099,-5.197339 -1.06318,-3.971834 -0.3519,0.318464 -0.63982,0.769718 -0.63982,1.002786 0,0.233069 -0.58914,1.195334 -1.3092,2.138368 -0.72006,0.943035 -1.63287,2.303773 -2.02847,3.023864 -0.3956,0.72009 -1.51302,2.451871 -2.48316,3.848402 -1.83992,2.648591 -4.02512,6.348267 -4.97806,8.42816 -0.30616,0.668229 -1.17665,2.127957 -1.93444,3.243839 -0.75778,1.115881 -1.37778,2.216042 -1.37778,2.444803 0,0.467381 -1.74538,4.480505 -4.13197,9.500563 -1.76364,3.709713 -2.92359,6.815535 -2.92359,7.828066 0,0.364133 -0.37274,1.410843 -0.82831,2.326024 -1.35785,2.727729 -3.64909,9.262565 -4.09563,11.681132 -0.34806,1.885211 -0.33382,2.33876 0.0866,2.759225 0.43571,0.435713 0.57749,0.428848 1.05753,-0.05119 0.68767,-0.687671 0.95754,-0.701874 0.95754,-0.0504 0,0.825682 1.04659,1.627608 1.8776,1.438664 0.42253,-0.09606 1.64136,0.130783 2.70851,0.50411 2.40754,0.842243 3.28603,0.876076 4.74697,0.182814 z m 5.65762,-3.691699 c -0.30527,-0.493938 -0.86508,0.17816 -0.87419,1.049546 -0.005,0.43071 0.0895,0.421677 0.56551,-0.05434 0.31454,-0.314537 0.45315,-0.761447 0.30868,-0.995204 z M 105.09847,73.011369 c 0.21156,-1.13244 0.13709,-2.365449 -0.25259,-4.182091 -0.30394,-1.416897 -0.62827,-3.298481 -0.72073,-4.181295 -0.1635,-1.561092 -0.11166,-1.663221 1.88965,-3.723116 1.13177,-1.1649 2.61338,-2.339819 3.29248,-2.610938 0.6791,-0.271118 2.05805,-1.015061 3.06432,-1.653204 2.99864,-1.901621 3.67566,-3.443129 2.0161,-4.590463 -0.50424,-0.348607 -1.49643,-1.129191 -2.20486,-1.734632 -1.73443,-1.482281 -4.99222,-3.118841 -4.99222,-2.507851 0,0.528471 2.7915,3.293222 4.51747,4.474184 1.47797,1.011264 1.3874,1.998187 -0.28414,3.096573 -0.6791,0.446241 -1.89638,1.443884 -2.70507,2.216983 -0.80869,0.773099 -1.70346,1.405636 -1.98837,1.405636 -0.28492,0 -1.32982,0.762151 -2.32202,1.693672 -1.76382,1.655961 -1.80398,1.738749 -1.80398,3.718221 0,1.282256 0.24318,2.504438 0.66327,3.333412 1.01441,2.00175 1.22194,3.945234 0.61072,5.719312 -0.2917,0.846659 -0.44077,1.684341 -0.33127,1.861513 0.37124,0.600668 1.24978,-0.722278 1.55124,-2.335916 z m 2.67856,-37.361742 c -0.0979,-0.242535 -0.17794,-0.0441 -0.17794,0.440972 0,0.48507 0.0801,0.683507 0.17794,0.440972 0.0979,-0.242534 0.0979,-0.639409 0,-0.881944 z"
       id="path4584" />
  </g>
</svg>
