<?xml version="1.0" encoding="UTF-8" standalone="no"?>
<svg
   xmlns:dc="http://purl.org/dc/elements/1.1/"
   xmlns:cc="http://creativecommons.org/ns#"
   xmlns:rdf="http://www.w3.org/1999/02/22-rdf-syntax-ns#"
   xmlns:svg="http://www.w3.org/2000/svg"
   xmlns="http://www.w3.org/2000/svg"
   viewBox="0 0 900.53326 1418.4254"
   height="1418.4254"
   width="900.53326"
   version="1.1"
   id="svg4136">
  <metadata
     id="metadata4142">
    <rdf:RDF>
      <cc:Work
         rdf:about="">
        <dc:format>image/svg+xml</dc:format>
        <dc:type
           rdf:resource="http://purl.org/dc/dcmitype/StillImage" />
        <dc:title></dc:title>
      </cc:Work>
    </rdf:RDF>
  </metadata>
  <defs
     id="defs4140" />
  <path
     id="path4160"
     d="m 685.85112,10 c -24.4803,36.0565 -89.17049,18.463294 -94.27539,73.746094 -17.2861,46.161796 -35.73248,91.780816 -22.33008,141.132816 20.6556,59.8968 12.39611,112.46171 -67.46679,92.28711 -39.9476,5.321 -80.82778,20.53096 -107.11328,53.28906 -16.21949,25.52977 -18.23558,51.47444 -23.48243,68.5293 -13.9911,1.53474 -32.32758,-7.30471 -49.5,-30.49415 -11.4787,-30.3245 -15.95879,-63.01696 -30.77929,-88.35156 -13.453,-29.9002 -38.11456,-51.74725 -68.50196,-74.47265 -37.8061,-13.0086 -88.2322,-19.61959 -125.470702,3.94921 -47.8906,4.4098 -73.656097,45.53838 -83.091797,84.73438 -16.3892006,60.7517 22.97034,113.72347 56.11914,156.70117 39.892819,78.99637 41.509679,54.27775 11.988282,141.9082 -14.2013,75.64723 -12.284238,152.5266 -6.023438,228.64063 -1.3593,67.47318 1.783191,136.53992 0.337891,204.33989 10.8601,78.3682 7.876425,153.7682 2.703125,231.0253 -1.6298,25.3501 15.761972,63.9125 32.201179,80.3418 4.5187,23.132 9.87903,33.2806 10.55273,7.2696 9.4861,3.0899 16.83842,-5.7295 17.04102,-35.3594 -0.8572,-23.2122 -1.96645,-112.2533 9.40625,-35.291 41.9398,94.0412 21.26863,-94.458 17.76953,-115.832 -0.8664,-58.502 33.05976,-122.2486 37.53906,-185.3555 5.2972,-34.12755 26.95925,-250.81306 27.31055,-193.98635 -28.1171,72.69985 88.58588,67.38897 59.70898,141.32617 30.5943,69.41388 -17.33531,116.70058 -31.82031,178.78318 10.3465,81.809 -33.2103,163.7383 -34.4668,248.2989 12.739,43.086 31.67214,-116.8726 23.93164,-96.6836 23.9391,-64.5473 16.61299,-142.7611 34.83789,-196.5157 14.181,-70.746 84.94519,-18.7295 124.21289,-33.9257 69.7179,4.5523 143.55888,-8.9266 212.83008,-20.7071 -18.6867,12.146 35.55381,66.9765 43.94531,114.2266 35.244,69.7505 -55.68373,130.7334 -37.46093,189.4726 33.2813,-7.5939 54.67492,-50.3284 39.29492,9.543 -21.1301,28.8443 -51.04738,71.6412 10.19922,49.9258 83.5793,-17.1083 115.78652,-106.0385 84.01562,-183.3125 1.6123,-58.2313 6.39222,-119.6847 1.73242,-179.9238 -8.4376,-39.47904 -9.67336,-128.06782 6.36914,-34.6407 11.242,57.1833 1.48511,138.1371 12.22071,182.795 0.5891,53.3072 20.61463,126.3945 15.42383,165.5019 30.85042,54.8654 1.98221,-113.7602 -1.29688,-140.7539 -4.63543,-104.8195 -0.60627,-173.4706 -25.69727,-256.92968 20.92842,-77.41117 24.35213,-248.53848 67.55079,-298.86133 47.3919,-37.06618 64.47248,-109.70456 48.24218,-166.54492 -9.4965,-48.4639 -31.94542,-84.93963 -75.70312,-103.80273 -35.2016,-21.1578 -114.61535,-72.96365 -57.90625,-99.87305 43.5309,-15.7585 39.11066,-69.73966 58.81836,-104.91406 18.6495,-38.8516 -2.50746,-84.878433 -2.38086,-120.832033 C 766.98028,51.122097 719.84792,27.1058 685.85112,10 Z m 0.91211,12.392578 c 0.068,-0.011 0.1519,-6.09e-4 0.25,0.02539 0.8316,3.1004 -1.2756,0.05261 -0.25,-0.02539 z m -3.21289,6.00586 c 36.5292,11.677799 59.05586,18.417421 91.59766,34.419921 41.1844,30.4139 34.47149,97.972851 18.87109,137.343751 -50.7452,42.2313 6.04283,-69.90945 -33.41797,-79.99805 -39.7305,9.717 -73.85311,-10.71311 -112.97461,-19.44531 -28.0027,-36.432 -43.14255,22.33322 -61.28125,38.76563 -8.7958,37.6803 3.28127,-98.10733 55.41407,-91.70313 15.674,-2.7683 27.82631,-13.299013 41.79101,-19.382812 z m -36.10742,22.103515 c -45.8752,14.0412 -11.49701,56.209027 19.08789,40.453125 -21.3982,-10.8876 45.14215,-20.831781 -14.93555,-17.613281 60.0658,-35.1641 -33.01796,7.408475 -13.16406,-7.453125 0.7033,-3.4527 19.36562,-14.297519 9.01172,-15.386719 z m 151.44726,21.439453 c 0.7438,0 1.73334,0.208272 3.01954,0.701172 5.639,19.4643 -10.21004,-0.668172 -3.01954,-0.701172 z m -167.54101,4.291016 c 0.1255,-0.011 0.27135,0.01097 0.43945,0.04297 0.3296,3.8097 -2.32235,0.01303 -0.43945,-0.04297 z m 4.44336,6.466797 c 4.2015,0.4296 -2.8094,1.5769 0,0 z m -5.74219,15.388672 c 31.1452,13.084399 59.19285,35.025039 92.46484,30.398439 70.62311,-9.479 36.83993,64.92119 26.10743,104.08789 -5.8241,35.8253 27.97428,-23.75808 9.61718,28.69922 20.319,-53.987 33.08938,-26.74046 -2.54882,9.36914 -16.86,-36.1592 -16.48279,26.28141 -49.05469,44.35351 -34.2815,22.7447 -81.89079,25.85906 -106.40039,-7.46484 -34.9508,-43.3425 -6.54432,-97.3058 -5.26172,-143.5957 1.4455,-27.1115 16.80297,-47.50656 35.07617,-65.847659 z m -23.73242,61.687499 c -30.3398,21.3295 42.23885,11.28809 29.78125,44.08789 -23.8564,-37.5687 -11.66658,-5.73035 -16.98828,-10.50195 -44.8257,-9.6269 11.11752,27.35718 24.01172,29.77148 -1.1199,21.0218 -24.53487,72.91383 12.17773,53.29883 16.2043,-5.519 -27.74035,-19.73962 -3.06055,-56.97852 -9.0926,-26.4804 0.25933,-55.32253 -45.92187,-59.67773 z m -30.98047,1.02539 c 10.2739,46.4781 -11.32137,70.3268 -1.76367,3.5 z m 122.51758,26.23828 c -0.5321,0.019 -1.0435,0.0577 -1.5332,0.12305 -51.9745,17.8371 29.52789,13.32279 43.27539,34.43359 10.4675,-14.3192 -25.24919,-35.13504 -41.74219,-34.55664 z m -8.83789,22.68164 c -37.3063,37.577 72.01956,24.72918 23.85156,13.04688 6.0816,-16.9619 -16.92466,-6.59238 -23.85156,-13.04688 z m -42.85156,2.98828 c 1.2458,3.0025 -2.2561,0.507 0,0 z m 123.15429,26.4961 0.0391,0.23828 z m -580.22461,4.40625 c 11.4424,15.4586 38.72522,27.09186 43.85742,27.94336 20.55581,24.2108 27.35397,21.18685 42.66797,51.68945 6.4578,8.6944 18.95799,38.02651 21.33789,43.47461 6.3619,23.6236 -19.5986,41.99703 -2.5957,46.08203 -20.3017,9.0917 -30.77506,-23.97068 -27.69336,-17.55078 -5.8739,-13.423 -13.27557,-24.37778 -36.79297,-25.17578 0.8891,4.3114 -22.23203,20.37446 -18.58203,36.72266 -20.0923,-13.8617 2.81344,-17.55385 -18.47656,-37.46485 -13.0234,20.1058 -24.81862,-35.99879 -24.35742,-23.67969 -10.4935,-17.6639 -42.54156,-34.1344 -43.75586,-2.2207 -30.524905,5.8909 7.8496,18.73353 -32.279302,14.80274 -3.61,24.7017 -7.428059,16.88981 -27.880859,18.82421 9.3747,33.2926 -28.085697,2.84917 -20.654297,29.23047 -19.0151,4.5747 -26.142675,-17.50325 -22.921875,-54.25195 -4.2298,-24.3558 31.413759,-21.42135 18.443359,-35.37305 7.0661,-12.8921 11.6248,-56.24655 25.9375,-31.43945 11.4348,1.9293 9.828047,-33.84446 45.623054,-20.44336 1.9089,-19.5617 23.21244,-1.3026 38.36914,-17.8457 25.7173,28.2538 -1.37594,-11.88127 28.63086,1.36133 5.1715,-8.4715 7.42674,5.59625 11.12304,-4.68555 z m 434.19727,44.22656 c -26.5194,26.1559 63.67185,39.75656 32.96875,10.25586 -9.7739,-10.485 -21.68515,-4.46516 -32.96875,-10.25586 z m 22.49414,12.44336 c -0.712,8.8857 -19.6894,0.3796 0,0 z m -57.19141,7.57031 c 27.9858,43.9722 82.54082,38.59632 124.19922,17.13672 31.3061,24.4714 -32.81292,46.2321 -47.98437,59.86524 -31.54579,19.29491 -53.48763,69.69287 -62.89063,19.89257 -7.568,-35.3768 -76.32172,-84.68293 -13.32422,-96.89453 z m -552.962891,2.20508 c 0.061,-0.046 0.01435,0.11688 -0.185546,0.58008 -5.8916,10.3459 -0.242554,-0.25148 0.185546,-0.58008 z m -12.398437,14.13867 c 11.8576,2.2712 -1.8723,5.5937 0,0 z m 494.597658,4.89008 c 44.3318,28.5734 58.59835,94.52571 85.00195,141.88531 33.0908,-23.3453 65.90972,-54.29042 104.47071,-79.69336 54.52835,-42.21101 110.1961,15.72228 148.6582,52.95118 0.33905,7.11289 50.1557,73.8794 18.1875,113.06054 -14.2326,74.34739 -42.17041,52.49066 -74.66601,124.12305 -26.2854,37.82272 -93.68156,162.83062 -106.84766,60.79297 3.5135,-35.05632 -62.84724,-71.87797 -31.46094,-92.21094 35.6615,-8.17252 77.20238,-47.71061 14.39258,-17.96875 -41.7008,17.59947 31.10236,-81.62263 69.35156,-89.29883 43.9787,-22.55187 51.35382,-82.28063 11.19922,-22.16601 -30.0777,45.81083 -4.04272,-50.94937 -27.60742,10.69922 -31.5397,51.36784 -1.95835,-44.96475 -8.40625,-31.10547 -23.3978,36.77807 -31.33543,86.24733 -66.11133,113.55664 -24.6637,69.1627 -40.85897,-78.55668 -87.29297,-88.62305 -17.9106,-48.08071 -114.13393,-28.25755 -95.24023,-86.99023 -12.2159,-91.9192 -13.53471,76.62184 -25.90821,7.15234 -3.9804,-48.7455 -24.89285,-28.92843 -16.81445,-12.45703 -1.4796,90.03198 -12.63202,-99.66071 -22.98242,-28.38281 2.6192,39.9647 24.46623,62.74212 -22.01367,42.11132 -7.2313,-45.29515 49.17498,-107.8898 101.47656,-115.1621 11.9301,-2.67141 20.31118,-1.60129 32.61328,-2.27399 z M 146.27495,342 c 23.7151,34.7382 40.7251,80.90345 75.1543,91.43945 15.4034,-3.6266 5.28356,-70.3289 38.03906,-22.5 23.5962,37.6667 -43.48233,43.64038 7.98437,39.48438 3.7208,-41.6748 46.25834,-20.01071 65.55274,3.15429 16.571,50.93077 -28.17265,111.40367 -79.40625,122.86719 33.7499,-32.85964 5.69625,-149.65323 8.43945,-49.79687 -11.4475,32.20739 -22.19551,76.51627 -33.32031,59.44726 2.8198,36.31718 -84.57689,26.05766 -46.65039,2.46094 38.6639,-51.12449 -41.61148,5.36679 -54.79688,-24.66016 -55.545699,-28.82588 -23.3215,-91.09955 -11.5664,-20.61132 26.713,51.88203 77.63681,-41.56461 22.66211,9.95507 -22.8017,-12.46851 -29.82589,-100.60298 -37.21289,-55.46093 -48.213706,4.67783 23.2676,-43.79376 -37.154303,-21.45703 C 31.903857,435.53244 32.144745,416.9528 77.304245,394.5918 104.90805,394.759 125.04525,365.0503 146.27495,342 Z m 82.44336,244.0957 c -0.3759,-4.84065 -2.35351,-10.5077 -6.44531,-17.08203 2.1675,8.29869 4.31311,13.81075 6.44531,17.08203 z m -1.13867,-237.05664 c -13.0207,13.9707 16.3123,10.5087 0,0 z m -99.40235,1.31446 c 11.2125,0.1012 -8.68759,9.83373 -1.18359,0.0195 0.4284,-0.018 0.82189,-0.0225 1.18359,-0.0195 z m -25.77539,12.875 c 11.0578,12.8336 -16.527199,-0.1348 0,0 z m 109.20899,7.62695 c -15.9758,14.1615 11.2447,9.2432 0,0 z m 265.23242,6.80273 c -3.1896,41.198 45.8619,98.3353 11.3418,24.01172 -7.1712,-4.7988 -2.1765,-20.04052 -11.3418,-24.01172 z m -386.583987,3.41992 c 7.6661,2.99951 -6.5051,6.03911 0,0 z m 144.064457,5.72266 c 0.085,-0.012 0.16951,-0.0112 0.2539,0.01 -2.741,3.1305 -1.5275,0.17563 -0.2539,-0.01 z m 9.77148,13.98438 c -20.0435,31.2769 39.11866,43.44724 4.13086,0.36914 z m -0.52734,5.37304 c 7.04,1.3925 -0.9398,3.1327 0,0 z m 4.89453,3.46875 c 8.0844,12.0878 -3.6519,6.927 0,0 z m -43.45312,2.85547 c 4.1761,2.2407 -2.8477,2.5568 0,0 z m 125.27734,29.6582 c 3.0378,-0.21949 -0.70777,4.78859 -0.70117,0.11719 0.266,-0.065 0.49867,-0.10259 0.70117,-0.11719 z m -166.33594,1.94922 c -31.103,-0.3014 -75.534786,52.0448 -18.20898,22.40625 -0.6263,-10.7597 54.89397,-16.72928 21.17187,-22.20898 -0.9716,-0.1238 -1.95949,-0.18757 -2.96289,-0.19727 z m 176.96485,1.5 c 39.4552,21.9395 0.29887,89.06706 -22.42383,115.32032 -16.5637,18.45951 -34.50543,16.26078 -55.51953,25.23437 -40.8899,9.89983 34.61918,6.15829 -19.01172,9.41602 13.0244,-15.50977 68.04962,-24.28876 55.26562,-23.44336 30.1841,-25.98853 55.60256,-81.60325 41.68946,-126.52735 z m 23.10351,5.69141 c 82.7816,22.89792 183.15513,35.34217 228.70313,119.13086 29.6807,60.66319 62.40889,118.00887 93.49609,176.74805 15.5165,75.26512 64.10482,141.62094 57.10352,221.64648 3.2044,52.25746 18.39282,116.79026 7.76562,162.09176 -13.8186,-95.5643 -8.68865,69.6404 -19.40625,-2.9336 1.8575,-31.3077 -23.25512,-92.3885 -11.51562,-20.4882 17.5913,81.7048 -75.97657,50.3419 -71.63477,-15.0606 -11.3267,-29.5293 61.17667,72.4321 19.13477,0.2735 -33.9966,-45.319 -71.60896,-105.65265 -50.50196,-163.82036 0.6023,-31.52831 104.41568,-48.38356 58.48828,-51.72852 -57.3133,-9.09885 -72.33144,94.82188 -92.68554,6.63282 -36.3297,-44.72975 -57.14307,-103.27218 -82.66407,-148.81055 -19.0597,-27.59296 -13.09963,-75.95919 2.10157,-121.16211 -27.7437,35.62211 -37.24183,95.54385 -10.48633,130.0625 59.9623,50.87808 -47.85065,77.36415 -78.49805,67.98828 -46.8577,-10.85419 -97.87101,-15.36591 -113.94531,-72.56054 -29.9123,19.86503 71.1089,68.71887 -6.625,68.96875 -40.4544,-8.72224 -56.72116,-55.63145 -91.88086,-75.79688 -58.2696,19.87817 -84.24842,-144.7874 -67.60352,-37.95117 22.5253,57.97389 133.81019,59.92012 79.73829,142.82812 1.9789,43.07039 -7.81827,151.74332 -27.69727,57.12891 -55.8173,-49.30003 9.04418,30.62589 9.39258,62.78906 6.604,53.26039 -14.21799,143.58129 -32.11719,150.39259 20.1702,-68.9381 4.07507,-34.5119 -16.08203,3.998 -50.409504,7.6168 -71.119257,-57.5052 -59.751957,-80.0586 -6.0771,36.4607 35.391157,70.8504 11.626953,1.9004 C 84.166366,955.76701 84.83591,875.93626 83.43901,797.25586 c -10.6692,-79.93879 -0.0015,-162.76317 26.01172,-238.48047 33.6781,41.21363 86.41117,78.11472 137.85547,47.15234 78.0826,-3.71882 126.89279,-83.09283 116.71289,-154.64648 z m 424.39844,14.07031 c -36.2708,8.03919 -48.84152,60.03547 -27.21662,24.88471 -12.2734,19.55435 37.27982,-24.22331 27.21662,-24.88471 z m -615.39649,5.4961 c -56.2029,5.76096 -41.44861,55.48277 1.55079,11.30664 2.9526,-3.66719 5.13681,-9.93874 -1.55079,-11.30664 z m 9.89844,103.25586 c -15.8684,7.22786 -52.7697,12.26072 0,0 z m 273.73242,7.48632 c -30.1581,3.56011 29.40619,137.24057 10.14649,42.19922 -6.1699,-13.30063 -2.89169,-30.36525 -10.14649,-42.19922 z m -187.84765,7.46485 c 6.2126,1.71195 -5.9312,4.88827 0,0 z m 198.04101,95.14453 c -13.8824,15.66295 12.5797,11.85978 0,0 z m 334.05078,8.67969 c -13.90525,82.65239 -22.51622,110.30552 -27.95898,135.30468 -66.176,47.84843 -71.57647,-42.58721 -18.85547,-66.23632 17.1303,-21.83428 39.55975,-41.39169 46.81445,-69.06836 z m -319.10937,58.98437 c -40.8808,58.70706 4.31594,66.67966 6.55664,2.32227 l -3.75977,1.27734 z m -209.45508,1.81641 c 4.6969,24.83502 67.69832,44.45399 21.57422,13.32422 -8.0317,-4.3792 -13.04552,-10.62023 -21.57422,-13.32422 z m 245.12109,39.51953 c 24.38121,50.74965 104.39101,129.95011 -2.49609,119.21875 -6.04,5.50017 -11.79856,9.28103 -17.25586,11.61523 51.7929,-12.04159 109.39416,-35.48143 101.50586,45.34961 7.4562,11.42508 8.2761,20.30426 5.8125,26.82422 -43.6764,4.96637 -17.5613,12.05607 -5.1543,7.51757 -14.3536,13.1292 -44.54062,5.7211 -0.89062,-17.55858 -54.8595,27.83468 -127.45282,34.24588 -190.47852,36.36328 -42.6714,0.8087 -85.36893,-40.43808 -106.96093,-81.33008 -1.885,-11.79483 -5.94814,-24.80011 -6.36524,-35.69727 33.0566,61.15217 115.167,13.19112 163.625,23.54493 7.6157,0.40314 15.99144,-0.48858 24.74414,-2.05079 -43.8295,-0.85659 -61.64838,-99.20347 -37.14258,-105.29687 17.8002,29.0775 48.45918,58.6374 85.35938,64.84375 -35.6672,-24.73878 -112.85393,-67.6012 -27.89453,-84.32617 l 6,-5.85938 z m -33.91406,133.79687 c 4.4578,0.0871 9.18341,-0.83338 14.16211,-2.96289 -4.7881,1.11323 -9.52951,2.13608 -14.16211,2.96289 z M 341.43901,806.04883 c 39.4924,0.0635 115.85718,29.31991 38.48438,26.40234 -68.6474,37.85602 98.48045,108.97257 16.59375,87.59375 -33.0347,-36.03018 -65.64238,-38.75824 -14.60938,2.58594 -5.2128,4.07075 -82.1554,-54.7488 -22.4414,-0.75977 18.1313,19.87749 -87.83724,-54.71767 -21.74414,3.11524 -33.2123,-14.32871 -113.39784,-69.85177 -75.36524,-111.43555 23.6242,16.58898 40.42785,-5.03616 64.96875,-5.5625 3.5809,-1.36145 8.47158,-1.94852 14.11328,-1.93945 z m 149.04883,10.76367 c 1.8591,35.08539 77.0711,73.29062 13.9375,15.49414 -5.0869,-2.31093 -6.7884,-15.33248 -13.9375,-15.49414 z m 30.75977,2.16797 c 8.2926,32.18182 55.53183,99.44606 22.42383,24.14258 -8.38351,-4.99095 -11.75603,-20.16008 -22.42383,-24.14258 z m -123.625,19.0625 c 14.8715,19.55884 38.19212,111.53695 -8.83008,44.75781 -18.2388,-20.7265 -18.78032,-38.83113 8.83008,-44.75781 z m 375.26367,0.65625 c -22.44308,59.71176 -75.37119,27.94119 0,0 z M 629.57573,857.0957 c -36.8705,31.35817 -34.19464,65.47474 0.91016,11.85742 4.8053,-1.82054 1.57344,-9.81979 -0.91016,-11.85742 z m 131.95703,12.69727 c 3.5529,71.77908 -40.8896,21.66195 0,0 z m -177.89258,62.3418 c -23.60779,34.96761 -90.25455,101.85083 -23.25585,46.56445 10.1904,-9.1376 33.05206,-34.08913 23.25585,-46.56445 z m 20.21876,2.52343 c 0.3286,0.0168 0.71591,0.27032 1.16601,0.83399 -2.1256,21.01866 -4.34271,-0.99638 -1.16601,-0.83399 z m 149.22656,12.19532 c 4.0646,-0.15623 -2.3664,3.99465 0,0 z M 301.95464,964.8457 c 13.5659,48.5199 129.77727,67.0564 25.95117,52.9023 -20.6872,-1.0102 -26.10927,-36.60261 -25.95117,-52.9023 z m -215.841802,45.0137 c 0.076,-0.029 0.208363,0.088 0.414063,0.4511 -0.052,2.5327 -0.744863,-0.3277 -0.414063,-0.4511 z m 524.710942,3.4433 c -7.3504,33.8116 -77.57585,24.8004 -112.75195,35.5996 -64.4868,4.6998 -126.07491,2.6944 -188.87891,-10.3867 -1.3374,-15.6823 20.71779,-3.4319 53.74609,-4.0781 84.023,7.4666 166.09167,-1.5827 247.88477,-21.1348 z m -225.30469,8.7989 c 5.9739,0.03 -3.00417,5.5062 -3.54297,0.3672 1.532,-0.265 2.68957,-0.3715 3.54297,-0.3672 z m 67.00781,1.414 c 15.5343,-0.1493 -11.35591,3.5565 -3.69531,0.084 1.4355,-0.048 2.65971,-0.074 3.69531,-0.084 z M 87.237838,1104.207 c 42.982302,1.7112 120.957662,40.9175 55.410162,65.8145 -46.785406,-6.8914 -56.668362,-17.7709 -55.410162,-65.8145 z m 639.025392,59.0762 c 61.3133,1.154 -9.07824,92.2707 -43.08984,45.1504 -10.4734,-42.7654 -1.02159,-38.9291 40.07031,-45.1348 1.0403,-0.028 2.04623,-0.034 3.01953,-0.016 z m -619.32031,8.2539 c 41.6066,-0.3498 53.27885,27.9762 49.62695,41.4043 14.7891,23.6171 11.42307,181.1627 -1.55273,80.1289 -8.3495,-34.3909 -7.76966,-53.9445 -21.06836,-27.3926 -33.1268,-22.5379 -32.1683,49.0223 -25.375,96.1993 -32.526004,-51.9763 -17.779567,-118.0922 -8.664067,-176.2325 l 0.257817,-13.6367 0.41797,-0.2051 c 2.1929,-0.1611 4.31122,-0.2484 6.35742,-0.2656 z m 242.24023,14.8262 c 6.5018,23.9676 97.34603,43.9148 83.64063,44.4023 43.7895,10.3851 -15.46442,90.1043 -1.72852,129.2735 -1.3772,96.471 16.76363,-25.1373 16.79883,-56.5918 -1.9853,-28.9062 34.48359,-96.827 -2.53711,-81.3457 -18.1515,16.0042 -69.97313,-33.1421 -96.17383,-35.7383 z m 83.64063,44.4023 c -3.682,-0.8732 -8.09214,-1.2565 -13.33594,-1.084 7.0894,0.8125 11.32824,1.1554 13.33594,1.084 z m 321.44336,-29.6894 c 3.5235,3.0332 -6.6991,9.9654 0,0 z m -587.9082,6.0937 c 0.18539,1.8324 0.38121,3.7489 0.63281,6.0918 -0.2608,-2.0234 -0.46922,-4.0544 -0.63281,-6.0918 z m 348.13671,3.0606 c -30.1525,21.5049 -41.62743,53.9177 -36.49023,63.4707 -18.1963,70.2294 47.73001,-69.3824 37.41602,-56.7266 l 1.90234,-5.0078 z m 234.00391,6.8379 c 5.7028,40.3288 30.42867,109.5289 -3.80273,131.9589 23.0914,-62.5746 -55.28418,83.4274 -14.92188,-6.8886 9.0821,-28.6646 -70.30431,103.5564 -35.44141,26.6328 38.2921,-69.3869 -7.70342,0.1728 -34.01562,26.9805 -24.6195,11.2147 67.48988,-108.7556 2.27148,-102.4395 -13.2766,52.7338 -55.28587,48.292 -16.20117,-3.9414 15.0374,-51.5175 50.47433,-71.2595 102.11133,-72.3027 z m -271.14648,5.4941 c -31.8319,21.4124 4.3769,17.688 0,0 z m -350.91016,50.4512 c 18.2262,47.7432 -8.7143,62.1701 0,0 z m -10.60156,25.3535 c 31.0089,44.9285 4.6922,62.3595 0,0 z m 133.03906,23.7129 c -3.8059,15.7765 -5.94828,65.3939 20.85742,49.9726 -11.1055,-21.2388 -5.16334,-24.3231 3.78906,-46.8027 -14.3928,4.3476 -13.82518,9.0353 -24.64648,-3.1699 z m -132.5918,9.9433 c 27.2385,31.9453 6.6113,34.7969 0,0 z m 136.39063,30.9493 c 0.1425,-0.01 0.31805,-0.01 0.53125,0 2.6387,2.4344 -2.66765,0.1448 -0.53125,0 z"
     style="fill:#000000" />
</svg>
