<?xml version="1.0" encoding="UTF-8" standalone="no"?>
<svg
   xmlns:dc="http://purl.org/dc/elements/1.1/"
   xmlns:cc="http://creativecommons.org/ns#"
   xmlns:rdf="http://www.w3.org/1999/02/22-rdf-syntax-ns#"
   xmlns:svg="http://www.w3.org/2000/svg"
   xmlns="http://www.w3.org/2000/svg"
   version="1.1"
   id="svg19284"
   width="1332.5582"
   height="1941.7888"
   viewBox="0 0 1332.5582 1941.7888">
  <metadata
     id="metadata19290">
    <rdf:RDF>
      <cc:Work
         rdf:about="">
        <dc:format>image/svg+xml</dc:format>
        <dc:type
           rdf:resource="http://purl.org/dc/dcmitype/StillImage" />
        <dc:title></dc:title>
      </cc:Work>
    </rdf:RDF>
  </metadata>
  <defs
     id="defs19288" />
  <path
     style="fill:#000000"
     d="m 678.95308,1941.0737 c -9.2636,-3.9347 -18.9887,-26.0091 -29.3807,-66.6892 -7.7235,-30.2341 -10.2272,-45.0269 -10.2178,-60.3712 0,-7.15 -1.0959,-23.8 -2.4451,-37 -2.7308,-26.7172 -4.2562,-59.6109 -2.6897,-58 0.5348,0.55 2.2159,10 3.7356,21 3.2156,23.2737 5.5607,37.2447 8.4768,50.5 1.1495,5.225 4.3376,21.0609 7.0847,35.191 7.1964,37.0155 18.1035,78.6864 22.9813,87.8007 1.2749,2.382 3.0045,2.6473 3.0045,0.4608 0,-0.8511 1.5992,-7.0386 3.5539,-13.75 4.2617,-14.633 14.5817,-59.6018 20.9479,-91.2797 5.4949,-27.3421 6.264,-30.4228 7.5958,-30.4228 0.5612,0 0.7536,-0.4317 0.4275,-0.9593 -0.3261,-0.5277 -0.1659,-1.7652 0.356,-2.75 1.9029,-3.5912 7.3389,-29.6974 8.2478,-39.6099 1.2659,-13.8045 3.9374,-31.7911 5.0399,-33.9308 1.3125,-2.5476 3.7318,-2.1415 4.856,0.8151 5.8048,15.268 -20.4144,170.2659 -35.6271,210.6138 -1.9423,5.1515 -3.5336,7.5109 -6.958,10.317 -2.4418,2.0009 -4.4397,4.2834 -4.4397,5.0722 0,0.7887 1.9006,3.2786 4.2236,5.533 4.0338,3.9147 4.1375,4.1617 2.3088,5.4988 -1.053,0.7701 -2.8637,1.4001 -4.0235,1.4001 -1.1599,0 -2.5364,0.4175 -3.0589,0.9278 -0.5854,0.5718 -2.1203,0.4308 -3.9996,-0.3674 z M 390.50585,1880.964 c -29.88709,-5.5813 -58.96536,-15.891 -77.50317,-27.4789 -8.66482,-5.4163 -27.54527,-19.4621 -33.25,-24.7357 -3.80316,-3.5158 -4.25,-4.4079 -4.25,-8.4847 0,-4.123 0.27418,-4.6513 2.8862,-5.5619 3.51157,-1.2241 5.06909,-0.3658 19.45434,10.7215 27.40052,21.1187 47.46325,30.4341 85.15946,39.5409 8.25,1.9931 21.975,5.4517 30.5,7.6858 16.49391,4.3225 21.52795,5.4405 29.5,6.5515 4.80973,0.6703 4.65752,0.7225 -4,1.3708 -21.8707,1.6376 -40.99496,1.7917 -48.49683,0.3907 z m 559.99683,-20.0413 c -1.7902,-0.5584 -4,-4.9524 -4,-7.9538 0,-3.3835 2.8591,-5.1271 12,-7.3178 24.5089,-5.8739 62.35332,-21.4515 86.65642,-35.6699 14.9994,-8.7753 25.1141,-16.1881 33.0172,-24.1977 5.2192,-5.2894 7.8756,-7.2702 9.75,-7.2702 1.417,0 2.5764,0.45 2.5764,1 0,0.55 0.675,1 1.5,1 0.825,0 1.5,0.4077 1.5,0.906 0,0.4983 2.1002,1.6216 4.6671,2.4962 2.5669,0.8747 5.4919,2.3367 6.5,3.249 3.5182,3.184 1.439,11.5628 -2.4948,10.0533 -0.8814,-0.3382 -1.1958,-1.5913 -0.9018,-3.5944 0.3831,-2.6097 0.046,-3.2293 -2.2247,-4.0927 -4.1757,-1.5876 -5.3767,-1.2451 -7.062,2.0139 -2.9772,5.7573 -16.4714,16.9722 -31.2467,25.9687 -7.0114,4.2692 -9.2301,6.1653 -9.9146,8.4728 -0.815,2.7476 -1.7506,3.248 -12.3521,6.6061 -6.3087,1.9983 -18.6704,6.5849 -27.4704,10.1925 -29.54442,12.1117 -55.18002,19.7973 -60.50002,18.138 z M 4.3293175,1818.8135 c -0.92035,-0.2295 -2.39254,-1.5149 -3.27152,-2.8564 -1.48503,-2.2665 -1.45643,-2.7047 0.40405,-6.1915 3.30046,-6.1853 6.11995,-8.7738 15.0408305,-13.8085 26.77101,-15.1086 35.93636,-21.3217 72.63305,-49.2376 14.106102,-10.7308 22.016172,-15.2745 39.703802,-22.8068 22.51006,-9.5859 42.86003,-20.3845 59.66315,-31.6601 33.64796,-22.579 60.35677,-47.3476 86.71622,-80.4168 13.38459,-16.7916 16.20468,-20.9029 16.80566,-24.5 1.04956,-6.2821 4.18576,-12.3586 8.19563,-15.8793 2.97496,-2.6121 4.19382,-3.0382 8.0175,-2.8031 3.86518,0.2377 4.84881,-0.1175 6.88709,-2.4872 1.30785,-1.5204 2.3779,-3.6511 2.3779,-4.7349 0,-1.0838 2.01621,-13.3212 4.48046,-27.1942 6.21062,-34.9642 7.40816,-45.3747 8.52966,-74.1506 0.53745,-13.7903 1.48561,-28.9497 2.10701,-33.6875 l 1.12983,-8.6144 -5.12138,-6.5168 c -3.12277,-3.9737 -7.64447,-8.1607 -11.58673,-10.7292 -9.01939,-5.8763 -23.87059,-22.2606 -31.74796,-35.0253 -13.88005,-22.4915 -22.78397,-41.3293 -24.22397,-51.25 -0.37921,-2.6125 -1.00669,-4.75 -1.3944,-4.75 -0.38772,0 -1.68256,5.0625 -2.87743,11.25 -4.36908,22.6248 -12.38065,42.1673 -21.62517,52.75 -6.44026,7.3725 -17.42131,17 -19.39007,17 -0.79666,0 0.0699,-2.0104 2.20357,-5.1122 1.93412,-2.8117 3.51658,-5.7496 3.51658,-6.5285 0,-0.779 1.29617,-3.991 2.88038,-7.1378 7.30392,-14.5083 15.66965,-38.3443 18.50365,-52.7215 0.86732,-4.4 2.04195,-13.175 2.61029,-19.5 0.56834,-6.325 1.71425,-16.675 2.54647,-23 0.83222,-6.325 1.89163,-16.675 2.35426,-23 0.54266,-7.4192 1.10675,-10.7016 1.58967,-9.25 1.0586,3.182 2.56333,2.8012 1.97614,-0.5 -2.00294,-11.2606 -6.66596,-44.4938 -8.03288,-57.25 -1.25606,-11.7217 -2.3328,-17.2063 -4.41716,-22.5 -2.70284,-6.8644 -2.74143,-7.2606 -1.99238,-20.4519 0.42011,-7.3985 0.53689,-14.0433 0.2595,-14.7662 -0.27739,-0.7228 -0.20177,-3.736 0.16803,-6.6958 0.65582,-5.249 0.73864,-5.3639 3.3632,-4.6692 1.77669,0.4704 3.52292,2.2192 5.14014,5.1477 1.34712,2.4395 2.98458,4.98 3.6388,5.6456 1.4237,1.4485 3.80077,14.1527 5.85462,31.2898 4.46957,37.2936 5.80258,47.5413 7.54455,58 2.69246,16.1654 5.14443,32.7892 5.53115,37.5 0.1806,2.2 1.48784,10.3673 2.90497,18.1495 1.41713,7.7823 2.58014,16.1073 2.58446,18.5 0.004,2.3928 1.32146,9.6471 2.92699,16.1208 3.07273,12.3895 8.09947,23.1305 21.39362,45.7133 6.77559,11.5096 20.10589,25.9654 31.06945,33.6925 3.24385,2.2862 8.64385,7.4181 12,11.4041 4.5169,5.3647 8.69986,8.9093 16.10208,13.6448 15.08964,9.6534 36.03237,25.5727 49,37.2467 2.2,1.9805 6.7,5.132 10,7.0033 3.3,1.8713 8.9136,5.5931 12.47466,8.2708 3.56106,2.6777 10.08606,6.5899 14.5,8.6937 4.41394,2.1038 10.82123,5.7906 14.23843,8.1928 3.41721,2.4022 10.84221,7.6038 16.5,11.559 5.6578,3.9552 12.85151,8.9985 15.98601,11.2073 3.1344,2.2089 8.0844,5.2221 11,6.6962 2.9155,1.4741 8.7965,5.4735 13.0688,8.8874 8.3505,6.6728 22.6025,14.1806 42.7321,22.511 6.875,2.8451 13.5479,5.8442 14.8287,6.6645 1.6306,1.0444 3.5228,1.2898 6.3124,0.8185 2.8966,-0.4894 4.4444,-0.2605 5.6714,0.8388 0.9281,0.8316 7.8733,2.6888 15.4337,4.1272 7.5604,1.4384 17.0854,3.9524 21.1666,5.5865 4.0812,1.6342 8.1459,2.9713 9.0327,2.9713 0.8868,0 5.7619,1.3859 10.8335,3.0799 8.3873,2.8014 9.9895,3.025 17.721,2.4734 20.9304,-1.4934 58.545,-9.4763 72.8942,-15.4701 5.0916,-2.1269 7.7672,-2.7791 8.592,-2.0946 0.6588,0.5467 1.4939,0.698 1.8558,0.3361 0.3619,-0.3619 0.658,-0.1126 0.658,0.5539 0,1.967 6.5908,0.2775 15.813,-4.0535 4.5721,-2.1472 10.6393,-4.8209 13.4827,-5.9416 17.2569,-6.8021 33.8931,-15.5996 42.5401,-22.496 4.2153,-3.3619 10.1392,-7.3515 13.1642,-8.8659 5.0705,-2.5384 15.3159,-9.4703 34.8274,-23.5636 9.2174,-6.6579 17.6911,-11.8011 25.3086,-15.3613 3.0999,-1.4488 7.3749,-4.0171 9.5,-5.7073 2.1252,-1.6903 7.914,-5.5571 12.864,-8.5928 4.95,-3.0358 10.575,-6.9728 12.5,-8.7489 10.3933,-9.5896 34.6369,-28.0448 46.9679,-35.7538 8.0631,-5.0409 10.6791,-7.3588 22.7517,-20.1592 2.8708,-3.0439 7.59582,-7.0644 10.50002,-8.9346 8.4955,-5.4705 20.5072,-18.925 27.4271,-30.7216 17.6393,-30.07 22.772,-43.2332 24.3624,-62.4785 0.409,-4.95 1.7386,-14.175 2.9546,-20.5 1.216,-6.325 2.3538,-13.3 2.5286,-15.5 0.3796,-4.7799 2.8601,-21.5676 5.5629,-37.6497 1.0769,-6.4073 3.3111,-23.0573 4.965,-37 4.8929,-41.2497 6.8372,-52.8503 8.8581,-52.8503 0.3977,0 1.7123,-2.0359 2.9212,-4.5243 1.9722,-4.0594 6.4994,-7.5102 7.9498,-6.0597 0.2596,0.2596 0.7088,3.4222 0.9983,7.028 0.2894,3.6058 0.7064,6.556 0.9267,6.556 0.6229,0 15.3306,-12.1136 19.1633,-15.7833 3.2401,-3.1025 3.8743,-5.8824 0.7505,-3.2898 -1.9643,1.6302 -5.5881,-0.2906 -5.5881,-2.9621 0,-1.0806 -0.4186,-1.9648 -0.9302,-1.9648 -2.7311,0 4.9491,-15.1958 13.6464,-27 3.0392,-4.125 11.0964,-12.9439 17.9048,-19.5975 6.8085,-6.6536 12.379,-12.3361 12.379,-12.6277 0,-0.2916 -3.9375,-0.7418 -8.75,-1.0004 -11.0847,-0.5958 -16.6875,-2.7868 -18.866,-7.3776 -3.3573,-7.0749 0.6296,-10.5543 9.6985,-8.4639 18.2954,4.217 28.7622,-2.4878 40.1878,-25.7434 l 6.1857,-12.59028 0.6298,-15.5496 c 0.6822,-16.8407 0.4383,-15.8655 9.1389,-36.5496 3.0075,-7.15 6.9213,-17.95 8.6971,-24 4.141,-14.1076 7.6371,-20.5612 16.1335,-29.782 6.8888,-7.4761 11.7157,-10.6974 16.0958,-10.7418 1.7507,-0.018 3.4437,-1.6306 6.6479,-6.3336 6.4397,-9.4516 9.4503,-17.6807 9.9302,-27.1426 0.4593,-9.0565 -0.8941,-8.8151 -2.8036,0.5 -1.7681,8.6256 -5.5046,14.5052 -12.8733,20.2568 -3.6038,2.8129 -9.4773,7.6545 -13.0523,10.7592 -7.3017,6.3411 -16.6685,12.984 -18.308,12.984 -0.596,0 1.142,-1.3848 3.8622,-3.0773 2.7202,-1.6925 8.7708,-6.9865 13.4458,-11.7645 4.675,-4.7779 11.2988,-11.0576 14.7195,-13.9548 4.5689,-3.8697 6.477,-6.2542 7.1899,-8.9855 3.4343,-13.1567 4.3335,-17.3048 4.7824,-22.0624 0.4775,-5.0613 0.2629,-5.6973 -4.0499,-12 -2.5049,-3.6605 -5.4125,-8.6869 -6.4614,-11.1697 -1.049,-2.4828 -2.6437,-5.1254 -3.5439,-5.8724 -3.8648,-3.2076 0.2748,-6.2382 5.7023,-4.1747 2.0647,0.7851 3.5232,2.7528 5.7853,7.8055 6.3418,14.1653 5.8837,14.0005 5.6159,2.0202 l -0.2401,-10.7356 -3.6288,-3.6265 c -3.421,-3.4189 -4.8625,-4.0036 -14.8712,-6.032 -1.6948,-0.3435 -5.0691,0.8182 -10.4769,3.6072 -6.601,3.4042 -22.233,8.6596 -23.1057,7.768 -0.7078,-0.723 4.9813,-12.5522 7.1006,-14.7643 2.3722,-2.476 2.482,-3.1439 2.482,-15.0916 0,-14.356 0.6347,-12.9348 -12,-26.87103 -4.125,-4.54993 -7.8188,-8.77418 -8.2084,-9.38723 -1.0931,-1.72009 -2.2289,0.0747 -5.2961,8.36866 -3.4901,9.4377 -13.9914,30.3067 -19.8763,39.5 -3.656,5.7114 -4.9323,9.025 -6.9331,18 -2.351,10.546 -2.3966,11.4127 -1.1051,21 1.8559,13.7774 1.8308,44.4116 -0.044,53.3224 -0.8045,3.8243 -4.807,15.4412 -8.8945,25.8154 -9.8147,24.9098 -13.0484,37.2976 -19.1364,73.3076 -1.4362,8.495 -4.6038,26.3503 -7.0391,39.67838 -2.4354,13.3281 -5.1462,29.7777 -6.0239,36.5546 -0.9081,7.0108 -2.6105,14.9077 -3.9497,18.3216 -1.2945,3.3 -2.8525,7.9125 -3.4623,10.25 -0.6097,2.3375 -1.5109,4.25 -2.0027,4.25 -1.2326,0 -1.794,-2.2069 -2.9365,-11.5428 -0.5413,-4.4235 -1.4558,-9.2831 -2.0322,-10.7991 -1.5842,-4.1668 1.1463,-27.5161 8.0292,-68.65808 10.1111,-60.439 13.1495,-72.9785 23.6215,-97.4847 9.3777,-21.9453 9.48,-22.3429 10.0352,-39.0153 l 0.4996,-15 -2.0452,1.8347 c -2.561,2.2976 -8.8152,3.1766 -12.4988,1.7567 -6.2035,-2.3912 -7.353,-14.1715 -2.4484,-25.0914 1.3586,-3.025 4.6129,-8.3891 7.2317,-11.9202 l 4.7616,-6.4202 -2.243,-13.5795 c -2.7682,-16.7589 -4.3067,-22.7702 -7.383,-28.8469 -3.9899,-7.88134 -9.1273,-24.12641 -7.9896,-25.26415 0.6762,-0.67614 3.8226,1.71031 9.5745,7.26192 6.3681,6.14631 9.4609,10.05478 12.0481,15.22533 3.1299,6.2551 3.5569,6.7166 4.2358,4.5773 0.9761,-3.0754 0.9971,-45.44457 0.029,-58.85898 l -0.745,-10.32539 -6.2152,-7.17461 c -15.6851,-18.10649 -25.3509,-36.3641 -39.6873,-74.96457 -4.2779,-11.51803 -5.6876,-32.34923 -2.6838,-39.65836 l 1.4172,-3.44831 1.6978,7.7269 c 0.9338,4.2498 2.9954,10.30154 4.5812,13.44831 1.5858,3.14678 6.8019,15.39641 11.5913,27.22141 9.4709,23.38362 16.5263,37.91406 22.1345,45.58575 l 3.5924,4.91425 -0.6077,-7.249 c -0.6899,-8.23003 -3.7233,-27.4819 -9.5724,-60.75277 -2.2118,-12.58117 -4.0215,-23.22916 -4.0215,-23.66219 0,-0.43304 -3.6116,-4.73579 -8.0257,-9.56169 -21.1938,-23.17088 -35.5599,-52.12552 -48.77,-98.29538 -18.7089,-65.38876 -29.0444,-137.3752 -26.2194,-182.61769 1.0751,-17.21733 1.589,-19.35688 6.236,-25.96312 2.9799,-4.23623 3.9073,-4.89816 6.8623,-4.89816 h 3.4168 l -0.041,6.5 c -0.022,3.575 -0.6442,11.45 -1.3819,17.5 -3.0831,25.28215 1.3237,73.02956 11.4724,124.30427 9.7869,49.44636 21.9642,89.9372 35.3017,117.38266 8.5921,17.68045 17.5264,31.152 15.6185,23.55027 -0.5937,-2.36535 -0.8332,-12.01129 -0.6759,-27.21449 l 0.093,-8.9773 2.4634,2.31427 c 3.6292,3.40939 8.2853,12.73588 10.0559,20.14257 0.8544,3.57376 2.712,12.79775 4.1281,20.49775 3.3612,18.27691 3.3708,18.30152 9.7734,25.13785 3.0197,3.22418 6.397,6.98715 7.5051,8.36215 1.1081,1.375 2.2398,2.275 2.5148,2 0.4806,-0.48048 -4.0024,-46.85476 -8.3619,-86.5 -1.1491,-10.45 -4.0688,-32.95 -6.488,-50 -2.6615,-18.75665 -4.3642,-34.35705 -4.3112,-39.5 0.048,-4.675 -0.6784,-12.775 -1.6147,-18 -1.0324,-5.76142 -1.4441,-11.22424 -1.0462,-13.88141 l 0.6561,-4.38141 1.8945,3.11526 c 2.5901,4.25916 10.2751,27.35062 13.3614,40.14756 4.5737,18.96439 10.2081,61.84405 17.542,133.5 6.9339,67.74795 8.2259,82.66087 8.3169,96 0.085,12.5445 -0.044,13.38543 -3.6913,24 -2.079,6.05 -4.8962,13.65717 -6.2606,16.90482 l -2.4806,5.90481 10.31,10.34519 c 5.6705,5.68985 10.8482,10.34518 11.506,10.34518 1.402,0 4.5598,-8.05161 6.391,-16.29564 0.7081,-3.18761 1.7094,-6.05646 2.2252,-6.37523 0.5234,-0.32348 0.6823,0.24903 0.3595,1.29564 -1.0077,3.26786 -3.6278,20.73757 -3.632,24.21641 0,2.76336 1.4228,4.96244 8.246,12.71571 l 8.25,9.37453 0.6211,-5.49618 c 0.3416,-3.0229 0.7916,-20.89497 1,-39.71571 l 0.3799,-34.21953 h -3.5 c -3.0613,0 -3.4688,-0.28942 -3.2513,-2.30916 0.1368,-1.27004 1.3658,-4.67055 2.7312,-7.55669 2.255,-4.76676 2.503,-6.61659 2.7064,-20.19084 0.1929,-12.8771 -0.084,-16.02778 -2.0037,-22.78648 -2.8779,-10.13274 -4.6344,-13.42395 -7.4216,-13.90546 -2.1073,-0.36406 -2.0688,-0.44557 0.566,-1.19874 6.3281,-1.80889 10.7122,3.8805 16.8672,21.88901 3.4561,10.11188 5.4568,13.10526 6.5558,9.80836 0.2292,-0.6875 -0.119,-1.25 -0.7737,-1.25 -0.7783,0 -0.9074,-0.60562 -0.3728,-1.75 0.4496,-0.9625 0.8702,-16.375 0.9346,-34.25 0.064,-17.875 0.7017,-42.42652 1.416,-54.55894 1.518,-25.78062 0.9479,-55.34875 -1.3006,-67.45451 -2.7162,-14.62413 -6.5098,-26.01878 -13.1462,-39.48655 -7.0554,-14.31795 -13.4419,-24.91004 -13.4817,-22.35948 -0.05,3.20489 4.9256,20.6268 8.2621,28.92911 2.4441,6.08197 3.2633,9.47499 2.9407,12.18037 -0.5018,4.20749 -1.9091,4.68649 -6.5927,2.24384 -3.766,-1.96411 -3.6231,-2.05078 -3.7207,2.25616 -0.084,3.72291 -0.094,3.71388 -1.3059,-1.25 -0.6714,-2.75 -1.9891,-6.1675 -2.928,-7.59443 -4.5871,-6.97088 -11.7926,-32.62046 -13.2845,-47.28887 -0.5608,-5.51347 -1.0692,-6.97983 -2.5548,-7.36832 -1.8356,-0.48003 -3.155,-3.97336 -5.9479,-15.74838 -1.6359,-6.89661 -2.5952,-8.61636 -15.899,-28.5 -16.3674,-24.46237 -23.1727,-36.03265 -32.1509,-54.66238 -5.8217,-12.07984 -8.5833,-16.72787 -10.9331,-18.40107 -3.2217,-2.29404 -6.8574,-8.8669 -6.8792,-12.43655 -0.01,-1.10971 1.0506,0.28245 2.3753,3.12746 2.5927,5.56838 4.5858,7.59469 4.6048,4.68156 0.013,-2.04218 -0.2405,-2.4246 20.0322,30.19098 18.5522,29.84764 30.956,48.41165 30.956,46.32984 0,-0.91206 -1.5892,-5.82269 -3.5316,-10.91252 -5.3859,-14.11357 -9.1133,-29.41048 -12.5287,-51.41732 -3.8646,-24.90077 -7.8987,-40.80953 -12.3884,-48.85457 -1.8863,-3.37999 -4.8326,-9.97043 -6.5475,-14.64543 -1.7149,-4.675 -4.6877,-11.36512 -6.6062,-14.86693 -5.7208,-10.44175 -17.8767,-28.40595 -21.5092,-31.7866 -8.0546,-7.49621 -20.579,-15.52978 -50.3884,-32.32083 -19.9498,-11.23729 -29.3072,-17.6254 -37.527,-25.618779 -8.4502,-8.21748 -12.62202,-10.39389 -29.47302,-15.37615 -6.05,-1.78877 -14.3276,-4.57367 -18.3947,-6.18867 -8.1437,-3.23375 -28.5586,-7.92606 -57.819,-13.28956 -51.2091,-9.38674 -76.9861,-11.32937 -105.8606,-7.97799 -21.5027,2.49576 -23.8466,2.47957 -24.2246,-0.16727 -0.257,-1.7987 1.151,-2.67032 10.0193,-6.20264 29.4884,-11.74543 50.8719,-12.05572 111.7796,-1.62198 24.5378,4.20343 54.7709,10.54647 66.5824,13.96933 11.4273,3.3115 21.0823,8.87896 22.5799,13.02044 0.9808,2.71221 2.0579,3.42696 8.0945,5.37116 8.61312,2.77406 22.51372,9.81343 42.74322,21.645609 11.8658,6.94029 44.4007,25.5132 49.1567,28.06171 0.3612,0.19355 0.3965,-0.66121 0.078,-1.89947 -0.9385,-3.65344 -7.8135,-12.09222 -14.5053,-17.80461 -3.4264,-2.92496 -10.0548,-9.18196 -14.7298,-13.904439 -4.675,-4.72248 -13.675,-12.45404 -20,-17.18125 -11.8088,-8.82574 -18.4713,-14.97281 -14.5,-13.37834 1.1,0.44165 4.7,1.78705 8,2.98979 11.2092,4.08535 18.5394,8.79085 36.2844,23.29222 21.7776,17.796809 24.2385,20.680449 37.1587,43.542009 3.9808,7.04372 9.375,15.37492 11.9872,18.51377 6.4246,7.71997 21.3922,29.89435 24.992,37.02559 1.6063,3.18211 4.5639,10.48101 6.5723,16.21977 4.0096,11.4566 17.9755,66.38823 27.4413,107.93411 7.6577,33.61015 6.846,31 9.6403,31 1.2886,0 3.4434,1.1869 4.7885,2.63755 2.2885,2.46805 2.4689,3.48015 2.8071,15.75 l 0.3613,13.11245 7.7453,13.74242 c 22.5616,40.03107 26.5057,54.24449 28.8289,103.89144 1.1076,23.66861 0.6392,100.79471 -0.652,107.36614 l -0.5894,3 2.054,-2.34466 c 3.7492,-4.27975 4.4551,-9.45834 3.0881,-22.65534 -2.123,-20.49657 -2.266,-23.26678 -1.5471,-29.97941 0.6352,-5.93119 2.0455,-8.43871 2.9644,-5.27059 0.1994,0.6875 1.6347,12.42684 3.1895,26.08741 2.7339,24.01967 2.8718,24.70284 4.1894,20.75 0.7494,-2.24807 1.7634,-4.08741 2.2535,-4.08741 0.49,0 1.5891,-1.35 2.4423,-3 1.1735,-2.26939 2.2459,-3 4.4032,-3 5.8134,0 6.06,2.42501 2.7451,27 -0.8532,6.325 -2.0304,23.58816 -2.616,38.36258 l -1.0647,26.86258 4.7077,7.13742 c 5.6718,8.59929 12.6864,20.42329 13.6628,23.03055 1.5814,4.22285 1.4271,0.4213 -0.4632,-11.41099 -1.8508,-11.58534 -1.9359,-15.03269 -1.1845,-47.98214 0.4453,-19.525 0.7941,-40.9905 0.7752,-47.70111 -0.019,-6.7106 0.046,-12.1106 0.1435,-12 0.098,0.11061 1.3704,4.70111 2.8277,10.20111 2.6815,10.1201 4.4978,26.93258 4.5405,42.02749 0.016,5.69 0.4858,8.68864 1.613,10.29802 2.8448,4.06144 6.4008,35.09468 6.4056,55.90024 v 18.22575 l 3.6056,3.27425 c 8.0911,7.34756 9.6576,14.08147 10.897,46.84245 0.6103,16.1336 0.4952,18.0842 -1.4094,23.886 -1.1408,3.4748 -2.47,6.8191 -2.954,7.4318 -0.4839,0.6127 -1.1963,12.139 -1.583,25.614 -0.3868,13.475 -1.0969,29.3445 -1.578,35.2655 -0.795,9.7834 -1.1952,11.2886 -4.3874,16.5 -2.4009,3.9197 -3.8423,7.8385 -4.5546,12.3828 -3.4052,21.7247 -25.7337,82.0072 -39.4697,106.56018 -8.6102,15.3906 -14.5043,44.6064 -20.948,103.8347 -1.0177,9.3543 -2.1543,14.7901 -4.0188,19.2199 -1.4298,3.3971 -2.5997,6.8386 -2.5997,7.6478 0,0.8091 -0.4508,1.7497 -1.0019,2.0903 -1.3687,0.8459 -2.9877,-3.6678 -4.2149,-11.7512 -0.5637,-3.7125 -1.4205,-6.75 -1.904,-6.75 -2.562,0 1.5164,-47.6431 6.1965,-72.3865 1.1658,-6.1631 1.1661,-7.881 0,-7.1613 -1.604,0.9914 -33.2818,43.6617 -35.9261,48.393 -1.3906,2.4879 -2.6814,4.0642 -2.8686,3.5027 -0.1871,-0.5614 -6.7183,5.2979 -14.5137,13.0207 l -14.1734,14.0416 -2.8388,8.5449 c -6.4719,19.4807 -14.0694,47.5189 -17.3376,63.9832 -3.2921,16.5851 -3.6627,17.7146 -6.6648,20.3117 -3.3438,2.8928 -4.7543,3.4119 -4.7543,1.75 0,-0.55 -0.5846,-1 -1.2991,-1 -1.7212,0 -3.7019,-5.6637 -3.6969,-10.571 0.01,-6.86 2.9182,-22.315 8.0343,-42.6527 5.5041,-21.8801 5.791,-23.7094 3.4071,-21.731 -2.6017,2.1592 -3.3903,4.4199 -5.9929,17.1799 -1.377,6.7512 -3.5047,16.5498 -4.7281,21.7748 l -2.2244,9.5 -0.2864,-10.3787 c -0.1749,-6.339 0.3116,-13.57 1.25,-18.5779 0.845,-4.5096 1.5364,-8.8109 1.5364,-9.5584 0,-2.0222 -5.5709,3.6656 -9.7398,9.9441 -6.7277,10.1322 -8.9067,17.0632 -10.7115,34.0709 -1.4304,13.4803 -6.5213,49.2481 -8.1484,57.25 -0.3349,1.647 -0.1262,2.75 0.5202,2.75 0.5937,0 1.0795,-0.7016 1.0795,-1.559 0,-0.8575 0.3851,-1.321 0.8558,-1.0301 0.4706,0.2909 1.1696,5.6049 1.5532,11.809 0.3836,6.204 1.3061,15.5551 2.05,20.7801 0.744,5.225 1.6435,13.325 1.9991,18 1.7971,23.6316 6.53,42.35 16.5616,65.5 2.8599,6.6 6.3328,14.7 7.7174,18 1.3846,3.3 3.4093,7.2634 4.4993,8.8076 1.09,1.5441 1.7199,3.0694 1.3999,3.3894 -0.9125,0.9125 -7.2318,-4.3065 -15.8834,-13.1178 -6.2767,-6.3924 -8.8443,-9.9582 -12.2982,-17.0792 -5.7841,-11.925 -9.9713,-24.7611 -12.6932,-38.9115 -1.226,-6.3737 -2.5463,-11.5885 -2.934,-11.5885 -0.3877,0 -1.0113,2.1375 -1.3857,4.75 -0.3744,2.6125 -1.9726,8.125 -3.5517,12.25 -2.8971,7.5683 -16.1875,32.2972 -23.4553,43.6423 -5.7689,9.0053 -21.5329,25.5352 -28.978,30.3858 -3.938,2.5657 -8.4609,6.7544 -11.5824,10.7264 l -5.12142,6.5168 1.12452,8.6144 c 0.6184,4.7378 1.5975,20.3143 2.1758,34.6143 1.1094,27.4365 2.9281,43.2598 8.4478,73.5 1.8572,10.175 3.6893,20.8782 4.0713,23.7848 1.0028,7.6311 3.1243,9.8595 9.9232,10.4233 4.3483,0.3606 6.1841,1.0689 8.4862,3.2744 3.5508,3.4019 6.737,9.907 7.6505,15.6194 0.6796,4.2504 1.2937,5.11 23.1412,32.3981 25.2721,31.5655 65.1588,65.0799 101.2265,85.0546 11.3271,6.2731 32.8117,16.6246 42.5,20.4771 14.6903,5.8414 24.9215,12.2867 47.1723,29.7166 21.2175,16.6206 39.2945,28.6589 59.4926,39.619 4.7657,2.586 10.2527,6.4594 12.1934,8.6076 4.4831,4.9622 7.3306,10.2955 5.7739,10.8144 -0.6227,0.2075 -1.1322,1.026 -1.1322,1.8188 0,2.0883 -4.3451,3.453 -7.6825,2.413 -5.6464,-1.7597 -21.7914,-9.2397 -29.7043,-13.7621 -18.1792,-10.3899 -31.2822,-19.4713 -57.0387,-39.5321 -16.6674,-12.9817 -23.5291,-17.1696 -38.0745,-23.2385 -23.6844,-9.8819 -51.2947,-24.5935 -67.8511,-36.1532 -19.3877,-13.5364 -41.8408,-32.6242 -58.1854,-49.4642 -14.4421,-14.88 -20.9827,-23.0437 -50.3703,-62.871 l -3.3205,-4.5 0.6507,9.5 c 0.3579,5.225 1.3132,14 2.123,19.5 2.5144,17.079 2.5183,16.0905 -0.073,18.525 -3.2145,3.0199 -6.9835,2.8185 -10.5115,-0.5615 -5.2312,-5.0118 -6.9464,-12.6386 -10.4941,-46.662 -2.25072,-21.5844 -3.55962,-30.4725 -9.46892,-64.3015 -4.1767,-23.9105 -5.2093,-35.3288 -5.8973,-65.2137 -0.3826,-16.6175 -0.9845,-30.5025 -1.3375,-30.8555 -0.7629,-0.7629 -21.1766,13.3304 -27.6993,19.1231 -2.5106,2.2297 -6.5898,5.5874 -9.0648,7.4616 -2.475,1.8742 -7.2,5.7199 -10.5,8.5459 -3.3,2.8261 -9.2039,6.9915 -13.1198,9.2565 -3.9159,2.2651 -9.378,5.9032 -12.1379,8.0848 -2.7599,2.1816 -9.6362,6.284 -15.2806,9.1165 -5.6445,2.8325 -14.1324,7.9741 -18.8622,11.4257 -4.7297,3.4515 -10.2412,7.351 -12.2476,8.6653 -2.0065,1.3144 -7.1815,4.9176 -11.5,8.0071 -4.3186,3.0895 -11.0019,7.329 -14.8519,9.4211 -3.85,2.0922 -9.475,6.0006 -12.5,8.6854 -5.4715,4.8562 -32.402,18.9643 -45,23.5743 -3.025,1.1069 -8.8623,3.6302 -12.9718,5.6072 -4.5236,2.1763 -8.9647,3.5947 -11.2553,3.5947 -4.8284,0 -29.6221,5.2394 -39.6192,8.3724 -4.2095,1.3192 -11.0287,2.952 -15.1537,3.6285 -6.9238,1.1355 -11.9119,3.7539 -10.2731,5.3927 0.3335,0.3335 0.081,0.6064 -0.5602,0.6064 -0.6417,0 -1.1667,0.599 -1.1667,1.331 0,2.8551 -4.6079,3.9978 -13.2161,3.2776 -4.5561,-0.3812 -13.4589,-1.1056 -19.7839,-1.6097 -27.2278,-2.17 -50.9577,-8.4475 -64.6737,-17.1086 -4.2595,-2.6897 -8.4644,-4.8903 -9.3443,-4.8903 -0.8798,0 -2.4732,-0.6607 -3.5409,-1.4682 -1.0676,-0.8075 -2.9536,-1.4825 -4.1911,-1.5 -2.3822,-0.034 -3.1364,-2.5401 -1,-3.3235 4.4715,-1.6395 -13.2974,-6.7807 -31.6533,-9.1584 -9.8995,-1.2823 -12.183,-1.9846 -21.1653,-6.5099 -5.5378,-2.7899 -12.5128,-7.247 -15.5,-9.9046 -2.9873,-2.6576 -8.5814,-6.5269 -12.4314,-8.5986 -3.85,-2.0716 -10.52734,-6.3024 -14.83853,-9.4017 -4.31119,-3.0993 -9.48619,-6.7401 -11.5,-8.0907 -2.01381,-1.3506 -7.52936,-5.2486 -12.25677,-8.6623 -4.72742,-3.4136 -12.82742,-8.3295 -18,-10.9241 -5.17259,-2.5946 -13.0047,-7.2934 -17.4047,-10.4417 -4.4,-3.1483 -10.47821,-7.1104 -13.50714,-8.8047 -3.02893,-1.6943 -8.20393,-5.4954 -11.5,-8.447 -3.29607,-2.9515 -7.56786,-6.4647 -9.49286,-7.807 -1.925,-1.3424 -5.79183,-4.4695 -8.59296,-6.9491 -7.16703,-6.3445 -27.39239,-20.3565 -28.20717,-19.5417 -0.37283,0.3728 -0.96677,14.2578 -1.31986,30.8555 -0.69125,32.4932 -1.42537,39.6833 -7.829,76.6777 -4.87443,28.1601 -5.53153,32.8403 -8.07286,57.5 -2.89006,28.0435 -4.99618,36.9964 -9.93912,42.25 -2.10366,2.2359 -7.39549,3.0595 -9.53903,1.4847 -3.36863,-2.4749 -3.47987,-3.691 -1.53747,-16.808 1.05281,-7.1097 2.21956,-16.9767 2.59277,-21.9267 0.59549,-7.8983 0.49996,-8.8164 -0.78036,-7.5 -0.80241,0.825 -7.46049,9.6 -14.79573,19.5 -24.44343,32.9901 -40.29399,50.2288 -65.85486,71.6225 -31.25074,26.1559 -55.42756,41.0219 -94.135,57.8821 -20.39774,8.8849 -24.82485,11.63 -48.489352,30.0664 -25.46938,19.8426 -51.70218,36.4918 -67,42.5232 -3.85,1.5179 -7.9,3.3016 -9,3.9638 -2.48355,1.4952 -6.4608805,2.2941 -8.6733605,1.7422 z M 1034.4972,1579.9989 c -2.1525,-5.6615 -7.6112,-10.4856 -11.8648,-10.4856 -0.3146,0 2.3271,2.925 5.8703,6.5 3.5432,3.575 6.5566,6.5 6.6964,6.5 0.1397,0 -0.1761,-1.1315 -0.7019,-2.5144 z m -724.41259,-10.237 c -1.10605,-1.1061 -7.58445,3.0194 -9.42946,6.0047 -3.83712,6.2086 -2.28883,6.319 3.82138,0.2726 3.28562,-3.2514 5.80925,-6.0761 5.60808,-6.2773 z m 851.70169,-497.6835 c 17.2301,-20.6128 22.6124,-29.3777 12.1446,-19.7772 -2.2395,2.0539 -5.3895,4.8684 -7,6.2545 -2.4707,2.1263 -10.4282,15.3483 -10.4282,17.3272 0,1.6163 1.8898,0.2556 5.2836,-3.8045 z m 16.8877,-33.6776 7.7873,-5.1125 6.0207,-12.4746 c 3.3114,-6.8611 6.0207,-12.7156 6.0207,-13.01 0,-0.2944 -0.6859,0.034 -1.5242,0.7297 -0.8383,0.6957 -1.7915,0.9975 -2.1183,0.6707 -0.5422,-0.5421 1.2046,-4.0069 9.1237,-18.09698 2.3996,-4.2695 2.6759,-5.5999 2.1291,-10.2521 -0.5414,-4.6066 -0.2092,-6.2702 2.4018,-12.0286 1.6665,-3.6754 5.0748,-13.462 7.574,-21.7479 5.6219,-18.6393 10.104,-28.1063 15.0639,-31.8177 2.0231,-1.5138 3.8299,-2.601 4.015,-2.4158 0.1851,0.1851 -0.056,2.4362 -0.5351,5.0024 -0.4794,2.5663 -0.7078,4.6659 -0.5075,4.6659 0.2003,0 3.4831,-6.2259 7.2951,-13.8354 6.8162,-13.6064 9.2778,-20.3398 10.6304,-29.0782 l 0.6832,-4.4135 -3.8656,4.055 c -2.6454,2.775 -5.4921,4.5366 -9.0187,5.5809 -3.8012,1.1256 -6.2938,2.7599 -9.5,6.2288 -8.315,8.9962 -12.6821,15.7225 -14.8812,22.9199 -1.1835,3.8734 -3.1955,10.4175 -4.4711,14.5425 -1.2756,4.125 -4.8826,13.5325 -8.0156,20.9056 -5.5041,12.9535 -5.6529,13.5371 -4.4103,17.3021 1.1225,3.4013 0.9997,5.2558 -0.9662,14.5944 -1.2386,5.8838 -3.397,13.8479 -4.7965,17.6979 -3.2371,8.90548 -11.4885,24.69688 -15.8763,30.38378 -1.8603,2.411 -3.1357,4.7827 -2.8343,5.2704 0.3014,0.4877 -0.6092,2.2621 -2.0236,3.943 -2.5224,2.9976 -3.2528,4.9028 -1.8797,4.9028 0.3807,0 4.1963,-2.3006 8.4793,-5.1125 z m 36.387,-38.1375 c 2.5604,-3.98748 5.4941,-8.16508 6.5195,-9.28358 1.6892,-1.8426 5.0286,-10.7915 7.7575,-20.7885 0.8894,-3.2584 0.8344,-3.6487 -0.373,-2.6466 -0.779,0.6465 -2.6088,3.6127 -4.0662,6.5914 -1.4573,2.9788 -3.0512,5.6642 -3.5419,5.9674 -1.2439,0.7688 -5.0347,8.4682 -8.7321,17.7355 -4.8754,12.22018 -4.252,12.84058 2.4362,2.42438 z m 39.4246,-107.49998 c 0.039,-2.8734 -1.7191,-0.8979 -3.5354,3.972 -2.865,7.6822 -2.8589,7.7121 0.4624,2.278 1.6808,-2.75 3.0637,-5.5625 3.073,-6.25 z m 13.6296,-42.2657 c 1.1425,-5.6524 2.0768,-8.3919 2.4812,-7.2753 1.1401,3.1482 2.1225,-14.7426 2.2665,-41.2773 0.1076,-19.8217 -0.1485,-25.8591 -1.1102,-26.1806 -0.6875,-0.2298 -1.25,-1.7458 -1.25,-3.3689 0,-1.6231 -2.025,-8.071 -4.5,-14.3287 -2.475,-6.2578 -4.5,-11.8673 -4.5,-12.4656 0,-2.6983 -1.739,-0.49791 -4.496,5.689 -1.6478,3.6977 -4.2353,8.0273 -5.75,9.6214 -1.5147,1.5941 -2.754,3.4667 -2.754,4.1613 0,0.6946 2.4339,3.7559 5.4088,6.8029 4.7846,4.9008 5.5923,6.3473 7,12.5362 0.8751,3.8478 1.6171,9.3823 1.6488,12.2987 0.032,2.9164 0.3912,7.1026 0.7989,9.3026 l 0.7412,4 1.6222,-4.5 1.6222,-4.5 0.048,7 c 0.026,3.85 -0.3978,10.375 -0.9427,14.5 -1.3321,10.0835 -3.9415,40.6346 -3.8436,45 0.073,3.2476 0.2082,3.0872 1.8772,-2.2248 0.9893,-3.1486 2.6234,-9.8045 3.6314,-14.7909 z m -104.7489,-95.4918 c 6.093,-12.31859 13.1364,-29.98915 13.1364,-32.95683 0,-1.28166 -3.3591,-5.42095 -8.7698,-10.80652 -4.8234,-4.80103 -8.9859,-8.72915 -9.25,-8.72915 -0.2641,0 -0.4802,12.0375 -0.4802,26.75 0,14.7125 -0.3289,28.8875 -0.7309,31.5 -0.4019,2.6125 -0.3645,4.75 0.083,4.75 0.4477,0 3.1528,-4.7284 6.0113,-10.5075 z m 69.6854,-0.038 c 0.3811,-3.0502 0.4409,-5.7977 0.133,-6.1056 -0.7845,-0.7845 -3.5132,8.8744 -2.9385,10.4013 1.0203,2.7108 2.1453,0.9881 2.8055,-4.2957 z m -6.133,-49.4545 c 3.2574,-16.48029 3.4893,-19.01499 3.9793,-43.5 0.2972,-14.8481 1.1783,-30.71811 2.0542,-37 0.8436,-6.05 1.5325,-11.45 1.5307,-12 0,-0.55 -1.6286,1.925 -3.6153,5.5 -1.9867,3.575 -5.0142,8.45612 -6.7277,10.84694 l -3.1155,4.34694 -0.1378,49.65306 c -0.1542,55.5621 -0.396,54.67393 6.0321,22.15306 z m 27.548,7.45344 c 0.02,-0.57561 -1.5551,-4.85061 -3.4997,-9.5 l -3.5357,-8.45344 0.6598,11.5 c 0.3629,6.325 0.8856,11.88628 1.1617,12.35839 0.5582,0.95463 5.1572,-4.2539 5.2139,-5.90495 z m -94.9041,-41.1333 c 2.5733,-7.73284 3.2667,-22.01604 1.1903,-24.51839 -0.7158,-0.86268 -1.6799,-7.01662 -2.2564,-14.40396 -2.371,-30.37923 -4.106,-44.8643 -5.5671,-46.47876 -1.7741,-1.9604 -11.3797,-7.29941 -12.0059,-6.67318 -0.2443,0.24428 1.559,11.4264 4.0072,24.84915 3.9583,21.70216 8.1329,49.06618 10.1305,66.405 1.1089,9.62503 1.5448,9.70446 4.5014,0.82014 z M 597.50268,1414.7992 c 0.825,-0.3059 2.4,-0.9702 3.5,-1.4762 1.968,-0.9053 1.9689,-0.8951 0.059,0.6351 -1.0677,0.8554 -2.6427,1.5197 -3.5,1.4763 -1.3466,-0.068 -1.3546,-0.1547 -0.059,-0.6352 z m -7.6384,-2.7859 c -0.3166,-0.825 -0.3244,-2.1547 -0.017,-2.9548 2.5099,-6.5407 41.7084,-12.6051 62.9845,-9.7443 4.4941,0.6043 15.1462,1.5906 23.6712,2.1917 17.5989,1.241 25.6438,2.2972 38.5,5.0543 12.6968,2.723 13.5,3.0032 13.5,4.7107 0,2.5226 -14.4708,0.9602 -30.5,-3.2932 -7.7,-2.0432 -15.8,-4.0889 -18,-4.5461 -5.4562,-1.1338 -18.4244,-1.1152 -30.2142,0.043 -5.3822,0.5289 -15.5027,1.4482 -22.49,2.0428 -13.629,1.1599 -21.8733,2.9152 -28.3615,6.0385 -4.8571,2.338 -8.2846,2.5107 -9.0727,0.4571 z m -403.92947,-45.2005 c -0.97409,-2.6397 -2.31356,-5.4745 -2.9766,-6.2995 -6.09778,-7.5873 -3.02262,-36.0112 6.65364,-61.5 10.90493,-28.7253 29.85968,-58.2956 41.09073,-64.1034 4.56324,-2.3597 7.8001,-0.6385 7.8001,4.1477 0,4.2525 -1.06419,6.44 -6.05939,12.4557 -17.94899,21.6159 -35.19024,62.562 -38.04235,90.3466 -0.6297,6.1344 -1.55667,11.6703 -2.05993,12.3021 -0.50326,0.6317 -1.23526,4.6453 -1.62667,8.919 -0.39997,4.3672 -1.21463,7.937 -1.86006,8.1508 -0.63162,0.2092 -1.94538,-1.7793 -2.91947,-4.419 z m 957.12069,3.4505 c -0.2114,-0.6875 -0.6352,-4.3393 -0.9417,-8.1152 -0.3066,-3.7758 -0.9745,-7.3758 -1.4843,-8 -0.5099,-0.6241 -1.2387,-4.7348 -1.6197,-9.1348 -1.015,-11.7246 -3.1698,-21.4942 -7.7194,-35 -6.7469,-20.0286 -20.6035,-46.4329 -30.6998,-58.5 -5.0141,-5.9928 -6.0879,-8.1897 -6.0879,-12.4557 0,-2.8312 0.5136,-3.8212 2.4371,-4.6976 7.5666,-3.4476 24.575,17.1103 38.6706,46.7406 11.3263,23.809 17.0163,44.7173 17.2571,63.4127 0.1328,10.3155 0.065,10.645 -3.8472,18.75 -3.8797,8.0372 -5.1774,9.5602 -5.9648,7 z m -491.05282,-27.8176 c -8.4126,-1.0021 -12.4461,-2.7064 -13.739,-5.8051 -1.4383,-3.447 -1.2173,-8.2183 0.4296,-9.2799 0.7202,-0.4642 6.9344,-0.5756 13.8094,-0.2476 14.5187,0.6928 33.3656,-1.6797 51,-6.42 14.1804,-3.8117 18.9451,-2.8241 18.9847,3.9353 0.021,3.5761 -3.1411,7.2981 -8.3369,9.8133 -6.4562,3.1254 -26.5751,6.9904 -39.6478,7.6167 -6.325,0.303 -12.625,0.6749 -14,0.8265 -1.375,0.1515 -5.2,-0.046 -8.5,-0.4392 z m 89.5,-33.7366 c 0,-1.7761 6.5377,-11.0196 11.4753,-16.2249 2.8847,-3.0409 5.9367,-6.867 6.7824,-8.5023 0.8456,-1.6353 2.473,-3.8199 3.6163,-4.8546 2.0163,-1.8247 2.0049,-4.2752 -0.014,-3.0274 -0.551,0.3405 -3.1074,0.286 -5.6809,-0.1212 -4.6233,-0.7315 -4.6433,-0.751 -1.679,-1.6322 1.65,-0.4905 4.8235,-0.6394 7.0522,-0.3309 2.5837,0.3576 5.4061,0 7.7879,-1 2.0547,-0.8584 8.3107,-2.478 13.9023,-3.5989 5.5916,-1.121 10.4997,-2.244 10.907,-2.4957 0.6992,-0.4322 20.657,1.1483 27.5355,2.1806 3.7359,0.5606 9.3151,5.1034 9.3151,7.5847 0,0.9502 -0.7875,2.1863 -1.75,2.7469 -0.9625,0.5606 -1.3124,1.033 -0.7775,1.0497 0.5349,0.017 -0.017,0.7236 -1.2266,1.5707 -1.8843,1.3198 -3.4072,1.3796 -10.6339,0.4179 -14.0778,-1.8734 -37.4645,0.8899 -42.5998,5.0334 -1.3817,1.1149 -4.2674,3.1962 -6.4126,4.6252 -2.1453,1.429 -7.2505,5.2604 -11.3451,8.5142 -4.0945,3.2538 -8.7295,6.5804 -10.2999,7.3925 -3.1254,1.6162 -5.9546,1.9356 -5.9546,0.6723 z m -163,-9.557 c -11.3799,-5.0203 -16.1823,-7.6308 -19.7286,-10.7241 -1.7758,-1.5488 -4.7008,-3.0573 -6.5,-3.3521 -1.7993,-0.2949 -5.7464,-1.0463 -8.7714,-1.6698 -8.7774,-1.8093 -19.5014,-2.1469 -28.8161,-0.9074 -6.0908,0.8105 -8.7438,0.8348 -8.9947,0.082 -0.1957,-0.5871 -1.0199,-1.0675 -1.8316,-1.0675 -0.8116,0 -1.2267,-0.4028 -0.9224,-0.8952 0.3043,-0.4924 -0.1191,-1.1533 -0.9409,-1.4686 -2.2553,-0.8654 -1.8045,-3.2591 1.2557,-6.6681 2.6958,-3.003 3.045,-3.0915 17.714,-4.4877 12.7996,-1.2183 15.7647,-1.2236 20.5,-0.037 3.0448,0.7631 7.561,1.7024 10.036,2.0874 2.475,0.385 6.75,1.5535 9.5,2.5967 3.3133,1.2568 6.3493,1.714 9,1.3552 2.2,-0.2977 5.35,-0.14 7,0.3505 2.9643,0.8812 2.9443,0.9007 -1.679,1.6322 -2.5735,0.4072 -5.1299,0.4617 -5.6809,0.1212 -0.551,-0.3406 -1.2846,-0.1619 -1.63,0.3971 -0.3455,0.559 -0.2413,1.0163 0.2315,1.0163 0.4728,0 2.1868,2.128 3.809,4.729 1.6222,2.6009 5.7619,7.8114 9.1994,11.5788 5.8321,6.3918 7.3158,8.7295 5.5,8.666 -0.4125,-0.014 -4.125,-1.5152 -8.25,-3.335 z m 63.5,-12.3124 c -6.044,-0.7208 -26.0292,-4.5564 -27,-5.182 -0.55,-0.3544 -3.2465,-1.0944 -5.9923,-1.6444 -5.6845,-1.1386 -7.045,-3.4785 -3.0745,-5.2876 6.3408,-2.8891 15.7001,-3.5462 30.0668,-2.111 17.7528,1.7735 44.4951,1.7793 60.0368,0.013 12.6325,-1.4357 25.0641,-0.6204 30.8688,2.0244 4.1075,1.8715 2.8611,4.1939 -2.9133,5.4284 -2.7458,0.5871 -5.6673,1.3671 -6.4923,1.7334 -0.825,0.3664 -6.225,1.6264 -12,2.8001 -8.8028,1.7891 -14.5409,2.1703 -35.5,2.3587 -13.75,0.1235 -26.35,0.064 -28,-0.1331 z m -84.5,-24.3264 c 0,-0.55 -0.599,-1 -1.331,-1 -0.7321,0 -1.9112,-1.0841 -2.6203,-2.409 -1.1469,-2.1431 -0.9931,-2.7973 1.3929,-5.9256 3.844,-5.0397 5.48,-5.8901 22.6334,-11.766 8.4838,-2.906 17.45,-6.5117 19.925,-8.0125 2.475,-1.5009 8.1982,-3.6455 12.7183,-4.7658 9.1787,-2.275 13.5869,-4.2346 17.2817,-7.6822 4.088,-3.8146 9.497,-5.4678 21.4703,-6.5621 9.8034,-0.896 11.7397,-0.8195 14.4265,0.5698 2.8295,1.4632 3.3717,1.4659 6.1475,0.031 5.7751,-2.9864 31.3878,0.7238 34.9942,5.0693 2.5494,3.0718 9.7242,6.4628 18.0311,8.5219 4.6367,1.1494 10.4554,3.33 12.9304,4.8459 2.475,1.5159 11.025,4.9114 19,7.5456 16.3277,5.3932 19.6689,7.1062 23.3988,11.9964 2.2715,2.9781 2.4602,3.7591 1.4463,5.9844 -0.6414,1.4077 -1.7314,2.5594 -2.4223,2.5594 -0.6909,0 -1.4428,0.5601 -1.671,1.2447 -0.3193,0.9578 -1.5489,0.8577 -5.3334,-0.4341 -2.7051,-0.9234 -11.6476,-3.9482 -19.8722,-6.7219 -8.2245,-2.7737 -17.087,-6.3692 -19.6943,-7.99 -2.6072,-1.6207 -8.1525,-3.8829 -12.3227,-5.027 -11.0916,-3.0429 -17.5862,-7.6705 -21.3531,-15.2148 -2.0755,-4.1568 -7.9616,-7.1362 -14.3501,-7.2636 -4.1671,-0.083 -5.1141,0.3405 -8.7331,3.9067 -2.2326,2.2 -4.0668,4.7096 -4.0761,5.5768 -0.013,1.1809 -0.7701,1.4663 -3.0168,1.1365 -1.65,-0.2422 -3.0076,-0.9517 -3.0168,-1.5768 -0.01,-0.6251 -1.8429,-2.9365 -4.0747,-5.1365 -3.4346,-3.3856 -4.6992,-3.9987 -8.2332,-3.9913 -6.5014,0.014 -13.3238,3.0441 -14.5094,6.4452 -1.4802,4.2461 -7.6491,10.5829 -12.5411,12.8825 -2.3742,1.1159 -7.0687,2.7421 -10.4323,3.6137 -3.3636,0.8716 -8.2705,2.9193 -10.9041,4.5505 -3.9962,2.4751 -41.516,15.9994 -44.3863,15.9994 -0.4962,0 -0.9021,-0.45 -0.9021,-1 z m 106,-89.688 c 0,-1.6887 -1.1075,-5.4895 -2.4612,-8.4463 -1.3536,-2.9567 -2.9984,-8.5236 -3.6549,-12.3708 -1.1146,-6.5314 -1.048,-7.2797 1.0064,-11.2936 1.21,-2.3643 2.8547,-4.55 3.6549,-4.857 0.8001,-0.3071 1.4548,-1.1101 1.4548,-1.7846 0,-0.696 1.2975,-1.2264 3,-1.2264 1.7025,0 3,0.5304 3,1.2264 0,0.6745 0.6547,1.4775 1.4548,1.7846 2.0289,0.7785 5.5476,8.0063 5.5333,11.3659 -0.016,3.8762 -2.3995,12.4426 -4.896,17.5996 -1.1507,2.3769 -2.0921,5.7867 -2.0921,7.5774 0,3.0507 -0.1059,3.1498 -1.6823,1.5733 -1.5765,-1.5764 -1.7653,-1.5689 -3,0.1197 -1.1954,1.6348 -1.3177,1.5172 -1.3177,-1.2682 z m -10.8189,-86.3618 c -5.5837,-1.0011 -9.7352,-2.7294 -8.8007,-3.664 0.3035,-0.3034 -0.5825,-1.4439 -1.9687,-2.5343 -1.5823,-1.2446 -2.4072,-2.7773 -2.2161,-4.1173 0.2763,-1.9378 0.8576,-2.1142 6.3044,-1.9137 3.3,0.1214 12.9948,0.3464 21.5439,0.5 12.4751,0.224 16.0453,0.6076 18.0834,1.9429 3.6626,2.3999 3.1427,4.4879 -1.8453,7.4111 -3.8052,2.23 -5.7984,2.6197 -15.0833,2.9492 -5.8843,0.2088 -13.0922,-0.05 -16.0176,-0.5739 z m -80.2729,-8.9074 c -1.4254,-0.4318 -8.5223,-3.778 -15.7707,-7.4358 -7.2484,-3.6578 -15.5704,-7.5454 -18.4935,-8.639 -8.4787,-3.1723 -12.3025,-8.7879 -9.2039,-13.517 1.1129,-1.6985 2.5257,-2.451 4.6017,-2.451 4.6125,0 16.5083,4.5198 26.384,10.0247 9.1733,5.1133 12.9894,6.2208 11.9309,3.4626 -0.3192,-0.832 -0.064,-2.1347 0.5665,-2.8948 0.6308,-0.7601 1.0187,-1.9649 0.8619,-2.6774 -0.3381,-1.5364 9.4724,-5.8395 13.4157,-5.8844 3.7712,-0.043 11.2622,1.5901 25.6302,5.5872 18.9291,5.2661 24.4913,8.7497 24.9595,15.6321 l 0.1871,2.75 h -7.524 c -4.7413,0 -8.3431,0.5193 -9.7388,1.4041 -1.9445,1.2327 -2.947,1.1527 -8.2148,-0.6558 -4.7003,-1.6137 -8.1662,-2.0211 -16,-1.8805 -12.1401,0.2177 -13.4644,0.5524 -12.7652,3.2261 0.3856,1.4743 -0.05,2.1757 -1.6027,2.5818 -1.1727,0.3067 -2.1321,0.9551 -2.1321,1.4409 0,1.0542 -3.4888,1.0179 -7.0918,-0.074 z m 181.0918,0.1851 c 0,-0.547 -0.9594,-1.2455 -2.1321,-1.5522 -1.5529,-0.4061 -1.9883,-1.1075 -1.6027,-2.5818 0.6969,-2.665 -0.5959,-2.9969 -12.7652,-3.2767 -10.0408,-0.2309 -15.3596,1.01 -26.75,6.2409 -3.4874,1.6016 -7.75,-0.054 -7.75,-3.011 0,-1.1874 -1.166,-2.5987 -2.8788,-3.4844 -6.3285,-3.2726 -4.2215,-7.4495 6.0927,-12.0782 6.927,-3.1087 35.3637,-10.5077 40.1157,-10.4379 4.7983,0.071 14.2286,4.2869 13.8939,6.2121 -0.1521,0.8748 0.1854,1.876 0.75,2.2249 0.5646,0.3489 1.0265,1.5079 1.0265,2.5754 0,1.0676 0.4792,1.941 1.0649,1.941 0.5857,0 5.1982,-2.228 10.25,-4.9511 11.3069,-6.0949 21.6102,-10.0489 26.1849,-10.0489 8.9968,0 7.5843,11.4796 -1.8486,15.0229 -1.7331,0.651 -10.5762,4.7198 -19.6512,9.0416 -15.8387,7.5431 -24,10.3191 -24,8.1634 z m -523.00962,-5.4779 c -0.59768,-2.3375 -1.96511,-6.3586 -3.03871,-8.9358 -1.07361,-2.5772 -2.65045,-9.1022 -3.50409,-14.5 -5.33291,-33.7216 -14.10222,-83.76458 -18.54242,-105.81418 -4.04801,-20.102 -7.62675,-32.0796 -14.93928,-50 -8.93837,-21.9047 -10.16441,-28.0157 -10.02286,-49.9571 0.064,-9.9236 0.70996,-22.5249 1.43542,-28.0029 1.24235,-9.381 1.18627,-10.5868 -0.96466,-20.7427 -1.97146,-9.3086 -3.03332,-11.9947 -7.76684,-19.647 -6.80686,-11.0041 -13.76637,-24.7807 -18.66464,-36.9473 -2.05863,-5.11334 -4.01415,-9.56819 -4.34561,-9.89965 -0.33147,-0.33146 -2.29782,1.37255 -4.36968,3.78668 -2.07185,2.41414 -5.82023,6.64398 -8.32972,9.39965 -9.25523,10.16312 -8.93729,9.33282 -8.93729,23.34042 0,11.8923 0.12798,12.6964 2.40593,15.1152 2.08148,2.2102 7.85437,14.1131 7.17806,14.8002 -0.86676,0.8805 -16.47425,-4.3456 -22.9952,-7.6998 -7.67209,-3.9464 -12.84146,-5.0639 -14.08879,-3.0457 -0.33992,0.55 -1.958902,1 -3.597742,1 -2.08526,0 -4.24384,1.1786 -7.19098,3.9262 l -4.21128,3.9263 -0.23582,10.8237 c -0.19304,8.8601 -0.0252,10.3702 0.92533,8.3238 0.63863,-1.375 2.62797,-5.7625 4.42076,-9.75 2.47845,-5.5126 3.92488,-7.503 6.03564,-8.3055 5.458052,-2.0751 9.591722,0.9625 5.692402,4.1831 -0.91393,0.7548 -2.75774,3.8468 -4.097352,6.871 -1.33962,3.0243 -4.03709,7.6803 -5.99439,10.3466 -4.31924,5.884 -5.33682,12.4502 -2.93252,18.9229 0.86459,2.3275 2.04668,6.8969 2.62687,10.1542 1.36146,7.6435 2.36939,9.0668 12.287962,17.3516 4.54912,3.7999 10.00828,9.029 12.13147,11.6204 2.12319,2.5914 6.84339,6.7128 10.48932,9.1587 3.64594,2.4458 6.12075,4.447 5.49958,4.447 -1.37928,0 -11.42733,-7.4372 -26.58702,-19.6787 -12.438752,-10.0443 -15.672902,-14.4914 -17.687862,-24.3213 -1.21329,-5.919 -2.95157,-9.7796 -3.15179,-7 -0.84885,11.7841 3.02009,23.7643 11.22239,34.75 3.10872,4.1637 4.502842,5.25 6.737392,5.25 3.3718,0 8.96233,3.9083 15.15916,10.5976 7.5061,8.1026 10.84006,13.8172 14.06666,24.1109 3.6533,11.6551 8.0876,23.6416 14.53552,39.2915 l 4.73812,11.5 0.63032,15.6498 0.63033,15.6497 6.13646,12.49018 c 11.46808,23.3421 21.08873,29.4602 40.30429,25.6308 9.69876,-1.9328 13.32535,1.5212 9.4552,9.0052 -2.00799,3.883 -8.32755,6.2663 -18.12978,6.8372 -10.48908,0.6109 -17.33803,-1.3501 -25.05767,-7.1747 -7.23108,-5.4559 -11.93344,-11.5695 -18.23172,-23.7032 -6.31503,-12.1661 -9.44596,-20.89738 -12.22169,-34.08288 -1.96589,-9.3386 -2.08865,-11.1931 -0.96611,-14.5944 1.24044,-3.7586 1.09096,-4.3564 -4.22488,-16.8972 -5.27537,-12.4453 -8.10582,-20.4805 -12.61451,-35.8105 -1.32584,-4.508 -3.59651,-9.0352 -6.37828,-12.7168 -6.32474,-8.3706 -13.606132,-15.78 -15.532112,-15.8052 -7.14941,-0.093 -16.10382,-9.3356 -21.21624,-21.8983 -4.43549,-10.8993 -5.34158,-20.1672 -4.64784,-47.5403 0.83545,-32.9647 2.98298,-41.3924 11.8297,-46.4241 3.42095,-1.9457 3.75575,-5.3813 0.76742,-7.8751 -2.3012,-1.9204 -7.61198,-11.9651 -10.43697,-19.7402 -0.99917,-2.75 -2.34876,-5.675 -2.99908,-6.5 -1.18993,-1.50955 -3.47866,-17.69033 -3.47866,-24.59331 0,-3.94903 4.54558,-12.63308 14.6664,-28.01922 l 5.33632,-8.11253 -1.04164,-27.38747 c -0.5729,-15.06311 -1.74731,-32.33747 -2.6098,-38.38747 -0.86249,-6.05 -1.79183,-13.97874 -2.06519,-17.61942 -0.44767,-5.96211 -0.28153,-6.77037 1.67313,-8.13947 2.67981,-1.87701 5.7452,-1.18219 7.20806,1.6338 0.60716,1.1688 1.87655,2.86829 2.82085,3.77665 5.43406,5.22721 10.943202,46.30231 10.989182,81.93316 0.0207,16.01022 0.32926,19.09929 3.44654,34.5 4.54119,22.43548 5.81722,27.64253 6.50313,26.53709 0.31516,-0.50793 0.2259,-13.00563 -0.19836,-27.77266 -0.80962,-28.18028 -0.28897,-55.69349 1.34072,-70.84915 2.01934,-18.77933 9.96914,-42.26575 16.52557,-48.82218 2.68614,-2.68614 6.74897,-3.54846 7.90509,-1.67782 0.33992,0.55 -0.072,1 -0.9153,1 -2.07238,0 -4.29273,4.57186 -6.70607,13.80828 -1.50024,5.74174 -2.1198,12.00151 -2.44388,24.69172 -0.6614,25.89869 -0.40661,95.25022 0.37399,101.80063 l 0.69126,5.80062 8.25,-9.48479 c 6.77435,-7.78829 8.24928,-10.07789 8.24598,-12.80063 -0.004,-3.41247 -2.59824,-20.75458 -3.63726,-24.31583 -0.40011,-1.37138 -0.25573,-1.68569 0.45936,-1 0.57357,0.55 1.71674,3.925 2.54037,7.5 0.82363,3.575 2.45047,8.72275 3.6152,11.43944 l 2.11768,4.93944 12.67043,-12.43944 c 6.96874,-6.84169 12.82893,-12.50769 13.02266,-12.5911 0.19372,-0.0834 0.7474,-3.23341 1.23039,-7 3.37207,-26.29703 5.58528,-41.33038 8.59003,-58.34834 5.14489,-29.13892 15.16242,-82.2732 17.424,-92.41906 1.98578,-8.90857 6.91951,-19.41424 10.742,-22.87355 1.88609,-1.70689 1.93568,-1.49175 2.54112,11.02587 0.67972,14.05304 0.15767,18.18442 -8.81578,69.76674 -7.12268,40.94351 -11.48454,68.65326 -11.4906,72.9968 l -0.006,3.99681 3.49163,-4.91106 c 5.67672,-7.98442 12.9581,-23.04285 22.12533,-45.7568 4.73384,-11.72916 9.90657,-23.90038 11.49497,-27.04716 1.5884,-3.14677 3.65203,-9.19851 4.58585,-13.44831 l 1.69786,-7.7269 1.42634,3.44831 c 1.56456,3.7825 1.87222,11.15302 0.97877,23.44831 -0.47295,6.50862 -1.74034,11.07597 -6.79844,24.5 -11.77855,31.25985 -25.08297,55.03886 -38.68561,69.14286 -3.14197,3.25778 -3.61184,4.47345 -4.4449,11.5 -1.12661,9.50258 -1.4586,57.53244 -0.42956,62.14554 l 0.73354,3.2884 3.48888,-7.2884 c 2.75253,-5.75013 5.30487,-9.03364 12.09308,-15.55743 5.745,-5.52121 8.93702,-7.93621 9.60575,-7.26748 1.19754,1.19754 -3.32943,15.70937 -7.51137,24.07871 -3.46625,6.9371 -5.02335,12.891 -7.85559,30.0379 l -2.24299,13.5795 4.76368,6.4202 c 9.18904,12.3845 12.5211,24.106 9.14766,32.1798 -2.46012,5.8879 -9.26374,7.5016 -15.52747,3.6829 l -3.3626,-2.05 0.43986,14.3037 c 0.49246,16.0143 1.02831,18.0856 10.29717,39.8038 10.19187,23.8809 13.33798,36.8684 23.01296,95 7.26206,43.63368 10.0761,67.00868 8.43592,70.07338 -0.5807,1.085 -1.49618,5.8999 -2.0344,10.6997 -1.10743,9.876 -1.67562,12.2269 -2.95516,12.2269 -0.49174,0 -1.38309,-1.9125 -1.98078,-4.25 z M 175.73735,759.26332 c -0.40407,-3.4375 -0.73467,-17.61274 -0.73467,-31.50054 0,-13.88779 -0.2161,-25.25029 -0.48022,-25.25 -0.26412,3e-4 -4.42662,3.92866 -9.25,8.72969 -5.41064,5.38557 -8.76978,9.52486 -8.76978,10.80652 0,4.79649 17.01112,43.46433 19.12123,43.46433 0.46646,0 0.5175,-2.8125 0.11344,-6.25 z m -72.97818,0 c 0.25876,-0.6875 -0.22015,-3.5 -1.06425,-6.25 -1.756982,-5.7241 -2.776722,-3.8833 -1.726902,3.1174 0.642102,4.2818 1.848862,5.6362 2.791152,3.1326 z m -17.911942,-52.25 0.58196,-11 -2.32082,5 c -4.96463,10.69589 -5.15491,11.83813 -2.55729,15.35159 1.28583,1.73918 2.64754,2.82155 3.02603,2.40528 0.37848,-0.41628 0.95004,-5.70687 1.27012,-11.75687 z M 635.61788,1055.8369 c -1.7134,-2.0786 -3.1152,-4.1742 -3.1152,-4.6568 0,-0.4827 -2.3391,-5.6676 -5.198,-11.5222 -6.4186,-13.1443 -7.3241,-19.9393 -3.616,-27.1353 2.7177,-5.2742 7.009,-8.2166 9.0287,-6.1907 1.0475,1.0508 0.6841,2.3762 -1.9647,7.1646 -4.0959,7.4045 -4.2251,12.6513 -0.6371,25.8818 2.9993,11.0595 3.6834,12.6184 7.1864,16.3746 1.4052,1.5067 2.302,2.9924 1.993,3.3014 -0.309,0.3091 -1.9637,-1.1388 -3.6771,-3.2174 z m 59.8848,1.2774 c 0,-0.3541 1.1075,-2.3217 2.4611,-4.3724 1.3536,-2.0507 3.1614,-6.7573 4.0173,-10.459 0.8559,-3.7017 2.0373,-7.9767 2.6253,-9.5 2.1121,-5.4718 1.2275,-12.8126 -2.316,-19.2184 -2.4781,-4.4797 -3.0047,-6.2273 -2.1384,-7.0966 1.7519,-1.7579 5.0477,-0.2183 8.1014,3.7845 2.4402,3.1987 2.7493,4.4559 2.7493,11.1824 0,6.8577 -0.3951,8.387 -4.1541,16.0785 -2.2848,4.675 -5.1198,10.6011 -6.3,13.1691 -1.9063,4.1475 -5.0459,8.1496 -5.0459,6.4319 z m -165,-25.2908 c 0,-1.4794 -0.5214,-5.2142 -1.1587,-8.2997 -1.5661,-7.5821 -0.6513,-10.3347 5.456,-16.4167 4.1975,-4.1802 6.7483,-5.724 13.2027,-7.99048 4.4,-1.5451 11.1972,-4.338 15.1049,-6.2063 3.9077,-1.8684 8.2741,-3.397 9.703,-3.397 5.4088,0 10.5306,4.2166 7.476,6.1547 -0.8867,0.5626 -0.9209,0.8194 -0.1105,0.83 0.841,0.011 0.7709,0.8219 -0.2474,2.8632 -1.0704,2.14558 -3.8257,3.96618 -11.1734,7.38288 -5.3639,2.4942 -12.8322,5.5384 -16.5961,6.7647 -8.6144,2.8068 -12.8348,6.4968 -16.7048,14.6056 -3.2528,6.8158 -4.9517,8.0883 -4.9517,3.7091 z m 269.8215,1.0543 c -0.9232,-1.0255 -2.5643,-3.931 -3.6468,-6.4566 -2.559,-5.9704 -8.0164,-10.371 -16.1409,-13.0154 -3.5936,-1.1697 -10.9225,-4.1675 -16.2864,-6.6617 -7.3477,-3.4167 -10.103,-5.2373 -11.1734,-7.38288 -1.0183,-2.0413 -1.0884,-2.8522 -0.2474,-2.8632 0.6838,-0.01 0.5476,-0.4262 -0.3266,-1 -1.3333,-0.8753 -1.3333,-1.0941 0,-1.9694 0.825,-0.5416 1.05,-1.0075 0.5,-1.0354 -0.55,-0.028 0.125,-0.6939 1.5,-1.4799 3.6634,-2.0942 7.9278,-1.8099 13.008,0.8672 2.4706,1.302 9.1162,4.0563 14.768,6.1206 15.972,5.83398 23.1905,13.35738 21.809,22.73018 -2.2421,15.2118 -1.9251,14.1885 -3.7635,12.1465 z M 180.96683,959.76332 c -0.0289,-11.0759 -0.4891,-15.5003 -2.36651,-22.75 -2.89977,-11.1976 -3.44737,-12.2561 -11.4995,-22.2292 -10.3133,-12.7737 -14.40871,-19.0934 -15.96196,-24.631 -2.31822,-8.265 -2.82314,-15.675 -1.39897,-20.5312 l 1.28786,-4.3914 4.40732,11.3914 c 5.26273,13.6024 7.37562,17.1698 13.17585,22.2463 14.38977,12.5944 19.13088,19.3592 22.87945,32.6451 2.69067,9.5365 3.7968,25.0226 2.05617,28.7871 -0.68993,1.4921 -1.91967,4.1137 -2.73275,5.8258 -1.16008,2.4427 -7.48339,7.3871 -9.44727,7.3871 -0.20011,0 -0.37997,-6.1875 -0.39969,-13.75 z m 964.05347,9.4214 c -2.565,-2.4576 -4.5176,-5.2416 -4.5176,-6.441 0,-1.1618 -0.5113,-2.4284 -1.1363,-2.8146 -1.7576,-1.0863 -0.359,-19.6347 2.142,-28.4087 3.5056,-12.2978 7.271,-18.1857 17.8122,-27.8523 12.1898,-11.1785 12.7415,-12.0661 20.1519,-32.4245 0.9549,-2.6233 1.9766,-5.0101 2.2705,-5.3039 0.2939,-0.2939 1.0737,1.7141 1.733,4.4621 0.9103,3.7946 0.9279,6.7408 0.073,12.2485 -1.7448,11.2452 -2.6901,12.9381 -18.8579,33.7728 -9.6253,12.4036 -13.8436,27.939 -12.8259,47.236 0.6147,11.655 0.038,12.1208 -6.8453,5.5256 z m -686.51762,-68.687 c -0.825,-0.5417 -3.1875,-1.4522 -5.25,-2.0232 -2.0788,-0.5756 -3.75,-1.6693 -3.75,-2.4542 0,-1.266 7.95342,-5.5595 18.18961,-9.8191 2.02929,-0.8445 5.62929,-3.2915 8,-5.438 2.37072,-2.1464 8.00572,-6.9062 12.52225,-10.5773 4.51654,-3.6712 13.96654,-12.5425 21.00004,-19.714 10.1617,-10.3613 13.815,-14.8768 17.7881,-21.9865 3.5793,-6.4049 6.5628,-10.2657 10.5,-13.5877 3.025,-2.5524 5.7921,-5.0985 6.1491,-5.6582 1.0609,-1.6634 3.8509,0.039 3.8509,2.3494 0,1.4917 -0.4545,1.964 -1.5027,1.5617 -1.952,-0.749 -7.6834,10.4511 -10.4418,20.4049 -2.1649,7.8125 -4.1141,10.8051 -14.0224,21.5284 -3.5932,3.8888 -8.9281,9.858 -11.8552,13.2649 -2.9272,3.4069 -8.5522,8.7584 -12.5,11.8923 -3.9479,3.1338 -8.9779,7.3653 -11.1779,9.4032 -6.59567,6.1099 -9.37007,8.0118 -14.5685,9.987 -5.41582,2.0579 -10.58916,2.4045 -12.9315,0.8664 z m 402.2109,-1.2651 c -9.2113,-3.865 -30.2073,-22.6276 -49.2109,-43.9762 -10.4658,-11.7573 -12.3183,-14.7057 -14.4982,-23.075 -2.1958,-8.4303 -8.1403,-19.7441 -9.9991,-19.0308 -1.5893,0.6099 -1.8981,-0.4433 -0.8957,-3.0555 0.6492,-1.6917 3.0073,-2.1583 3.5597,-0.7043 0.1833,0.4826 2.8083,2.9632 5.8333,5.5125 3.9312,3.3129 6.9262,7.1819 10.5,13.564 3.9181,6.997 7.7052,11.7007 17.5018,21.7376 6.8759,7.0446 14.9678,14.8334 17.9819,17.3084 3.0141,2.475 8.9208,7.425 13.1259,11 5.3762,4.5706 10.3278,7.6666 16.6812,10.4302 4.9695,2.1616 10.0739,4.7134 11.3431,5.6708 l 2.3077,1.7407 -2.9708,1.1847 c -1.6339,0.6517 -4.4486,1.8123 -6.2547,2.5792 -4.5877,1.948 -8.8504,1.6962 -15.0052,-0.8863 z m -448.7109,-32.255 c -11.09025,-2.4674 -37.41515,-12.9 -38.99296,-15.4529 -0.89999,-1.4562 -0.49496,-1.3435 7.63825,2.126 19.66123,8.387 18.99466,8.261 44.56077,8.4256 20.85608,0.1343 23.48899,0.3388 26,2.0196 l 2.79394,1.8701 -7.5,1.2109 c -9.80023,1.5823 -26.93731,1.4833 -34.5,-0.1993 z m 474,0.2202 -7,-1.2103 2.866,-1.9281 c 2.6246,-1.7657 4.5272,-1.9071 22.5903,-1.6782 22.5782,0.286 26.8248,-0.396 43.1592,-6.9319 5.7115,-2.2853 11.0208,-4.4073 11.7985,-4.7155 0.9416,-0.3731 1.1575,-0.1452 0.6462,0.6821 -1.1213,1.8143 -13.2488,7.123 -27.5602,12.0644 -11.9793,4.1361 -13.0624,4.3287 -26,4.6219 -7.5768,0.1718 -16.5713,-0.225 -20.5,-0.9044 z m -728.14938,-41.21 c -5.37352,-6.2316 -13.7243,-11.9525 -19.85062,-13.5992 -2.2,-0.5914 -4.675,-1.6893 -5.5,-2.4397 -0.825,-0.7505 -3.05173,-2.6728 -4.9483,-4.2719 l -3.4483,-2.9073 3.3193,-1.7164 c 2.80674,-1.4514 4.01412,-1.5415 7.81909,-0.5834 11.73758,2.9555 23.34456,10.5929 28.31086,18.6286 2.23362,3.6141 2.42571,11.438 0.29797,12.1369 -0.63216,0.2076 -3.33216,-2.1538 -6,-5.2476 z m 457.28148,-2.9356 c -3.4398,-6.258 -11.6321,-31.6078 -11.6321,-35.9939 0,-6.5648 6.5887,-7.0675 9.382,-0.7157 3.1796,7.2299 7.8062,23.7824 8.3364,29.8251 0.5795,6.6032 -0.2652,13.3456 -1.6719,13.3456 -0.4746,0 -2.4611,-2.9075 -4.4144,-6.4611 z m 96.9929,3.3361 c -1.2838,-6.4188 -0.5284,-12.8818 2.8591,-24.4633 1.9163,-6.5514 4.2185,-13.5635 5.1161,-15.5824 2.8226,-6.3484 9.3998,-5.8476 9.3998,0.7157 0,7.6771 -13.0795,42.455 -15.9668,42.455 -0.4307,0 -1.0644,-1.4062 -1.4082,-3.125 z M 425.3674,808.47562 c -3.6494,-0.4262 -9.9494,-1.4684 -14,-2.3161 -4.0506,-0.8478 -10.06472,-1.8363 -13.36472,-2.1967 -15.05503,-1.6445 -35.09432,-13.0007 -37.10952,-21.0298 -0.83581,-3.3302 0.33741,-7.4197 2.12857,-7.4197 0.81452,0 1.48095,-0.45 1.48095,-1 0,-0.55 1.32263,-1 2.93918,-1 2.01013,0 4.45585,1.3127 7.73738,4.1528 5.89688,5.1037 17.02517,10.5579 23.21015,11.3756 2.53731,0.3355 8.37673,1.2779 12.9765,2.0942 4.59977,0.8164 8.60681,1.2407 8.90455,0.943 0.29774,-0.2978 -1.52455,-2.3598 -4.04953,-4.5824 -7.35611,-6.4751 -8.80557,-9.5752 -8.97264,-19.1905 -0.10479,-6.0317 0.30914,-9.1458 1.51818,-11.4215 2.76524,-5.2049 4.39098,-4.9341 5.0755,0.8456 0.66087,5.58 1.35425,6.8971 2.58368,4.9079 1.01574,-1.6435 3.07705,3.7932 3.07705,8.1158 0,2.0863 1.55652,4.8172 5.35188,9.3897 5.18196,6.243 6.78886,8.7813 8.08273,12.7675 0.5876,1.8103 1.52414,1.8657 20.34068,1.2034 16.35548,-0.5757 19.93275,-0.9677 20.94268,-2.295 0.66988,-0.8804 0.90611,-2.0969 0.52496,-2.7034 -1.2016,-1.9119 -0.16626,-4.8231 3.35576,-9.4357 1.87605,-2.457 3.92563,-6.185 4.55463,-8.2844 0.629,-2.0994 1.52682,-3.5803 1.99516,-3.2908 1.71333,1.0589 0.78787,-5.6787 -1.48639,-10.8212 -4.55352,-10.2963 -6.94074,-18.72992 -5.71856,-20.20255 0.6215,-0.74887 2.04467,-1.12239 3.16259,-0.83005 2.869,0.75026 9.43248,9.8112 12.58108,17.3683 2.3454,5.6291 2.6696,7.769 2.7117,17.8937 0.026,6.325 -0.289,13.1384 -0.7004,15.1409 l -0.7482,3.6409 8.3259,-0.5195 c 6.5043,-0.4057 9.015,-0.1631 11.4752,1.1092 1.7321,0.8957 4.0716,1.6285 5.1989,1.6285 2.9903,0 2.5064,1.6764 -0.7003,2.426 -4.9665,1.161 -8.25,2.7948 -8.25,4.105 0,0.7137 -3.4561,2.4623 -7.75,3.921 -6.4775,2.2004 -11.7729,2.9536 -32.25,4.5866 -25.59492,2.0412 -34.07868,2.2149 -45.13528,0.9237 z m 435.13528,-0.8556 c -17.6262,-1.4528 -22.9865,-2.2675 -29.75,-4.5215 -4.9682,-1.6557 -8.25,-3.2931 -8.25,-4.1162 0,-0.7799 -2.3617,-2.1113 -5.5,-3.1005 -3.025,-0.9536 -5.4962,-1.9891 -5.4915,-2.3011 0.018,-1.1728 11.6783,-4.1035 16.2566,-4.0858 2.6208,0.01 7.4593,0.7674 10.7521,1.6829 3.2929,0.9155 6.2652,1.3864 6.6053,1.0464 0.34,-0.34 -0.9246,-2.1016 -2.8103,-3.9146 -5.726,-5.5054 -8.5146,-9.9698 -10.7134,-17.1516 -3.4726,-11.3425 -2.6613,-18.1477 2.6301,-22.0624 l 2.5921,-1.9178 -0.8356,2.4178 c -2.7494,7.9551 0.9483,20.999 8.6402,30.4795 6.215,7.6601 8.88,8.7058 22.5416,8.8449 9.1466,0.093 9.1625,0.098 7.0718,2.0483 l -2.0955,1.955 3.4282,0.9093 c 4.8491,1.2861 33.2407,0.088 40.497,-1.7087 3.3377,-0.8265 9.857,-1.9778 14.4873,-2.5584 10.0467,-1.2597 19.8172,-5.5587 27.8181,-12.2398 3.9435,-3.293 6.0066,-4.3667 7.75,-4.0334 1.3067,0.2498 2.3759,0.8517 2.3759,1.3376 0,0.4859 0.6269,0.8834 1.393,0.8834 3.3352,0 3.4311,6.323 0.1687,11.124 -4.799,7.0623 -23.4452,16.2062 -35.5182,17.4176 -3.5989,0.3612 -10.5488,1.5282 -15.4442,2.5934 -12.7324,2.7706 -32.7473,3.1025 -58.5993,0.9717 z m -325.5,-7.9986 c -3.4397,-0.5229 -4.0443,-0.9933 -4.3164,-3.3581 -0.1741,-1.5125 0.054,-2.75 0.5071,-2.75 0.4529,0 3.2921,-2.025 6.3093,-4.5 6.4975,-5.3299 10.2572,-5.8373 14.8176,-2 3.9262,3.3037 4.7717,3.1678 6.793,-1.0918 1.9541,-4.1181 3.7727,-5.1649 5.9021,-3.3976 1.9738,1.6381 1.8172,7.6351 -0.3107,11.9025 -1.2111,2.4286 -2.8557,3.8163 -5.702,4.8112 -3.7048,1.295 -4.3043,1.2342 -8.1233,-0.823 l -4.1232,-2.2211 -3.4948,2.1599 c -1.9221,1.188 -3.6667,2.096 -3.8767,2.018 -0.2101,-0.078 -2.182,-0.4156 -4.382,-0.75 z m 239.1211,-0.5786 c -2.9344,-0.864 -4.3483,-2.057 -5.8066,-4.8995 -3.77,-7.3484 -0.4324,-16.002 4.0804,-10.5795 1.1212,1.3472 2.0535,3.0261 2.0718,3.7309 0.064,2.4808 3.0374,2.393 6.0953,-0.1801 4.6891,-3.9456 8.3862,-3.4757 14.938,1.8987 3.0172,2.475 5.8564,4.5 6.3093,4.5 0.453,0 0.6812,1.2342 0.5071,2.7427 -0.2835,2.4578 -0.823,2.8146 -5.1943,3.4354 -4.0976,0.5819 -5.3422,0.3494 -7.7808,-1.4535 -2.8886,-2.1357 -2.9212,-2.1369 -6.6221,-0.2382 -4.7653,2.4446 -4.1082,2.3649 -8.5981,1.0431 z m 109.5721,-10.6279 c 0.5725,-1.7404 5.6677,-2.4407 7.1286,-0.9798 0.7709,0.7709 0.5225,1.0821 -0.8718,1.0919 -1.0725,0.01 -3.0227,0.3007 -4.3339,0.6516 -1.7774,0.4757 -2.2666,0.2814 -1.9229,-0.7637 z m 4.1286,-5.2277 c -1.7481,-0.6456 -3.4349,-1.4358 -3.7486,-1.7558 -0.3137,-0.3201 1.7092,-3.0201 4.4955,-6 2.7862,-2.98 5.4855,-6.4599 5.9985,-7.7332 1.4147,-3.5112 1.1179,-10.4977 -0.623,-14.6642 -0.8557,-2.0479 -1.4182,-5.1404 -1.25,-6.8721 0.2858,-2.94233 0.5351,-3.12858 3.8058,-2.84307 3.9469,0.34455 7.4098,2.52337 10.4213,6.55697 2.8925,3.8742 3.4631,15.9891 1.0574,22.4489 -3.7605,10.0979 -11.2703,14.1449 -20.1569,10.8625 z m -448.50402,-2.6658 c -3.12522,-0.4013 -6.33554,-1.383 -7.13403,-2.1815 -1.41069,-1.4107 -2.25721,-9.6483 -1.86091,-18.1088 0.22003,-4.6974 3.45121,-6.5412 6.67716,-3.8101 1.38521,1.1727 3.69069,1.6676 7.5,1.61 6.86777,-0.1038 9.26416,-1.4113 9.39733,-5.1271 0.1417,-3.9542 2.91496,-4.2322 6.49606,-0.6511 3.90258,3.9026 5.88982,12.848 3.76509,16.9481 -2.78893,5.3818 -12.6004,12.4376 -16.9389,12.1813 -1.22077,-0.072 -4.77658,-0.4595 -7.9018,-0.8608 z m 130.68222,-5.4418 c -1.65,-0.7455 -7.05,-4.3176 -12,-7.938 -17.6587,-12.9154 -35.6222,-24.56841 -46.3403,-30.0612 -4.1566,-2.13018 -6.7112,-1.46617 -5.2028,1.35232 1.6119,3.01194 1.3326,6.1289 -0.4867,5.43077 -0.9355,-0.359 -1.3078,-1.28663 -0.9582,-2.38796 0.3828,-1.20608 -0.047,-1.9974 -1.3026,-2.39577 -1.0308,-0.32717 -4.5163,-2.18583 -7.7455,-4.13037 -14.98103,-9.02109 -28.71399,-11.30538 -47.98859,-7.98224 -14.0344,2.41968 -16.02981,3.15935 -24.47531,9.07264 -4.125,2.88821 -13.35,8.63168 -20.5,12.76331 -7.15,4.1316 -15.025,8.993 -17.5,10.8031 -2.475,1.8102 -5.85364,3.7673 -7.50808,4.3491 -1.65445,0.5819 -4.74502,2.0866 -6.86793,3.3439 -7.04142,4.17 -11.04304,5.3941 -19.46061,5.9532 -8.0433,0.5341 -8.42227,0.4613 -10.77075,-2.0715 -1.33877,-1.4438 -2.72813,-4.0951 -3.08748,-5.8919 -0.35935,-1.7967 -1.25002,-3.8634 -1.97926,-4.5927 -1.77825,-1.7782 -1.67594,-2.5562 0.60791,-4.6231 2.71917,-2.4608 8.82251,-4.4643 13.75718,-4.516 4.21668,-0.044 6.29391,-1.3172 4.23036,-2.5925 -0.69356,-0.4287 -0.0419,-1.3919 1.73369,-2.5625 2.15663,-1.4219 4.70029,-1.87732 10.51318,-1.88231 4.21752,-0.004 8.39945,-0.28719 9.29317,-0.63015 1.46385,-0.56172 1.47272,-0.79178 0.0895,-2.32026 -1.39654,-1.54315 -1.27433,-1.94692 1.35045,-4.46162 2.28952,-2.1935 4.13241,-2.87795 8.91707,-3.31181 5.28071,-0.47883 6.10458,-0.83961 6.6216,-2.89958 0.38352,-1.52807 1.54904,-2.55395 3.32526,-2.92684 1.50412,-0.31577 9.48477,-3.22075 17.73477,-6.4555 10.69183,-4.19218 20.23934,-7.04738 33.24209,-9.94111 10.03313,-2.23284 19.04117,-4.05972 20.01784,-4.05972 0.97667,0 3.48577,1.16198 5.57578,2.58217 3.03075,2.05945 6.06365,2.86384 14.98213,3.97355 8.49463,1.05697 12.62413,2.10934 17.18213,4.37865 3.3,1.643 9.375,4.55988 13.5,6.48196 10.762,5.01466 30.2987,18.12969 38.7604,26.01997 7.3611,6.8641 17.2396,20.4831 17.2396,23.7674 0,2.1195 -0.5188,2.1613 -4.5,0.3626 z m 188.5,-0.1197 c 0,-3.381 9.6555,-16.8505 17,-23.7151 8.2755,-7.73485 27.8837,-21.10403 38,-25.90905 3.575,-1.69805 9.65,-4.5626 13.5,-6.36568 11.0072,-5.15503 29.1358,-7.33906 42.5,-5.12017 5.3187,0.88307 9.3665,1.08418 10.8151,0.53733 5.319,-2.00789 15.3212,-0.42801 33.6849,5.32067 7.15,2.23828 15.025,5.0807 17.5,6.31649 2.475,1.2358 6.3483,2.55507 8.6074,2.93171 2.259,0.37664 6.2728,1.78109 8.9194,3.121 2.6467,1.33991 5.4288,2.4362 6.1825,2.4362 3.0225,0 9.2907,4.06179 9.2907,6.02032 0,1.08883 -0.364,1.97968 -0.8089,1.97968 -0.4448,0 -1.6823,0.69824 -2.75,1.55164 -1.797,1.43646 -1.4771,1.52456 4.3089,1.1862 3.4375,-0.20101 6.25,7.5e-4 6.25,0.44836 0,1.1119 5.1542,1.0019 6.9738,-0.1488 1.2576,-0.79536 1.1694,-1.26979 -0.6012,-3.23473 -3.9376,-4.36957 -3.6672,-5.10142 0.7597,-2.05568 3.785,2.60415 5.1005,2.98109 8.9069,2.55206 8.5921,-0.96846 10.3094,5.55365 3.1235,11.86295 -2.5482,2.2373 -3.2061,3.3235 -2.2135,3.6544 2.5127,0.8376 6.0508,5.4114 6.0508,7.822 0,1.2905 -0.9812,3.4748 -2.1803,4.854 -1.8996,2.1847 -2.9981,2.5076 -8.5316,2.5076 -6.6844,0 -16.7655,-2.8126 -21.2479,-5.9282 -1.3971,-0.9711 -5.0414,-2.8951 -8.0985,-4.2756 -8.0984,-3.6571 -16.9332,-10.7524 -16.9379,-13.6031 0,-1.9042 -1.3565,-2.9264 -7.7538,-5.85601 -15.0734,-6.90289 -17.845,-8.26848 -27.0432,-13.32463 -7.3117,-4.01915 -11.7283,-5.65278 -20.7136,-7.66165 l -11.4203,-2.55329 -2.5616,2.01491 c -2.4436,1.92213 -5.4344,2.58474 -23.3883,5.18149 -6.1129,0.88415 -9.5653,2.24543 -20.1479,7.94443 -13.4603,7.24874 -32.8669,19.26435 -39.292,24.32765 -2.0992,1.6544 -6.3742,4.7793 -9.5,6.9443 -14.149,9.8001 -17.1831,11.2544 -17.1831,8.2363 z m 104.0489,-2.4638 c -4.015,-0.9452 -5.6799,-2.8978 -7.2167,-8.4636 -0.6103,-2.2106 -1.9473,-5.8488 -2.971,-8.0849 -2.356,-5.1466 -2.3383,-6.6925 0.1016,-8.9006 1.9679,-1.78097 5.0372,-1.5088 5.0372,0.4467 0,0.6563 1.4774,0.807 3.9834,0.4063 3.1486,-0.5035 4.114,-0.2964 4.6069,0.9882 0.343,0.8938 1.2065,1.6251 1.9189,1.6251 0.7123,0 1.7658,1.35 2.341,3 1.2368,3.5481 1.5547,3.6133 4.8769,1 3.5122,-2.7627 6.7205,-2.5177 9.2568,0.7067 3.5744,4.544 1.2064,9.9917 -6.587,15.1538 -4.9324,3.2671 -8.4307,3.7508 -15.348,2.1223 z m -21.0489,-17.4238 c 0,-0.8574 0.45,-1.559 1,-1.559 0.55,0 1,0.4234 1,0.941 0,0.5175 -0.45,1.2191 -1,1.559 -0.55,0.3399 -1,-0.083 -1,-0.941 z m -498,-7.0379 c 0,-0.7951 13.35693,-9.49751 13.83834,-9.01609 0.79516,0.79515 -2.23024,3.76778 -6.78412,6.66579 -4.04827,2.5762 -7.05422,3.5777 -7.05422,2.3503 z m -89.03063,-6.0711 c -0.0168,-0.5225 -0.56943,-6.575 -1.22796,-13.45 -2.00747,-20.95782 -1.22344,-43.07239 2.76282,-77.92862 l 0.50648,-4.42863 -7.75536,7.48595 c -10.70858,10.3366 -13.87662,12.09678 -22.50658,12.5048 -6.73013,0.31819 -6.95832,0.25554 -5.38826,-1.47936 0.90172,-0.99639 1.63949,-2.49177 1.63949,-3.32306 0,-0.83128 3.67471,-5.52085 8.16602,-10.42125 4.49131,-4.90041 12.42379,-14.24149 17.62772,-20.75797 l 9.4617,-11.84814 0.84803,-8.15186 c 0.46641,-4.48352 1.55308,-16.89717 2.41482,-27.58588 3.43043,-42.54984 9.73259,-59.29239 32.59216,-86.58557 6.61594,-7.89911 18.69839,-19.00491 19.64564,-18.05765 0.50526,0.50525 -3.54706,6.22587 -16.28989,22.99633 -11.8551,15.60215 -18.4662,30.98172 -18.4662,42.95842 0,2.72652 -0.92464,13.70779 -2.05475,24.40283 -1.13012,10.69504 -1.9134,20.40721 -1.74065,21.58259 0.56688,3.85681 15.76441,-24.90069 23.97304,-45.36293 9.78483,-24.39135 20.68716,-62.7983 24.70439,-87.02917 4.41477,-26.62869 4.9314,-43.15107 2.55497,-81.71011 -0.85965,-13.94836 -1.40581,-26.35067 -1.21368,-27.56069 0.61652,-3.8828 7.40068,11.02222 10.65722,23.41426 1.64565,6.26214 3.05943,10.48571 3.14173,9.38571 0.31726,-4.24035 1.91281,4.03572 3.06815,15.91436 2.75694,28.34561 -1.02397,63.72118 -11.0574,103.45692 -1.71808,6.8042 -2.88924,12.60583 -2.60257,12.8925 0.28667,0.28667 1.26392,-0.0952 2.17168,-0.84854 1.50473,-1.24882 1.5874,-0.99653 0.93627,2.8575 -0.39281,2.32499 -0.42321,4.22726 -0.0676,4.22726 1.40583,0 11.9729,-24.30779 16.51934,-38 8.89828,-26.79832 20.81043,-89.16513 24.54369,-128.5 1.79651,-18.92863 2.71403,-24.01131 5.4518,-30.20049 3.24165,-7.32823 7.99666,-13.41943 20.53036,-26.29951 10.57725,-10.86955 19.48401,-22.23588 19.48401,-24.86443 0,-1.62694 3.91849,-4.32781 7.42689,-5.11908 4.06142,-0.916 4.35154,-0.50296 1.69918,2.41906 -1.03066,1.13545 -2.844,5.03177 -4.02964,8.6585 -2.88845,8.83547 -8.94237,18.40647 -19.1453,30.26795 -13.56941,15.77521 -14.30946,17.77935 -16.96682,45.94775 -2.86989,30.42129 -6.0423,51.03342 -14.11063,91.68091 -9.33893,47.04869 -24.04612,81.44938 -38.63705,90.37355 -3.12659,1.91229 -6.03554,3.26007 -6.46434,2.99506 -0.4288,-0.26501 -0.52457,-1.69176 -0.21284,-3.17056 0.40734,-1.9323 0.29938,-2.26672 -0.38373,-1.18871 -0.52278,0.825 -1.3121,3.525 -1.75403,6 -0.44193,2.475 -0.8504,4.725 -0.90771,5 -0.0573,0.275 -0.44165,2.18672 -0.85408,4.24827 -1.16912,5.84386 -7.91694,19.54219 -13.42425,27.25173 -2.75025,3.85 -8.35337,10.6 -12.45138,15 -4.09802,4.4 -11.42455,13.98508 -16.28119,21.30018 l -8.83026,13.30018 -1.3003,16.69982 c -2.75145,35.33672 -5.46619,57.2862 -7.38376,59.69982 -0.43696,0.55 -2.21879,9.325 -3.95962,19.5 -1.74083,10.175 -3.58454,18.9275 -4.09714,19.45 -0.58863,0.6 -0.94328,0.6 -0.96263,0 z m 822.70525,-0.16742 c -0.289,-0.46776 -1.8831,-8.7102 -3.5422,-18.31653 -1.6592,-9.60633 -3.6966,-19.08846 -4.5275,-21.0714 -1.6085,-3.83846 -4.7406,-30.28106 -6.9403,-58.59355 l -1.3362,-17.1989 -8.8262,-13.3011 c -4.8543,-7.3156 -11.8947,-16.6 -15.6451,-20.632 -16.8523,-18.11748 -25.7157,-34.39779 -28.4021,-52.1691 -0.3741,-2.475 -1.1079,-5.175 -1.6307,-6 -0.6831,-1.07801 -0.7911,-0.74359 -0.3837,1.18871 0.3117,1.4788 0.2159,2.90555 -0.2129,3.17056 -1.9289,1.19212 -12.09312,-6.58055 -16.12882,-12.33384 -5.4962,-7.83533 -12.9619,-23.64084 -17.9614,-38.02543 -2.1982,-6.325 -6.0007,-16 -8.4499,-21.5 -5.1271,-11.5136 -7.5004,-19.60409 -11.2936,-38.5 -2.3433,-11.67293 -2.7345,-16.20677 -2.8905,-33.5 -0.2235,-24.7632 -3.6062,-60.04314 -6.4912,-67.7005 -2.6743,-7.0981 -4.4019,-9.66053 -13.995,-20.75853 -9.457,-10.9406 -14.9909,-19.85135 -18.0356,-29.04097 -1.1844,-3.575 -2.7214,-7.175 -3.4155,-8 -2.842,-3.37796 -2.6663,-3.81195 1.1909,-2.94245 4.1869,0.94383 5.7935,2.62055 10.9034,11.37935 2.0028,3.43294 8.8342,11.48558 15.7478,18.5631 12.9163,13.22262 17.3201,18.90271 20.7021,26.70179 2.1645,4.99135 4.8297,18.87217 4.9535,25.79821 0.1028,5.75122 1.3285,2.44532 4.0784,-11 2.0307,-9.92861 2.3242,-10.6591 3.0132,-7.5 0.4199,1.925 0.7604,13.625 0.7568,26 -0.01,32.06436 4.6106,68.72833 13.9874,111 4.1466,18.69321 7.243,27.59664 15.1284,43.5 4.94412,9.97132 4.95672,9.98581 4.37422,5.05207 -0.5283,-4.47467 -0.4297,-4.81972 1.0309,-3.6075 0.8883,0.73724 1.8497,1.10588 2.1364,0.81921 0.2866,-0.28667 -0.8805,-6.07316 -2.5936,-12.85888 -2.70922,-10.73093 -3.56162,-12.77154 -6.54542,-15.66941 -1.8868,-1.83247 -3.431,-3.6476 -3.4314,-4.03363 -5e-4,-0.38602 -0.6575,-3.85186 -1.4601,-7.70186 -0.8025,-3.85 -2.3839,-18.7 -3.5141,-33 -1.1302,-14.3 -3.0074,-33.70814 -4.1716,-43.12919 -2.0413,-16.51895 -1.9624,-27.17423 0.1914,-25.8431 0.5041,0.31153 1.1978,-1.19271 1.5416,-3.34275 0.7361,-4.6032 1.1188,-5.25697 4.3861,-7.49292 3.4528,-2.36286 3.6868,-2.22704 4.4077,2.55796 1.5513,10.297 1.8888,11.75 2.7292,11.75 0.4898,0 0.8964,-0.7875 0.9035,-1.75 0.035,-4.70514 8.77722,-26.25 10.65182,-26.25 0.3498,0 0.3442,4.45145 -0.012,9.89211 l -0.6483,9.8921 2.4827,0.62313 c 1.5311,0.38426 2.7218,1.57572 3.1065,3.10823 0.343,1.36682 -0.3724,15.42246 -1.5899,31.23477 -2.4897,32.33557 -2.259,40.3992 1.6047,56.0974 3.7385,15.18984 5.2019,17.96 13.3344,25.24117 14.5793,13.05315 29.0608,32.71917 34.9957,47.52442 6.9462,17.32822 8.896,28.10969 11.6441,64.38667 0.8958,11.825 2.1016,22.4 2.6797,23.5 1.2704,2.41731 12.9859,17.62361 17.3349,22.5 1.7168,1.925 6.3348,7.05924 10.2623,11.40943 3.9274,4.35019 7.1408,8.58976 7.1408,9.42126 0,0.83151 0.681,2.2643 1.5133,3.18399 1.4021,1.54934 0.9716,1.66338 -5.8621,1.55264 -8.4364,-0.13671 -9.9796,-1.01265 -21.9025,-12.43188 -3.7133,-3.55637 -6.914,-6.27922 -7.1129,-6.05078 -0.1988,0.22844 0.2221,6.49034 0.9354,13.91534 3.0309,31.54903 3.6555,41.38494 3.0942,48.72724 -2.4087,31.51079 -2.6821,33.67273 -3.9908,31.55534 z M 1058.093,583.26332 c -0.3674,-4.5375 -1.1,-11.625 -1.628,-15.75 -0.528,-4.125 -1.3699,-13.37156 -1.8708,-20.54791 -0.7595,-10.88154 -1.4361,-14.41021 -4.075,-21.25304 -3.4042,-8.82745 -11.4309,-21.75176 -19.9974,-32.19905 -7.1125,-8.67414 -7.3711,-8.92162 -6.5786,-6.29558 0.7626,2.52652 -1.8885,7.29558 -4.0555,7.29558 -0.7618,0 -1.385,0.8145 -1.385,1.81 0,2.92322 9.7522,32.51146 15.7185,47.69 6.7763,17.23935 22.0218,47.5 23.9309,47.5 0.3348,0 0.3083,-3.7125 -0.059,-8.25 z M 369.50268,725.6759 c 0,-1.39406 11.68535,-6.94302 24.5,-11.63419 5.5,-2.01343 14.5,-5.38904 20,-7.50135 20.61971,-7.91915 31.27538,-10.0352 43.09633,-8.55827 7.85626,0.98157 5.23247,2.31026 -6.23132,3.15554 -10.24846,0.75568 -23.62113,4.35102 -37.86501,10.18028 -14.75279,6.03754 -36.60136,14.06568 -40.28444,14.8023 -2.04365,0.40873 -3.21556,0.2468 -3.21556,-0.44431 z m 587,-0.54185 c -1.925,-0.71032 -10.025,-3.67631 -18,-6.59109 -7.975,-2.91477 -16.075,-6.08882 -18,-7.05343 -8.1877,-4.10285 -26.5992,-9.12691 -36.8575,-10.05755 -13.3672,-1.21267 -15.8213,-2.47259 -6.7158,-3.44771 14.1601,-1.51642 20.8765,0.30779 69.0733,18.76057 13.5019,5.16938 21.0967,9.85869 15.75,9.72459 -0.9625,-0.0241 -3.325,-0.62507 -5.25,-1.33538 z m -686.75,-22.14616 c -2.99668,-3.20059 -2.84283,-4.72978 0.90532,-8.99869 3.23214,-3.6812 5.78318,-5.232 18.84468,-11.45578 4.125,-1.96556 14.025,-7.01836 22,-11.22844 7.975,-4.21008 16.75,-8.20046 19.5,-8.86751 2.75,-0.66704 5.45,-1.5431 6,-1.94678 2.67423,-1.96281 37.46472,-8.97563 52,-10.48179 21.66932,-2.2454 20.55987,-1.94622 19.8771,-5.36007 -0.45945,-2.29724 -0.0247,-3.26755 2.27432,-5.07595 2.56503,-2.01766 3.74519,-2.2028 12.09624,-1.89768 5.08964,0.18597 9.25354,0.0906 9.25311,-0.21188 -0.002,-1.17931 -2.48768,-2.95 -4.14175,-2.95 -2.332,0 -3.45775,-2.00667 -1.73714,-3.09649 0.75797,-0.48009 2.72812,-0.88667 4.37812,-0.90351 2.30742,-0.0236 2.65371,-0.25442 1.5,-1 -1.94644,-1.25789 -8.32318,-1.22229 -13.96575,0.078 -4.36335,1.00547 -5.09286,0.8702 -11.03425,-2.04598 -0.825,-0.40493 -1.6438,-1.70278 -1.81955,-2.88411 -0.39946,-2.68499 -2.08109,-2.70049 -13.18045,-0.12152 -4.675,1.08625 -13.50682,3.05935 -19.62626,4.38466 -12.86469,2.78615 -15.4892,3.97455 -22.47014,10.17461 -11.75354,10.43881 -16.26673,6.16335 -5.24934,-4.97282 6.5868,-6.65781 10.28785,-7.88897 48.84574,-16.24864 3.85,-0.83471 8.69788,-1.25114 10.77306,-0.9254 2.07519,0.32574 6.57519,0.14811 10,-0.39474 3.42482,-0.54284 13.87694,-1.69214 23.22694,-2.55398 21.52907,-1.98447 31.22711,-1.32551 47,3.19352 23.8289,6.8271 45.6111,10.50593 63.3268,10.69534 l 11.3268,0.1211 3.5508,3.87455 c 3.3882,3.6971 3.5266,4.13217 3.0229,9.5 -0.8767,9.34149 -4.3356,16.87894 -10.8724,23.69256 -4.3194,4.50224 -5.5299,6.35793 -4.6931,7.19465 0.8367,0.83671 0.3809,1.27854 -1.7672,1.71301 -1.592,0.32201 -5.8515,1.47192 -9.4655,2.55535 -7.7378,2.31968 -12.9978,2.50127 -16.7288,0.57753 -1.4851,-0.7658 -7.8753,-2.74448 -14.2003,-4.39708 -6.325,-1.65259 -17.8189,-5.30345 -25.54205,-8.11302 -17.01683,-6.19053 -31.51305,-9.59987 -49.45795,-11.63196 -7.425,-0.84081 -15.61002,-2.04258 -18.18893,-2.67059 -3.83259,-0.9333 -6.4807,-0.81617 -14.5,0.64137 -5.39609,0.98077 -15.69448,2.8093 -22.88532,4.06342 -7.19084,1.25411 -14.84084,3.16635 -17,4.24942 -2.15916,1.08307 -7.30075,2.7693 -11.42575,3.74718 -9.57197,2.26914 -10.21696,2.62892 -12.55539,7.00346 -1.51842,2.84055 -4.5746,5.19839 -13.94461,10.75828 -15.93054,9.4527 -46.25087,24.75749 -48.89491,24.68067 -1.1578,-0.0336 -3.11759,-1.14256 -4.35509,-2.46427 z m 268.3993,-43.02615 c 5.6757,-3.303 9.3988,-7.47281 11.5404,-12.92487 1.3655,-3.47633 1.5005,-4.67883 0.5565,-4.95868 -10.3332,-3.06333 -27.4929,-4.85371 -45.1502,-4.71083 -8.1972,0.0663 -15.1019,0.3185 -15.3438,0.56038 -0.81704,0.81709 7.1735,2.61091 22.7478,5.1067 20.1076,3.22225 19.5349,3.06456 22.4168,6.17255 2.7471,2.9627 2.5483,3.9889 -1.037,5.35203 -1.9308,0.73409 -2.3028,1.41283 -1.8228,3.32551 0.4498,1.792 0.011,2.8408 -1.7269,4.12391 l -2.3301,1.72073 3,-0.67634 c 1.65,-0.37198 4.8672,-1.76297 7.1493,-3.09109 z m -67.42257,-16.00848 c 0.30803,-0.30803 -0.0797,-1.84256 -0.86171,-3.41006 -1.55129,-3.10963 -2.55515,-3.35028 -18.86502,-4.52229 -7.08172,-0.50889 -7.79161,-0.40939 -6.18453,0.86688 0.99851,0.79297 5.49851,2.3931 10,3.55585 4.50149,1.16275 9.53453,2.50816 11.18453,2.9898 3.96729,1.15806 4.07648,1.17007 4.72673,0.51982 z m 568.77329,52.8738 c -9.075,-4.67006 -20.1,-10.62753 -24.5,-13.23881 -4.4,-2.61128 -9.9212,-5.80912 -12.2692,-7.1063 -2.6075,-1.4405 -5.24902,-4.03033 -6.78642,-6.65364 -1.6644,-2.84019 -3.4363,-4.5081 -5.2307,-4.92386 -7.3938,-1.71308 -16.1784,-4.38608 -20.2621,-6.16541 -2.5016,-1.08999 -6.5516,-2.28656 -9,-2.65906 -2.4484,-0.37249 -11.8254,-2.04444 -20.8379,-3.71545 -9.0125,-1.67101 -17.7875,-2.80325 -19.5,-2.5161 -1.7125,0.28715 -10.3137,1.46873 -19.1137,2.62572 -20.3865,2.68034 -36.2834,6.24446 -47.8608,10.73048 -11.827,4.58271 -18.8782,6.81224 -31.0146,9.80656 -5.4315,1.34006 -10.9282,3.12624 -12.2148,3.9693 -3.1546,2.06691 -9.7388,1.87947 -16.4098,-0.46717 -3.025,-1.06409 -6.85,-1.95629 -8.5,-1.98267 -3.9975,-0.0639 -6.3325,-1.48388 -3.946,-2.39968 1.4238,-0.54638 0.6879,-1.73822 -4.2539,-6.88916 -6.6995,-6.98302 -10.1432,-14.4322 -11.0274,-23.85394 -0.5037,-5.36794 -0.3653,-5.80283 3.0232,-9.5 l 3.5511,-3.87455 10.3265,-0.0972 c 17.9843,-0.1693 41.8412,-4.09721 62.8043,-10.34041 16.0358,-4.77575 26.5153,-5.56714 47.7647,-3.60714 9.7666,0.90086 20.5596,2.07393 23.9844,2.60684 3.4249,0.53291 7.9249,0.69896 10,0.369 4.2208,-0.6711 42.811,7.33368 49.7731,10.32445 4.8376,2.07813 12.9159,9.36722 14.9907,13.52622 1.8981,3.80484 1.911,3.71825 -0.5564,3.71825 -2.8625,0 -5.7356,-1.6464 -10.5699,-6.05713 -5.8353,-5.32394 -8.6636,-6.56014 -21.5169,-9.40457 -6.2411,-1.38117 -15.3747,-3.41731 -20.2968,-4.52476 -11.2716,-2.53602 -12.3355,-2.5248 -12.7311,0.13433 -0.1758,1.18133 -0.9946,2.47918 -1.8196,2.88411 -5.8437,2.86826 -6.625,2.99942 -11.8865,1.99564 -6.8373,-1.30441 -12.8169,-1.31654 -13.6135,-0.0276 -0.3485,0.56387 0.4624,1 1.8592,1 3.1021,0 5.6408,0.94223 5.6408,2.09357 0,0.48377 -1.575,1.53767 -3.5,2.34198 -1.925,0.80432 -3.5003,1.82286 -3.5008,2.26342 -4e-4,0.44057 4.1635,0.64888 9.2531,0.46291 8.3511,-0.30512 9.5312,-0.11998 12.0963,1.89768 2.3169,1.82247 2.7355,2.77011 2.2643,5.12617 -0.3721,1.86034 -0.1389,3.01531 0.6545,3.24093 0.6779,0.1928 9.1076,1.11348 18.7326,2.04596 9.625,0.93247 20.875,2.53802 25,3.56788 4.125,1.02986 11.775,2.86513 17,4.0784 5.225,1.21326 10.175,2.53393 11,2.93482 0.825,0.40089 3.97502,1.44621 7.00002,2.32292 3.025,0.87672 7.975,2.95953 11,4.62847 3.025,1.66894 13.8659,7.25202 24.0909,12.40684 22.4034,11.29442 22.0021,11.05056 24.7264,15.02639 2.6007,3.79548 2.8183,6.56166 0.516,6.56166 -0.9166,0 -1.3881,0.27857 -1.0476,0.61905 1.0812,1.08116 -2.0511,3.38481 -4.4643,3.28334 -1.2768,-0.0537 -9.7464,-3.91858 -18.8214,-8.58865 z M 802.64508,661.90051 c -1.7217,-1.2059 -2.1504,-2.21911 -1.6994,-4.01598 0.48,-1.91268 0.108,-2.59142 -1.8228,-3.32551 -3.39,-1.28889 -3.7069,-2.22039 -1.6285,-4.78718 2.5615,-3.16322 4.9824,-3.8761 22.7328,-6.69414 8.6765,-1.37747 17.5755,-3.07138 19.7755,-3.76425 3.9133,-1.23244 3.7724,-1.27348 -6.5,-1.8933 -13.9927,-0.8443 -46.7074,2.20234 -51.2285,4.7708 -0.4007,0.22763 0.1,2.59441 1.1126,5.2595 2.1209,5.58165 6.5109,9.96774 13.5622,13.55 5.6611,2.87598 9.3491,3.45874 5.6961,0.90006 z m 75.5421,-21.3448 c 4.5015,-1.22439 9.0015,-2.87495 10,-3.66792 1.6071,-1.27627 0.8972,-1.37577 -6.1845,-0.86688 -16.5009,1.18574 -17.2995,1.38418 -18.9592,4.71099 l -1.5159,3.03871 4.2376,-0.49437 c 2.3306,-0.2719 7.9205,-1.49614 12.422,-2.72053 z m -564.6845,12.61413 c 0,-1.06157 5.37247,-3.43029 11.27787,-4.9724 7.10982,-1.85663 7.4203,-0.66094 0.59122,2.27685 -5.27924,2.27107 -11.86909,3.76767 -11.86909,2.69555 z m 695.55742,-2.03594 c -3.2684,-1.25192 -6.1423,-2.87541 -6.3865,-3.60775 -0.2708,-0.81243 0.097,-1.12738 0.9427,-0.80789 0.7625,0.28801 3.8614,1.2399 6.8864,2.11531 3.025,0.87542 6.4,2.27218 7.5,3.10391 1.9565,1.47937 1.9457,1.5118 -0.5,1.49244 -1.375,-0.0109 -5.1742,-1.04409 -8.4426,-2.29602 z m -637.55742,-2.28567 c 0,-3.1544 2.91261,-4.62529 10.58438,-5.34519 4.35359,-0.40852 9.21553,-1.26093 10.80431,-1.89423 1.58878,-0.63329 3.12352,-0.91662 3.41053,-0.6296 0.76763,0.76763 -2.88938,4.52937 -5.9337,6.10365 -3.22598,1.66822 -18.86552,3.13171 -18.86552,1.76537 z m 578,-10e-4 c -5.5356,-0.87191 -6.973,-1.44027 -9.9256,-3.92472 -4.0168,-3.37994 -3.0757,-4.6737 2.0773,-2.85563 2.2549,0.79557 6.3362,1.44649 9.0697,1.44649 5.197,0 10.7786,2.44196 10.7786,4.71561 0,1.26201 -5.9625,1.56921 -12,0.61825 z M 51.161458,555.76332 c -1.60834,-12.75636 -2.84859,-41.43924 -2.41064,-55.75 0.70908,-23.17059 5.4363,-41.74621 19.72259,-77.5 3.40637,-8.525 10.84893,-29.24857 16.53902,-46.05238 14.82271,-43.77394 22.314962,-62.0899 32.892222,-80.41003 5.89823,-10.21591 10.81527,-17.11651 13.73922,-19.28171 0.92405,-0.68426 3.25851,-4.05926 5.18768,-7.5 7.00141,-12.48725 23.21527,-35.56895 36.54362,-52.02271 19.21568,-23.72161 19.02027,-23.46008 31.18228,-41.73317 6.04005,-9.075 12.71969,-18.44727 14.84365,-20.82726 2.12396,-2.37999 7.36125,-10.47999 11.63842,-18 11.15678,-19.61553 14.38189,-24.03987 23.67665,-32.48056 17.53345,-15.922349 33.93672,-27.951859 45.89226,-33.655559 5.36731,-2.56062 8.42424,-5.10429 16.30558,-13.56785 14.81605,-15.91058 26.82318,-22.84979 56.92911,-32.90068 9.18628,-3.06685 22.4302,-8.3108 29.43094,-11.65324 19.84046,-9.4726302 21.74696,-10.1216402 26.20589,-8.9209702 3.97113,1.06931 5.02273,2.46238 5.02273,6.6536502 0,4.11119 -1.70908,6.09189 -8.56452,9.92568 -3.59638,2.01121 -6.30435,3.89125 -6.01772,4.17788 0.28662,0.28663 3.34739,-0.0233 6.80169,-0.68881 5.86393,-1.12969 11.56305,-4.06917 16.28055,-8.39714 3.46986,-3.18336 6.67476,-4.37252 19,-7.0499002 31.1513,-6.76689 59.6727,-9.34158 84.2008,-7.60098996 9.157,0.64980996 21.4079,0.88640996 27.2242,0.52577996 10.8978,-0.67571996 23.0949,-0.0372 64.7373,3.38884 24.945,2.05232 24.7097,2.00358 43.3377,8.9775902 4.675,1.75024 12.4739,4.07147 17.3309,5.15827 10.6833,2.39052 14.7184,3.9984 17.484,6.96694 1.9366,2.07872 2.6595,2.20053 9.3916,1.58241 4.0114,-0.36832 13.5186,-1.74475 21.127,-3.05874 13.2763,-2.29284 17.74,-3.55534 12.5703,-3.55534 -4.6304,0 -52.4121,-4.05693 -54.1683,-4.59918 -0.9705,-0.29965 -1.5444,-0.90108 -1.2752,-1.33651 0.5541,-0.8966 -7.4678,-2.02152 -14.9603,-2.09789 l -5,-0.051 6,-2.5003002 c 15.7885,-6.57934 26.5382,-7.54308 59.9732,-5.37676 8.8148,0.57113 37.4018,1.42382 63.5268,1.89489 53.3991,0.96285 52.6754,0.86599 67.5769,9.0443902 5.8211,3.19477 10.6529,4.84118 20.7552,7.07223 17.9479,3.96368 26.5933,6.4584 36.2859,10.47066 14.2501,5.89882 29.4861,16.35415 32.4312,22.25504 0.7478,1.49841 2.2445,3.73512 3.3259,4.97045 2.7165,3.10325 1.4615,3.80583 -3.3556,1.87844 -2.2348,-0.89422 -6.1389,-2.09101 -8.6758,-2.65952 -2.5368,-0.56851 -7.7792,-2.8832 -11.6498,-5.14375 -16.5187,-9.64744 -37.6126,-17.04531 -42.9055,-15.04745 -1.522,0.57448 -3.672,0.80791 -4.7778,0.51873 -1.1865,-0.31028 -2.0106,-0.0355 -2.0106,0.67031 0,1.81704 -5.608,0.32557 -12,-3.19145 -11.0665,-6.08901 -13.4033,-6.93726 -30.2959,-10.99743 l -17.2041,-4.13503 -24.8652,-0.41034 c -26.0588,-0.43003 -25.4954,-0.52166 -22.2729,3.62231 1.4132,1.81737 1.6889,4.14912 0.4906,4.14912 -0.5338,0 -0.7147,0.41397 -0.402,0.91993 0.3127,0.50595 -0.5688,1.81456 -1.9589,2.90801 -1.953,1.53621 -4.7395,2.13524 -12.2595,2.63545 -5.3527,0.35604 -18.2821,2.07274 -28.7321,3.81489 -17.0439,2.84145 -21.162,3.17034 -40,3.19463 -23.5049,0.0303 -26.6407,-0.5404 -46.8937,-8.5349 -5.5585,-2.19409 -11.8324,-4.26641 -13.942,-4.60514 -2.1096,-0.33874 -4.0704,-1.2275 -4.3572,-1.97502 -0.2869,-0.74752 -2.6108,-2.32459 -5.1643,-3.5046 -6.0699,-2.80495 -35.2169,-5.70226 -58.2476,-5.78999 -9.1326,-0.0348 -22.4076,-0.60691 -29.5,-1.27137 -7.0924,-0.66446 -18.0702,-1.1401 -24.3952,-1.05698 -13.0393,0.17135 -31.2168,2.10531 -30.5117,3.24624 0.7267,1.17569 -7.4588,3.38278 -40.9883,11.05191 -51.2715,11.72721 -59.5731,14.44717 -76.11759,24.93938 -2.60454,1.65175 -6.34358,3.26825 -8.30897,3.59222 -1.96539,0.32397 -5.95211,1.51328 -8.85938,2.64292 -5.98477,2.32541 -7.51164,1.82947 -4.4996,-1.46152 1.13062,-1.23533 2.36198,-3.25625 2.73636,-4.49092 0.37438,-1.23467 3.79301,-4.80526 7.59695,-7.93465 3.80395,-3.12938 6.71013,-5.89592 6.45819,-6.14786 -1.36267,-1.36267 -24.9695,9.31844 -33.42831,15.12492 -2.43229,1.66963 -11.65729,10.31386 -20.5,19.2094 -8.84271,8.89554 -20.90487,19.87189 -26.8048,24.391899 -10.20197,7.81589 -12.73877,10.10119 -11.21281,10.10119 0.37294,0 7.72627,-4.22059 16.34075,-9.3791 18.82156,-11.270689 28.88582,-16.387259 39.7263,-20.196439 7.2626,-2.55197 8.25442,-3.20788 9.32418,-6.16623 1.75587,-4.8558 13.68342,-10.58352 31.04873,-14.90991 22.94522,-5.71656 64.55272,-13.37262 95,-17.48064 5.225,-0.70496 17.825,-1.27503 28,-1.26681 18.5086,0.0149 25.7719,0.94896 36.5,4.69369 3.8385,1.33984 4.0125,1.58962 4.3103,6.18522 l 0.3103,4.78899 -8.3103,-0.88439 c -15.6635,-1.66692 -49.83869,-0.8893 -65.8103,1.49743 -41.74133,6.23767 -88.40217,15.74799 -99.28677,20.23645 -3.94087,1.62508 -11.90102,4.32709 -17.68922,6.00447 -15.26843,4.42468 -21.79859,7.83431 -28.65986,14.96431 -6.67545,6.936899 -19.00641,15.392049 -37.86415,25.962849 -32.8602,18.41994 -37.27311,21.5937 -43.03417,30.95011 -5.51732,8.96058 -16.5589,23.71559 -25.26375,33.7603 -5.78563,6.67616 -9.32204,11.69673 -10.12368,14.37235 -0.6776,2.26163 -3.25584,7.98112 -5.72942,12.70999 -5.46118,10.44038 -9.17948,24.2934 -12.79175,47.65736 -3.43554,22.22086 -7.77191,40.50188 -12.69053,53.5 -2.18531,5.775 -6.84712,21.83292 -10.35956,35.68426 -3.74749,14.77827 -7.59722,27.62499 -9.31701,31.09124 -1.61192,3.24884 -4.62012,11.71592 -6.68491,18.81574 -2.06478,7.09982 -4.86077,15.99253 -6.21331,19.76159 -1.35254,3.76905 -3.28361,10.96905 -4.29125,16 -1.00764,5.03094 -1.85041,8.02217 -1.87282,6.64717 -0.0224,-1.375 0.37448,-4.525 0.88198,-7 0.50749,-2.475 1.39534,-10.8 1.973,-18.5 0.57766,-7.7 2.14362,-21.41172 3.47992,-30.47048 1.3363,-9.05876 2.27214,-16.62797 2.07965,-16.82047 -0.1925,-0.19249 -1.83662,2.43921 -3.65361,5.84823 -4.04582,7.59075 -4.91556,6.50037 -1.29928,-1.62888 8.14623,-18.31239 11.12926,-28.42024 19.89953,-67.4284 2.53498,-11.275 7.54934,-32.31294 11.14302,-46.75098 3.59368,-14.43804 6.36181,-26.76744 6.1514,-27.39866 -0.47737,-1.43211 -8.99992,9.8346 -20.64963,27.29855 -9.41866,14.11942 -12.50228,19.15257 -20.12664,32.85109 -2.60203,4.675 -7.21241,11.95717 -10.24531,16.1826 -6.99172,9.74087 -12.76187,20.02657 -12.76187,22.74894 0,1.70814 -0.44176,1.99569 -2.33568,1.52035 -2.20145,-0.55253 -2.48365,-0.0508 -4.91072,8.73094 -8.415812,30.45058 -18.967852,63.04479 -27.354882,84.49655 -8.10343,20.72639 -13.19627,36.81721 -16.39288,51.79327 -1.71075,8.01483 -3.74703,16.37666 -4.52507,18.58186 -1.71059,4.84832 -3.09033,15.58036 -4.49268,34.94549 -1.46251,20.19581 -2.12964,26 -2.98843,26 -0.4081,0 -1.0115,-2.1375 -1.34088,-4.75 z m 1229.101342,4.14833 c -0.7433,-1.17854 -2.0587,-14.24225 -3.7201,-36.94272 -0.5657,-7.72993 -1.9427,-17.39648 -3.0626,-21.5 -1.1192,-4.10058 -3.373,-13.53061 -5.0084,-20.95561 -2.5068,-11.38079 -5.09,-20.81968 -7.663,-28 -0.5423,-1.51325 -6.2966,9.21404 -6.3029,11.75 -0.01,3.03648 -1.9874,0.80309 -3.5458,-4 -0.9369,-2.8875 -2.5039,-6.6 -3.4821,-8.25 -1.5447,-2.6054 -4.7649,-13.12327 -9.4911,-31 -2.4615,-9.31067 -5.3447,-25.92158 -7.8975,-45.5 -3.4778,-26.67257 -8.6924,-45.52757 -22.2469,-80.4416 -6.0503,-15.58434 -6.5144,-19.10373 -1.716,-13.01196 8.2265,10.44397 18.6805,31.21104 29.4251,58.45356 5.2947,13.42437 6.3699,17.30781 8.0292,29 2.2794,16.06139 2.2774,16.05495 4.9711,15.74417 1.8651,-0.21517 2.6862,1.35916 6.9141,13.25583 2.6387,7.425 7.729,20.925 11.3117,30 12.7776,32.36589 16.7596,48.70912 17.4776,71.73345 0.6713,21.52331 -2.0835,62.69194 -3.9924,59.66488 z m -86.5652,-114.89833 c 0.02,-1.65 0.2445,-2.20394 0.4981,-1.23097 0.2535,0.97297 0.2369,2.32297 -0.037,3 -0.2739,0.67703 -0.4813,-0.11903 -0.461,-1.76903 z M 485.00268,226.42483 c -12.63652,-1.29912 -14.19595,-1.76146 -16.93972,-5.02224 -3.15543,-3.75001 -3.25062,-6.54984 -0.31028,-9.12602 1.97031,-1.72629 3.18229,-1.89454 9.75,-1.35353 16.5342,1.36199 62.1989,1.7771 79.0701,0.71879 21.7886,-1.36678 30.7544,-3.01901 47.9299,-8.83256 12.2837,-4.15778 20.9496,-5.67969 22.6513,-3.97803 0.3581,0.35819 -1.4419,2.88892 -4,5.62383 -2.5582,2.73491 -4.6513,5.43537 -4.6513,6.00101 0,1.4273 -9.9683,6.29077 -19.2478,9.39093 -10.6737,3.56589 -21.6978,5.51744 -37.6774,6.6698 -15.9499,1.15023 -65.0657,1.09123 -76.5748,-0.092 z m 283,0.0152 c -12.7346,-1.15261 -23.8668,-3.30077 -34,-6.56093 -8.6644,-2.7876 -19.5,-8.09312 -19.5,-9.54798 0,-0.49693 -2.0931,-3.14117 -4.6513,-5.87608 -2.5581,-2.73491 -4.3581,-5.26564 -4,-5.62383 1.7138,-1.71374 10.3514,-0.20203 22.6513,3.96432 7.425,2.51507 17.325,5.28242 22,6.14966 18.7415,3.47664 65.6259,4.65961 96.2064,2.42743 14.1862,-1.0355 15.9526,-0.98515 18.25,0.52016 5.8739,3.84873 0.8751,11.96345 -8.4564,13.72758 -7.1736,1.35618 -75.5732,1.98968 -88.5,0.81967 z m -159,-38.88006 c -9.0004,-1.0559 -17.4603,-3.53156 -24.9989,-7.31562 -10.5234,-5.2822 -10.5675,-5.32798 -8.9233,-9.26298 0.7822,-1.87212 1.4222,-4.5433 1.4222,-5.93596 0,-1.39267 0.46,-2.53212 1.0222,-2.53212 0.5622,0 4.6296,1.81377 9.0386,4.03059 12.0799,6.07366 16.6883,6.92112 39.4541,7.25546 10.9978,0.16151 20.5527,0.63768 21.233,1.05816 0.6804,0.42047 3.9198,1.19655 7.1988,1.72462 7.489,1.20606 13.8844,-0.11576 20.2224,-4.17966 l 4.669,-2.9938 5.831,1.6662 c 4.0592,1.15993 11.3383,1.81609 23.9563,2.15949 21.1542,0.57572 23.9469,0.0209 39.7085,-7.88862 13.4519,-6.75047 24.0515,-7.77281 22.2661,-2.14757 -1.3295,4.18894 -8.857,10.13479 -19.8547,15.68296 -14.8804,7.50695 -21.675,8.93735 -42.7453,8.99878 -14.5443,0.0424 -17.8622,-0.27279 -27.9932,-2.65925 -6.3213,-1.48902 -12.6295,-2.70733 -14.0183,-2.70733 -1.3887,0 -7.4668,1.14263 -13.5067,2.53918 -12.1967,2.82008 -31.7937,3.93736 -43.9818,2.5075 z"
     id="path19837" />
</svg>
