<?xml version="1.0" encoding="UTF-8" standalone="no"?>
<svg
   xmlns:dc="http://purl.org/dc/elements/1.1/"
   xmlns:cc="http://creativecommons.org/ns#"
   xmlns:rdf="http://www.w3.org/1999/02/22-rdf-syntax-ns#"
   xmlns:svg="http://www.w3.org/2000/svg"
   xmlns="http://www.w3.org/2000/svg"
   version="1.1"
   id="svg18659"
   width="1896.5825"
   height="1045.1379"
   viewBox="0 0 1896.5825 1045.1379">
  <metadata
     id="metadata18665">
    <rdf:RDF>
      <cc:Work
         rdf:about="">
        <dc:format>image/svg+xml</dc:format>
        <dc:type
           rdf:resource="http://purl.org/dc/dcmitype/StillImage" />
        <dc:title></dc:title>
      </cc:Work>
    </rdf:RDF>
  </metadata>
  <defs
     id="defs18663" />
  <path
     style="fill:#000000"
     d="m 1534.5,1044.1416 c -2.2,-0.5076 -12.4365,-1.5487 -22.7478,-2.3136 -10.3113,-0.765 -21.1113,-1.8444 -24,-2.3988 -2.8887,-0.5543 -8.4022,-1.2976 -12.2522,-1.6517 -9.0032,-0.8279 -22.1127,-3.7622 -31,-6.9388 -3.85,-1.3761 -8.0422,-2.5115 -9.316,-2.5231 -1.2738,-0.012 -6.4488,-0.9777 -11.5,-2.1469 -6.7898,-1.5716 -14.2226,-4.5662 -28.5122,-11.4875 -10.6305,-5.149 -20.6276,-10.2871 -22.2158,-11.418 -1.5882,-1.1309 -5.0794,-2.7071 -7.7582,-3.50259 -2.6788,-0.7955 -6.8047,-2.9133 -9.1687,-4.7062 -2.364,-1.793 -8.2245,-6.1849 -13.0232,-9.7599 -4.7988,-3.575 -11.0015,-8.2033 -13.7838,-10.2851 -2.7822,-2.0818 -6.4506,-5.9542 -8.1518,-8.6053 -1.7012,-2.6512 -4.0443,-5.6729 -5.2068,-6.715 -1.1625,-1.042 -4.3001,-5.1261 -6.9725,-9.0757 -2.6724,-3.9496 -5.2902,-7.4476 -5.8174,-7.7734 -0.8488,-0.5246 -3.5518,-4.9614 -15.462,-25.3799 -1.7114,-2.9339 -6.3624,-9.6452 -10.3357,-14.9139 -4.2178,-5.593 -7.9106,-11.6961 -8.8738,-14.6656 -0.9074,-2.7974 -4.0708,-8.7971 -7.0299,-13.3328 -4.4617,-6.839 -6.1903,-8.6247 -10.1262,-10.4606 -2.6103,-1.2176 -7.5514,-4.5829 -10.9801,-7.4784 -8.0105,-6.7646 -13.924,-9.7123 -25.5377,-12.7298 -25.7196,-6.6825 -63.2772,-4.1283 -79.4294,5.4017 -8.4391,4.9792 -42.8991,32.0099 -45.0329,35.3241 -1.2896,2.0031 -17.299,12.1083 -25.7659,16.2636 l -8,3.9261 -17.0466,0.3121 c -15.357,0.2811 -17.6059,0.1028 -22.6897,-1.7993 -6.7956,-2.5426 -10.8199,-6.8038 -15.0455,-15.9314 -2.636,-5.6938 -3.1065,-8.0147 -3.489,-17.2093 -0.4847,-11.6527 0.4016,-16.1492 5.9452,-30.1608 1.6949,-4.2837 2.9115,-7.9472 2.7036,-8.1409 -0.5423,-0.5054 -50.3735,7.8582 -71.878,12.064 -12.085,2.3635 -22.4501,4.1769 -39.5,6.9105 -20.7194,3.3221 -66.6326,12.3398 -91.7378,18.0181 -10.8559,2.4554 -24.5809,4.8644 -30.5,5.3533 -5.9192,0.4889 -12.1122,1.4266 -13.7622,2.0837 -1.65,0.6571 -7.89438,1.5989 -13.8764,2.0929 -5.98202,0.4939 -12.63137,1.3706 -14.77633,1.9482 -2.14496,0.5776 -10.03624,1.2494 -17.53617,1.493 l -13.63624,0.4428 -6.33252,4.1258 c -9.82797,6.4032 -17.50112,9.1056 -27.33967,9.6287 -8.58867,0.4566 -16.33984,-1.3814 -15.74874,-3.7346 0.16014,-0.6375 -87.70035,-0.9799 -251.61274,-0.9805 -138.52234,-5e-4 -259.51133,-0.3017 -268.86441,-0.6694 -16.0531,-0.6311 -17.16723,-0.8046 -19.89119,-3.0966 L 107,885.11671 v 3.4884 c 0,2.3612 -1.17295,5.2174 -3.62983,8.8389 -1.99641,2.9428 -4.8585,8.0647 -6.36021,11.3821 -4.1885,9.2528 -18.96925,21.5172 -29.47796,24.4594 -6.31583,1.7684 -19.93422,0.6338 -28.61063,-2.3836 -8.29439,-2.8845 -14.05231,-7.4842 -23.0785,-18.4364 C 6.17002,900.72871 0,887.66881 0,878.93141 c 0,-8.8862 9.52956,-22.401 21.6994,-30.7741 10.95527,-7.5374 30.59808,-15.1221 47.12917,-18.1981 11.44473,-2.1295 18.65036,-5.8061 32.67143,-16.6702 13.96151,-10.8178 18.87879,-15.2918 21.57182,-19.6268 1.98756,-3.1995 7.02649,-6.043 8.78391,-4.9569 0.53704,0.3319 2.2314,0.1264 3.76524,-0.4568 6.44145,-2.449 38.54344,-5.2224 63.87903,-5.5186 27.45657,-0.3211 73.13889,-3.0421 73.98228,-4.4067 0.23517,-0.3805 -2.13964,-1.4751 -5.27735,-2.4324 -3.13771,-0.9572 -9.52993,-3.4542 -14.20493,-5.5487 -4.675,-2.0945 -12.55,-5.157 -17.5,-6.8055 -4.95,-1.6486 -11.475,-4.0129 -14.5,-5.2541 -3.025,-1.2411 -10.225,-4.1991 -16,-6.5733 -9.00461,-3.7019 -32.9686,-15.5201 -52,-25.6448 -3.025,-1.6092 -6.62903,-4.1283 -8.00895,-5.5979 -2.47424,-2.635 -4.99105,-9.9711 -4.99105,-14.548 0,-2.9337 5.13539,-14.3685 9.55754,-21.2814 1.83676,-2.8713 4.24615,-6.9976 5.3542,-9.1696 2.87798,-5.6413 16.55638,-21.6089 24.68217,-28.813 13.48242,-11.953 35.34006,-24.3366 49.23815,-27.896 7.07132,-1.811 11.02363,-1.7131 36.66794,0.9086 18.76226,1.9181 30.6535,3.9021 37.5,6.2566 21.3029,7.3259 30.60782,10.2977 34.07941,10.8842 5.97989,1.0103 36.05245,12.5145 46.43515,17.7637 13.31737,6.7328 20.50406,9.5212 27.40417,10.6324 7.50223,1.2082 23.73837,6.3365 30.58127,9.6592 7.52384,3.6534 23.11248,9.3582 31,11.3446 7.75402,1.9528 24.82295,8.1942 30.94613,11.3158 4.10688,2.0936 25.28585,9.4311 36.55387,12.6641 3.575,1.0257 11.675,3.7738 18,6.1069 20.26754,7.4759 39.08212,13.7618 55.38705,18.5046 19.20402,5.586 23.09891,7.0468 27.53278,10.3265 l 3.41982,2.5296 12.08018,-6.3145 c 6.64409,-3.473 17.70517,-9.213 24.58017,-12.7555 6.875,-3.5426 15.65,-8.1528 19.5,-10.2449 3.85,-2.0922 10.2669,-5.1902 14.25977,-6.8845 3.99287,-1.6943 11.64287,-5.9458 17,-9.4478 5.35713,-3.5019 14.24023,-8.7788 19.74023,-11.7263 5.5,-2.9475 14.5,-7.8019 20,-10.7876 5.5,-2.9857 17.875,-9.4904 27.5,-14.455 9.625,-4.9645 20.425,-10.9102 24,-13.2127 6.7159,-4.3253 24.9783,-14.0985 44.969,-24.0653 6.3079,-3.145 13.2829,-6.865 15.5,-8.2668 2.217,-1.4019 7.5822,-4.3041 11.9226,-6.4494 4.3403,-2.1453 10.8653,-5.7357 14.5,-7.9786 3.6346,-2.243 10.8834,-6.5249 16.1084,-9.5153 5.225,-2.9905 11.75,-7.0567 14.5,-9.0361 2.75,-1.9794 10.85,-6.4778 18,-9.9964 12.8151,-6.3065 24.206,-12.8008 50.2606,-28.655 22.634,-13.7729 55.1587,-32.0827 67.7012,-38.1126 6.3443,-3.0501 10.5285,-5.8811 14.0382,-9.4986 2.75,-2.8344 5.7932,-5.5783 6.7627,-6.0977 1.3683,-0.7329 1.5361,-1.3676 0.75,-2.8364 -0.557,-1.0408 -1.0127,-3.1072 -1.0127,-4.592 0,-1.4849 -0.5266,-4.4573 -1.1701,-6.6054 -0.9695,-3.2356 -0.8763,-4.8379 0.543,-9.3404 0.9422,-2.9892 2.7555,-6.6839 4.0294,-8.2104 1.274,-1.5266 3.0948,-4.2934 4.0462,-6.1484 1.6697,-3.2554 1.6525,-3.5862 -0.4923,-9.5 -2.4221,-6.6782 -13.1284,-23.6265 -17.4522,-27.6272 -2.7022,-2.5002 -6.581,-9.2912 -7.9965,-14 -0.4133,-1.375 -2.3162,-4.4302 -4.2287,-6.7894 -1.9125,-2.3592 -6.3999,-10.0092 -9.9719,-17 -3.572,-6.9908 -7.9699,-15.1856 -9.7732,-18.2106 -6.8106,-11.425 -21.3033,-46.08209 -29.0631,-69.5 -5.1149,-15.43588 -8.8012,-41.7515 -8.8951,-63.5 -0.1121,-25.98041 3.6161,-59.28628 7.8358,-70 0.7581,-1.925 3.9008,-8.78395 6.9836,-15.24211 3.0828,-6.45816 5.6051,-12.14054 5.6051,-12.62751 0,-0.48696 2.6949,-4.10295 5.9886,-8.03553 3.2938,-3.93258 6.7251,-8.6002 7.6253,-10.37249 8.138,-16.02209 20.9054,-32.36307 40.7027,-52.0954 19.8206,-19.7555 30.127,-27.33732 53.3815,-39.26957 8.1411,-4.1773 15.9269,-8.61843 17.3019,-9.86918 3.1501,-2.8655002 14.778,-5.4401902 52,-11.5141302 3.025,-0.49361999 16.75,-0.98875999 30.5,-1.10030999 46.6765,-0.37868 52.6691,-0.22325 60.5381,1.57014999 4.1041,0.93533 12.009,2.52212 17.5667,3.5262 6.8452,1.2367 13.9915,3.47142 22.154,6.9277402 6.6271,2.80618 12.3887,5.10214 12.8035,5.10214 0.6905,0 6.9683,2.79079 25.9377,11.53067 3.85,1.77384 9.665,5.57499 12.9222,8.44702 3.2572,2.87202 7.5798,6.31881 9.6058,7.65952 2.0259,1.34072 5.9579,5.23332 8.7377,8.65023 2.7798,3.41691 8.1322,9.41504 11.8942,13.32919 8.3974,8.73688 15.8637,17.37635 19.8401,22.95755 1.65,2.3159 5.7951,8.0647 9.2113,12.77512 3.4162,4.71042 7.3907,10.89178 8.8321,13.73636 1.4415,2.84457 5.5711,9.49307 9.177,14.77443 3.6571,5.35641 7.5384,12.48494 8.7777,16.12119 1.2219,3.5853 3.1806,8.76872 4.3527,11.51872 1.9931,4.6766 4.3373,14.7102 7.599,32.52583 0.7579,4.13921 2.3164,10.3116 3.4634,13.71641 3.1701,9.41031 4.0453,17.89892 4.067,39.44441 0.016,16.26459 -0.3266,21.13174 -1.9732,28 -1.0961,4.57234 -1.9961,9.97156 -2,11.99825 0,2.0267 -0.4662,4.89274 -1.0275,6.36898 -0.5613,1.47624 -1.4617,5.79517 -2.001,9.59761 -0.5393,3.80244 -2.0748,9.51353 -3.4123,12.69131 -1.3375,3.17778 -2.6362,7.55594 -2.8858,9.72924 -0.3802,3.30924 -3.8596,11.08235 -6.682,14.92796 -0.4036,0.55 -3.0635,6.85 -5.9109,14 -5.3335,13.393 -10.3326,21.6247 -21.5593,35.5 -3.3376,4.125 -6.7921,8.625 -7.6767,10 -0.8846,1.375 -6.1864,7.3189 -11.7819,13.2087 -13.0364,13.7222 -24.6851,21.9592 -48.2366,34.1089 -5.6832,2.9318 -12.583,6.6932 -15.333,8.3588 -15.5881,9.4408 -23.2659,13.7 -34.5,19.1383 -6.875,3.3281 -19.025,9.9595 -27,14.7364 -7.975,4.7768 -21.475,12.2982 -30,16.7141 -8.525,4.4159 -23.2564,12.6863 -32.7365,18.3787 -27.7143,16.6413 -73.9397,39.3836 -80.0135,39.3657 -2.4563,-0.01 -4.2105,0.9509 -7.1831,3.9235 -2.1633,2.1633 -4.69,5.0883 -5.615,6.5 -0.9251,1.4118 -2.2481,2.5669 -2.9401,2.5669 -0.692,0 -6.2912,3.3937 -12.4426,7.5414 -6.1514,4.1478 -15.546,9.6944 -20.8768,12.3258 -10.368,5.1177 -20.3435,10.5513 -44.5021,24.2398 -8.3547,4.7338 -19.511,10.7084 -24.7917,13.2769 -5.2808,2.5685 -11.3558,6.1712 -13.5,8.0061 -2.1443,1.8349 -8.1736,5.6913 -13.3986,8.5696 -5.225,2.8784 -13.6303,8.3567 -18.6784,12.1739 -5.0481,3.8173 -12.4731,9.1009 -16.5,11.7413 -4.0269,2.6404 -10.2556,7.4613 -13.8417,10.713 -10.3312,9.3681 -16.9177,14.6926 -25.0023,20.2118 -7.3201,4.9974 -14.7796,11.7475 -13.9092,12.5865 0.2374,0.2288 3.5816,-0.1726 7.4316,-0.8921 9.5168,-1.7784 36.7211,-4.492 45.1407,-4.5027 3.7726,0 12.4843,-0.6733 19.3593,-1.4856 7.6336,-0.9019 16.1985,-1.2556 22,-0.9086 10.4534,0.6253 40.659,-2.1339 60.813,-5.5551 15.2041,-2.581 58.2561,-8.042 63.3989,-8.042 3.5862,0 4.9114,-0.8212 12.9089,-8 4.9018,-4.4 9.3773,-8 9.9455,-8 0.5682,0 2.3351,0.6733 3.9266,1.4963 1.7016,0.88 3.1339,1.1075 3.477,0.5524 0.7342,-1.1879 15.534,-5.7332 21.5301,-6.6123 8.2559,-1.2104 39.507,-8.3745 45.4493,-10.419 3.2251,-1.1096 7.0309,-2.0206 8.4573,-2.0245 1.4263,0 6.7176,-1.563 11.7583,-3.4645 5.0407,-1.9015 12.0157,-3.9151 15.5,-4.4746 8.3143,-1.3351 18.8351,-5.0848 18.8351,-6.7131 0,-0.7091 1.35,-1.9875 3,-2.8407 1.65,-0.8532 3,-1.9012 3,-2.3289 0,-1.0541 13.6228,-4.2206 43.5,-10.1111 26.1831,-5.1621 46.6679,-9.8449 57.3048,-13.0996 9.4422,-2.8892 36.5745,-9.0123 59.6952,-13.4718 4.95,-0.9548 14.4,-2.7882 21,-4.0742 6.6,-1.2861 14.475,-2.3591 17.5,-2.3844 3.025,-0.025 10.675,-0.7534 17,-1.6178 9.2157,-1.2595 16.7638,-1.448 38,-0.9489 30.3367,0.7129 38.175,1.5146 53.5,5.472 7.126,1.8402 14.874,3.0491 22,3.4326 6.05,0.3257 13.925,1.4361 17.5,2.4678 3.575,1.0316 9.2,2.2047 12.5,2.6068 3.3,0.4022 8.7,1.3605 12,2.1296 3.3,0.7691 8.312,1.405 11.1377,1.4131 6.7107,0.019 30.7388,4.7044 35.8623,6.9925 2.2,0.9826 9.625,3.6058 16.5,5.8295 6.875,2.2237 17.225,6.1462 23,8.7167 5.775,2.5705 17.25,7.5902 25.5,11.155 8.25,3.5648 15.675,7.0628 16.5,7.7734 0.825,0.7105 5.775,3.8745 11,7.031 11.8037,7.1309 24.9696,18.1968 30.3215,25.4851 2.234,3.0424 8.3631,10.3936 13.6202,16.3361 13.1298,14.8415 22.4651,31.258 24.5956,43.2523 0.3852,2.1688 1.9969,6.9436 3.5816,10.6108 3.8339,8.8726 3.9522,15.8522 0.3302,19.4742 -2.4633,2.4633 -2.5108,2.7441 -1.3824,8.1793 1.3045,6.2837 0.6274,17.4271 -1.5903,26.1738 -0.7677,3.0278 -2.8034,11.1301 -4.5238,18.0051 -2.5444,10.1678 -4.3334,14.718 -9.5883,24.3881 -6.5466,12.0468 -13.4895,22.6517 -18.4046,28.1119 -3.5105,3.8999 -14.6451,18.7539 -18.3696,24.506 -6.2202,9.6061 -13.0211,16.4806 -37.5877,37.994 -3.4543,3.025 -9.9304,8.1202 -14.3915,11.3227 -4.461,3.2025 -9.6859,7.2931 -11.6109,9.0901 -1.925,1.797 -7.2547,5.4318 -11.8438,8.0773 -4.589,2.6454 -11.114,6.8637 -14.5,9.3739 -19.8911,14.7463 -81.1356,42.76689 -109.6562,50.16979 -5.775,1.499 -14.55,3.9238 -19.5,5.3884 -6.9528,2.0572 -10.9334,2.6331 -17.5,2.5319 -4.675,-0.072 -11.65,0.576 -15.5,1.4401 -3.85,0.8641 -9.0979,1.5789 -11.662,1.5884 -2.5641,0.01 -8.1891,0.6923 -12.5,1.5172 -8.5475,1.6356 -23.5,1.8096 -29.838,0.3473 z m -0.5,-69.35959 c 6.875,-0.8101 15.875,-2.1202 20,-2.9113 4.125,-0.7912 9.75,-1.7216 12.5,-2.0677 4.5594,-0.5737 20.9536,-4.9547 53,-14.163 6.6,-1.8965 17.4,-5.4835 24,-7.9711 6.6,-2.4877 15.6,-5.7924 20,-7.3438 4.4,-1.5515 11.15,-4.263 15,-6.0257 3.85,-1.7626 10.96,-4.7286 15.8,-6.5912 4.8399,-1.8625 10.9149,-4.8417 13.5,-6.6205 2.585,-1.7787 8.7355,-4.974 13.6677,-7.1005 4.9322,-2.1266 10.1072,-4.6704 11.5,-5.6529 1.3928,-0.9826 5.2568,-3.1555 8.5868,-4.8288 3.33,-1.6733 7.8973,-4.5428 10.1496,-6.3767 2.2523,-1.8339 6.5028,-5.2471 9.4455,-7.585 2.9427,-2.3378 8.0504,-6.5447 11.3504,-9.3486 3.3,-2.8039 8.925,-7.463 12.5,-10.3535 3.575,-2.8905 8.3195,-7.0086 10.5433,-9.1514 2.2238,-2.1427 5.7518,-5.1848 7.84,-6.7602 5.1393,-3.8774 21.3119,-25.7348 22.4932,-30.3996 0.9633,-3.8043 2.0888,-20.0617 2.2682,-32.7655 0.089,-6.3152 -0.3083,-7.8396 -3.9115,-15 -6.5813,-13.0785 -24.7315,-37.1296 -40.4295,-53.5739 -5.519,-5.7814 -7.3589,-7.0018 -14.7806,-9.804 -12.6626,-4.781 -26.9154,-7.8368 -42.1394,-9.0347 -7.489,-0.5892 -17.164,-2.0436 -21.5,-3.232 -7.1795,-1.9676 -10.4295,-2.168 -36.3837,-2.2433 l -28.5,-0.083 -10,3.2037 c -5.5,1.7621 -17.2,4.8237 -26,6.8035 -8.8,1.9799 -21.625,4.9263 -28.5,6.5476 -6.875,1.6213 -17.45,4.1073 -23.5,5.5243 -6.05,1.417 -17.3,4.087 -25,5.9332 -7.7,1.8463 -19.4,4.553 -26,6.015 -15.0954,3.3437 -25.3361,7.269 -29.647,11.3635 -1.8441,1.7517 -6.953,4.9561 -11.353,7.1211 -13.5284,6.6564 -22.4531,11.9187 -36.278,21.3908 -7.303,5.0035 -16.753,11.4671 -21,14.3634 -4.2471,2.8964 -10.422,7.654 -13.722,10.5725 -3.3,2.9185 -9.2652,8.1096 -13.256,11.5359 -8.4748,7.2758 -13.5503,15.257 -21.3772,33.6157 l -5.1202,12.0098 -0.9396,15.9009 c -1.233,20.8667 0.8143,34.0702 8.6212,55.5991 2.1227,5.8539 12.6102,20.0384 21.0718,28.5 7.8415,7.8415 8.2179,8.0742 19,11.7449 17.434,5.9354 26.9965,7.6893 47.9336,8.7919 10.4135,0.5484 19.151,1.2145 19.4167,1.4802 1.1969,1.1969 57.3495,0.3609 69.1497,-1.0295 z M 67.28984,921.16191 C 77.01206,916.23721 88,905.26871 88,900.48841 c 0,-0.4872 -5.7375,-1.1823 -12.75,-1.5446 -30.10666,-1.5553 -44.05688,-2.6254 -46.54114,-3.5699 -3.12083,-1.1865 -4.76223,-5.7633 -2.59421,-7.2335 2.10353,-1.4265 60.23441,1.4137 64.53935,3.1533 2.84401,1.1493 5.346,-1.5601 5.346,-5.789 0,-3.5182 3.36685,-7.3904 5.66057,-6.5102 0.79266,0.3042 2.47124,-0.4147 3.73018,-1.5974 5.80724,-5.4556 24.38775,-6.2418 53.80601,-2.2768 3.13322,0.4223 6.54366,1.5343 7.57874,2.471 1.76154,1.5942 17.0945,1.7032 239.58337,1.7032 h 237.70139 l 5.93903,2.4997 c 3.26646,1.3748 8.8624,2.9137 12.43544,3.4197 3.57303,0.506 6.90959,1.1754 7.41458,1.4875 1.80286,1.1142 9.91983,-2.1862 18.21752,-7.4073 4.63824,-2.9185 9.36209,-5.868 10.49744,-6.5543 1.13535,-0.6864 4.46064,-3.4299 7.38954,-6.0967 7.32402,-6.6685 10.52967,-8.7159 20.72807,-13.2392 4.84997,-2.151 12.41812,-5.7169 16.81812,-7.9242 4.4,-2.2072 14.8503,-6.2791 23.22289,-9.0486 8.37261,-2.7695 18.73831,-6.581 23.03501,-8.4702 4.2967,-1.8891 12.2964,-4.8671 17.7771,-6.6177 8.9864,-2.8703 25.1178,-10.7037 32.965,-16.0078 1.65,-1.1152 4.0125,-2.0307 5.25,-2.0343 1.932,-0.01 2.2501,-0.5366 2.2508,-3.7566 9e-4,-4.3563 4.1684,-13.6638 9.892,-22.0922 4.3277,-6.3728 52.7175,-55.3822 68.1468,-69.0193 5.2032,-4.5989 13.2966,-10.9912 17.9854,-14.2052 4.6887,-3.214 13.0137,-9.9379 18.5,-14.9419 5.4862,-5.0041 15.2389,-12.679 21.6725,-17.0554 6.4337,-4.3764 12.0007,-8.4477 12.3713,-9.0473 0.8851,-1.4322 15.7497,-11.0029 22.038,-14.1895 2.7146,-1.3755 7.176,-4.3609 9.9144,-6.6341 2.7383,-2.2732 10.3788,-6.8872 16.9788,-10.2533 6.6,-3.3662 15.15,-8.0262 19,-10.3556 3.85,-2.3294 13.4429,-7.651 21.3175,-11.8258 7.8747,-4.1747 15.5297,-8.4535 17.0112,-9.5085 1.4816,-1.0549 6.5137,-3.6836 11.1825,-5.8415 9.3575,-4.3249 28.3023,-16.7621 28.8121,-18.915 0.1779,-0.751 -0.3846,-1.3654 -1.25,-1.3654 -0.8653,0 -1.5733,-0.6646 -1.5733,-1.4769 0,-0.8124 -1.1162,-2.2084 -2.4805,-3.1023 -1.9717,-1.2919 -2.2794,-2.001 -1.5,-3.4573 1.3906,-2.5983 1.2506,-2.9635 -1.1361,-2.9635 -1.6628,0 -1.998,-0.4536 -1.5635,-2.1152 0.3042,-1.1634 0.1821,-2.8509 -0.2715,-3.75 -0.4535,-0.8992 -2.0736,-4.1098 -3.6001,-7.1348 -3.468,-6.8723 -7.3205,-12.5765 -12.6458,-18.7241 -2.2754,-2.6267 -5.2536,-7.2509 -6.6182,-10.2759 -1.3646,-3.025 -2.6461,-5.6942 -2.8477,-5.9316 -0.2016,-0.2375 -1.8223,0.9186 -3.6016,2.569 -1.7792,1.6504 -5.26,3.8453 -7.735,4.8776 -2.475,1.0323 -5.625,2.6119 -7,3.5103 -1.375,0.8983 -5.0717,2.656 -8.2149,3.9059 -3.1432,1.2499 -7.7244,3.547 -10.1804,5.1045 -2.456,1.5576 -9.7843,5.724 -16.2851,9.2587 -15.9975,8.6985 -26.7359,14.9084 -39.823,23.0292 -19.8419,12.3122 -34.0519,20.4393 -47.628,27.2397 -7.3527,3.6831 -17.1936,9.141 -21.8686,12.1288 -13.3148,8.5094 -29.5427,18.0195 -41,24.0273 -5.775,3.0282 -13.425,7.2045 -17,9.2805 -3.575,2.076 -8.75,4.8208 -11.5,6.0995 -8.0777,3.7559 -42.5168,22.2613 -48.5,26.0608 -3.025,1.921 -14.95,8.3397 -26.5,14.2638 -30.8915,15.8445 -47.46517,24.9162 -61.61269,33.7238 -6.93698,4.3187 -12.99193,7.8522 -13.45544,7.8522 -1.20457,0 -47.43118,22.9177 -50.43187,25.0026 -5.46759,3.7988 -40.99724,20.9775 -48.74171,23.5668 -7.92031,2.6481 -8.31816,2.6864 -10.20215,0.9814 -1.8398,-1.665 -3.45586,-1.703 -26.2583,-0.6182 -23.94027,1.1391 -36.08076,2.2712 -44.66796,4.1656 -5.99917,1.3235 -45.96488,3.8944 -60.60311,3.8985 -24.61766,0.01 -86.93937,4.7186 -112.52677,8.5074 -9.1148,1.3496 -34.54551,2.7232 -74,3.9969 -10.175,0.3284 -22.775,1.0341 -28,1.5682 -13.50943,1.3808 -50.10807,2.9186 -80.56394,3.3852 -14.33516,0.2196 -29.63516,0.8566 -34,1.4156 -4.36483,0.5589 -11.20527,1.3132 -15.20097,1.6761 l -7.2649,0.6599 -3.62039,5.4543 c -2.49006,3.7515 -7.83436,8.8299 -17.11761,16.2661 -20.7503,16.6216 -27.76553,20.1935 -43.54666,22.1723 -9.13537,1.1454 -16.55223,3.8135 -31.18553,11.2183 -12.02067,6.0827 -23.04604,16.2053 -25.92148,23.7991 l -1.74793,4.616 3.25542,7.8199 c 4.51617,10.8483 17.71446,26.9956 25.5137,31.2145 7.80754,4.2233 22.39168,5.2913 28.69013,2.1009 z M 647.5,866.61531 c -1.1,-0.246 -6.19498,-1.8167 -11.32218,-3.4905 l -9.32217,-3.0433 -2.50977,2.3565 -2.50977,2.3565 -204.51683,-0.025 c -183.92024,-0.022 -204.63276,-0.1816 -205.66805,-1.5815 -0.63318,-0.8561 -2.65917,-1.8553 -4.5022,-2.2203 -3.29344,-0.6524 -16.48438,-8.5871 -20.89903,-12.5713 -2.48046,-2.2386 -3.08601,-7.5673 -0.95297,-8.3858 1.86199,-0.7146 12.38385,3.9082 17.95528,7.8885 2.61378,1.8674 5.31378,3.398 6,3.4014 0.68623,0 2.53376,0.6769 4.10562,1.4967 2.51419,1.3112 21.57808,1.403 158.5,0.7633 85.60314,-0.4 150.69207,-1.0481 144.64207,-1.4402 -6.05,-0.3921 -14.06241,-1.3791 -17.80535,-2.1932 -5.70846,-1.2418 -14.66803,-1.387 -55.58676,-0.9014 -44.99055,0.5341 -49.29965,0.4388 -55.45044,-1.2262 -5.3629,-1.4516 -8.77331,-1.6862 -17.41325,-1.1978 -8.77427,0.496 -11.47759,0.3007 -14.7442,-1.0651 -3.23358,-1.352 -7.54469,-1.6812 -22.5,-1.7182 -19.49764,-0.048 -23,-0.7372 -23,-4.5241 0,-2.2285 3.52328,-4.5804 4.49833,-3.0027 0.37561,0.6077 7.58805,1.0114 18.31069,1.0247 15.28027,0.019 18.26739,0.2836 21.92098,1.9421 4.00586,1.8185 6.54934,1.9015 48,1.5677 24.0735,-0.1938 53.895,-0.6634 66.27,-1.0435 20.44831,-0.628 23.59423,-0.4958 34.5,1.4496 10.07374,1.7969 17.54717,2.2395 46.5572,2.7573 33.425,0.5965 34.7889,0.5463 41.62959,-1.5314 3.88983,-1.1815 8.13909,-3.0168 9.44281,-4.0783 l 2.3704,-1.9301 -2.8151,-1.0777 c -3.79739,-1.4537 -5.32391,-1.3603 -8.16227,0.4994 -3.37982,2.2146 -6.80616,1.4966 -7.52663,-1.5771 l -0.586,-2.5 -188.455,-0.5 c -109.23136,-0.2898 -189.08558,-0.8792 -189.955,-1.4021 -3.91509,-2.3546 -4.94176,-3.8382 -3.9449,-5.7008 0.5449,-1.0182 1.88056,-2.3275 2.96813,-2.9095 1.37183,-0.7342 59.82244,-1.0422 190.86349,-1.0057 163.94743,0.046 188.95941,-0.1385 189.44144,-1.3947 0.30623,-0.798 2.55274,-1.7467 5.00816,-2.1149 3.90989,-0.5863 5.63986,-1.8206 14.18828,-10.1225 10.24734,-9.9519 13.60538,-11.4671 14.31349,-6.4583 0.62623,4.4296 -3.01598,10.4295 -10.73677,17.687 l -7.53037,7.0785 5.9374,2.7182 c 3.26557,1.495 6.73711,3.4419 7.71453,4.3265 1.83571,1.6613 2.33896,5.8655 0.96167,8.0339 -1.92549,3.0315 -11.63073,9.0842 -17.38137,10.84 l -6.30318,1.9246 14,0.5238 c 10.39413,0.3889 14.50804,0.1958 15.97251,-0.75 1.08487,-0.7006 3.22237,-1.2738 4.75,-1.2738 1.52762,0 2.77749,-0.294 2.77749,-0.6534 0,-0.3593 -2.21826,-2.9988 -4.92947,-5.8655 -5.62235,-5.9448 -6.65212,-9.3501 -5.74975,-19.0134 0.79378,-8.5004 3.83395,-14.5017 10.28621,-20.3049 2.96616,-2.6678 5.39301,-5.5887 5.39301,-6.4909 0,-0.9022 1.25183,-3.0414 2.78184,-4.7538 2.43628,-2.7266 3.58529,-3.1756 9.25,-3.6145 7.29443,-0.5651 17.6472,1.4717 24.02919,4.7275 2.21011,1.1275 7.38112,5.2443 11.49114,9.1485 6.33829,6.0207 7.71583,7.9345 9.07384,12.6059 1.98778,6.8377 1.47064,11.8408 -2.2059,21.3412 -2.25321,5.8225 -4.06977,8.5596 -8.63673,13.0136 -3.18086,3.1021 -5.78338,6.5199 -5.78338,7.595 0,4.597 -8.0809,8.3135 -17.71788,8.1487 -3.73017,-0.064 -7.68212,-0.3173 -8.78212,-0.5632 z m 17.79966,-16.9578 c 7.19008,-3.6778 10.46065,-7.2356 13.61331,-14.8086 4.79505,-11.5182 4.15297,-15.607 -3.62225,-23.0667 -6.42703,-6.1663 -11.69239,-9.1442 -18.23419,-10.3127 -5.27213,-0.9417 -5.52874,-0.881 -8.15275,1.928 -1.4901,1.5952 -3.17573,4.2384 -3.74584,5.8738 -0.9365,2.6864 -0.76206,3.1689 1.80712,4.9983 1.56403,1.1137 3.8163,2.0249 5.00505,2.0249 3.38465,0 6.02989,1.8648 6.02989,4.2508 0,1.2544 -2.01747,4.239 -4.75,7.0272 -4.5599,4.6527 -4.67231,4.9042 -2.80887,6.2843 2.56967,1.9032 10.89295,1.8334 14.67632,-0.123 1.65997,-0.8584 3.55013,-1.381 4.20034,-1.1612 1.91219,0.6462 -4.89849,3.7027 -9.72468,4.3642 -8.98073,1.2309 -14.67018,-1.6734 -13.0818,-6.6779 0.34216,-1.0781 2.61709,-3.3327 5.0554,-5.0103 6.7357,-4.6343 6.4601,-5.0096 -4.9683,-6.766 -7.32615,-1.1259 -8.55867,-2.0504 -8.5831,-6.4381 -0.0205,-3.6793 -1.17958,-3.4659 -5.03681,0.9273 -4.40981,5.0225 -5.9785,9.2216 -5.9785,16.0035 0,5.6957 0.0494,5.7919 5.75,11.1926 6.04433,5.7264 11.48119,8.6834 18.5197,10.0725 6.74777,1.3318 10.59953,1.1718 14.02996,-0.5829 z m 9.50034,-22.563 c 2.19902,-2.199 1.2423,-4.3852 -3.32924,-7.6075 -3.15635,-2.2248 -5.67221,-3.1925 -8.3,-3.1925 -4.09746,0 -6.17076,-1.3993 -6.17076,-4.1648 0,-5.4102 9.65286,-4.0399 16.59064,2.3551 3.50124,3.2273 4.40936,4.7443 4.40936,7.3656 0,2.9337 -2.0545,6.4441 -3.77143,6.4441 -0.34571,0 -0.0886,-0.54 0.57143,-1.2 z m 33.2,-5.2493 c 0,-2.874 86.5738,-60.9051 130.2195,-87.2871 8.4043,-5.0801 21.5805,-13.4465 29.2805,-18.592 7.7,-5.1456 18.6738,-12.395 24.3863,-16.1099 5.7125,-3.7148 13.6601,-9.2984 17.6614,-12.408 4.0014,-3.1095 11.7025,-8.432 17.1137,-11.8278 5.4112,-3.3958 11.6386,-7.7973 13.8386,-9.7812 l 4,-3.6072 -9,4.3814 c -4.95,2.4098 -15.5007,7.2361 -23.4461,10.7252 -7.9453,3.4891 -20.9885,10.2757 -28.9849,15.0815 -7.9964,4.8058 -14.6924,8.5843 -14.88,8.3968 -0.5342,-0.5343 8.3145,-8.4324 15.0828,-13.4625 3.3747,-2.5079 11.7816,-7.5139 18.682,-11.1245 17.8936,-9.3624 36.2417,-19.4373 45.6775,-25.0811 4.4722,-2.675 13.0222,-7.1254 19,-9.8898 5.9778,-2.7644 16.0437,-7.6594 22.3687,-10.8778 6.325,-3.2184 13.8795,-6.6213 16.7878,-7.5621 3.196,-1.0338 5.9132,-2.6648 6.8685,-4.1228 0.8694,-1.3268 3.786,-3.8414 6.4813,-5.5879 6.3788,-4.1334 5.1055,-5.7021 -2.8343,-3.4919 -3.1918,0.8885 -6.7033,1.5907 -7.8033,1.5605 -1.1,-0.03 -3.0125,0.2613 -4.25,0.6479 -1.8052,0.5639 -2.25,0.3168 -2.25,-1.2502 0,-2.7369 9.2726,-7.2464 16.4164,-7.9837 4.9796,-0.514 5.9422,-0.3083 8.1166,1.7345 1.3569,1.2747 2.467,3.3642 2.467,4.6433 0,2.8914 -0.02,2.8927 5.3079,-0.3256 8.0839,-4.8829 12.4265,-15.9099 9.9826,-25.3487 -0.8064,-3.1146 -1.3128,-3.5342 -4.5983,-3.8104 -2.1254,-0.1786 -6.8399,0.7761 -11.1101,2.25 -7.1975,2.4843 -14.5821,3.3799 -14.5821,1.7686 0,-0.4355 1.9125,-2.6615 4.25,-4.9468 6.0345,-5.8996 11.7239,-8.2135 20.25,-8.2357 12.3269,-0.032 15.4736,3.7668 15.6148,18.8515 0.079,8.4343 -0.3588,9.9861 -4.9196,17.4373 -2.4638,4.0251 -4.9648,6.6216 -8.1271,8.4373 -2.5125,1.4426 -5.9874,3.8369 -7.7221,5.3207 -3.0338,2.595 -15.5814,10.4417 -28.8843,18.0629 -3.4901,1.9994 -10.1966,5.2893 -14.9033,7.3109 -12.509,5.3728 -33.7725,16.827 -43.3708,23.3631 -4.5962,3.1298 -12.7576,8.4438 -18.1365,11.8089 -5.3789,3.365 -12.6872,8.3466 -16.2405,11.0701 -3.5534,2.7235 -10.2519,7.4346 -14.8857,10.4692 -32.1155,21.0319 -49.5608,32.17 -56.9249,36.3442 -4.675,2.6499 -13.675,8.2663 -20,12.4809 -6.325,4.2147 -18.025,11.6407 -26,16.5023 -7.975,4.8616 -18.325,11.3927 -23,14.5135 -49.79067,33.2383 -63,41.5312 -63,39.5522 z m -62,-39.6436 c 6.87954,-4.5039 12.62353,-6.1503 32.64037,-9.3559 20.24487,-3.242 20.17611,-3.2195 31.28145,-10.25 17.17949,-10.8758 37.14109,-24.3242 43.57818,-29.3591 3.3,-2.5812 11.9083,-8.5293 19.1295,-13.2181 7.2213,-4.6888 15.5629,-10.7286 18.5368,-13.4218 10.0896,-9.1372 18.0803,-14.3325 50.8337,-33.0507 9.075,-5.1863 20.775,-12.2584 26,-15.7158 5.225,-3.4574 13.6547,-8.3679 18.7326,-10.9123 5.078,-2.5443 11.828,-6.2902 15,-8.3241 8.6695,-5.559 40.4446,-21.2879 43.0174,-21.294 1.2848,0 2.25,0.6069 2.25,1.4219 0,2.5163 -7.0374,7.3416 -21.4501,14.7077 -7.7274,3.9493 -16.2999,8.5956 -19.0499,10.3251 -2.75,1.7294 -9.5,5.5511 -15,8.4927 -5.5,2.9415 -12.7,7.2319 -16,9.5341 -3.3,2.3022 -11.4,7.3586 -18,11.2363 -45.4037,26.6766 -56.9714,33.8345 -64.503,39.9137 -4.6767,3.7748 -12.1017,9.0841 -16.5,11.7986 -4.3984,2.7145 -17.897,11.5163 -29.997,19.5595 -12.1,8.0433 -24.8125,16.3488 -28.25,18.4568 -5.14989,3.158 -6.25,4.3027 -6.25,6.5033 0,3.4234 -4.11987,7.2907 -10,9.387 -6.79248,2.4216 -40.27563,6.7446 -49.5,6.391 -2.75,-0.1055 -6.8,0.1731 -9,0.6189 -3.98447,0.8074 -3.97476,0.7941 2.5,-3.4448 z m 169.5,-48.4092 c 2.8791,-2.3758 7.5,-4.6868 7.5,-3.751 0,0.4391 -1.6875,1.6644 -3.75,2.7229 -5.2806,2.7101 -6.0409,2.9186 -3.75,1.0281 z m 25.8591,-26.2699 c 0.7912,-1.2802 6.6409,-5.6094 6.6409,-4.9148 0,0.2472 -1.652,1.7095 -3.6711,3.2495 -2.0192,1.5401 -3.3556,2.2895 -2.9698,1.6653 z M 849,701.86491 c 0,-0.275 0.9,-0.9817 2,-1.5704 1.1,-0.5887 2,-0.8454 2,-0.5704 0,0.275 -0.9,0.9817 -2,1.5704 -1.1,0.5887 -2,0.8454 -2,0.5704 z m 20.0502,-13.1309 c 1.128,-1.3591 12.7555,-9.2404 32.1248,-21.7745 3.1212,-2.0198 10.3582,-7.187 16.0821,-11.4827 14.0828,-10.5689 29.3576,-20.0475 46.7429,-29.0057 7.975,-4.1094 17.1356,-8.9942 20.3569,-10.8553 6.3335,-3.6591 12.743,-6.5547 13.2927,-6.005 1.0214,1.0214 -6.1961,5.682 -23.6496,15.2716 -23.4811,12.9014 -43.204,25.0819 -51.8935,32.0485 -3.5237,2.8251 -9.8266,7.0529 -14.0066,9.3952 -4.1799,2.3424 -13.2249,7.9578 -20.0999,12.4788 -16.0375,10.5462 -22.0969,13.7211 -18.9498,9.9291 z M 732.5,869.85911 c 4.4,-0.8222 10.1432,-1.5105 12.76266,-1.5297 2.61946,-0.019 8.01042,-0.9349 11.9799,-2.0349 3.96948,-1.1 9.30484,-2 11.85634,-2 5.9824,0 18.3038,-2.173 33.4011,-5.8907 6.6,-1.6252 16.275,-3.7131 21.5,-4.6397 5.225,-0.9266 15.35,-2.9714 22.5,-4.5439 10.938,-2.4056 39.7205,-7.5733 66.5,-11.9396 3.575,-0.5829 10.775,-1.9321 16,-2.9981 16.2152,-3.3084 41.4727,-7.8219 66.7225,-11.9233 13.3224,-2.164 24.8265,-4.3013 25.5647,-4.7496 2.3366,-1.419 19.7944,-16.5018 28.7226,-24.8151 4.7254,-4.4 13.0688,-12.0188 18.5409,-16.9307 17.6867,-15.876 34.7038,-31.8233 45.4493,-42.592 5.775,-5.7875 14.5036,-14.225 19.397,-18.75 4.8933,-4.525 8.2425,-8.2273 7.4427,-8.2273 -3.2727,0 -35.3799,4.1758 -49.8397,6.4821 -20.8423,3.3242 -49.4612,5.6943 -64.3286,5.3274 -6.6943,-0.1652 -19.8214,0.2534 -29.1714,0.9302 -9.35,0.6769 -23.975,1.7326 -32.5,2.3461 -8.525,0.6135 -19.8858,1.9817 -25.2461,3.0404 -9.1274,1.8027 -9.9072,1.8195 -12.2822,0.2633 l -2.536,-1.6616 -12.7178,12.2747 c -25.4915,24.6033 -46.9327,46.9683 -51.438,53.654 -2.5364,3.7639 -6.176,8.3473 -8.0882,10.1854 -3.0444,2.9264 -3.4145,3.8056 -2.9766,7.0705 0.4355,3.2466 0.098,4.067 -2.6106,6.3461 -2.9784,2.5062 -18.4272,11.53 -22.6045,13.2036 -11.0282,4.4184 -79.2917,27.5378 -81.3093,27.5378 -0.84978,0 -2.70282,1.2941 -4.11787,2.8758 -1.41506,1.5817 -6.09919,4.3801 -10.40918,6.2187 -4.30999,1.8385 -9.48499,4.8478 -11.5,6.6872 l -3.66365,3.3444 5.5,-0.5333 c 3.025,-0.2934 9.1,-1.206 13.5,-2.0282 z m 119.7,-54.7646 c -3.6108,-3.6108 0.9525,-6.8825 16.3,-11.6866 14.7189,-4.6074 37.6589,-10.2729 50.9377,-12.5802 24.7451,-4.2996 42.2651,-8.0689 53.6248,-11.537 6.9093,-2.1093 14.2268,-4.1474 16.261,-4.5291 2.0342,-0.3816 3.9471,-1.096 4.2509,-1.5875 1.0805,-1.7483 -2.7381,-2.0981 -10.3518,-0.9484 -4.2474,0.6413 -16.9476,2.2417 -28.2226,3.5562 -13.2338,1.543 -26.3484,3.7988 -37,6.3643 -9.075,2.1858 -21,4.7247 -26.5,5.642 -5.5,0.9173 -12.8652,2.3286 -16.3671,3.1361 -5.8437,1.3475 -6.5219,1.3281 -8.25,-0.2358 -5.0302,-4.5522 0.2654,-7.8336 18.4377,-11.4251 7.8072,-1.5429 21.8118,-4.6725 31.1214,-6.9547 9.3096,-2.2821 22.5812,-4.7793 29.4923,-5.5492 6.9111,-0.77 17.7407,-2.1384 24.0657,-3.0409 17.1961,-2.4538 24.5539,-2.8089 29.5008,-1.4239 7.455,2.0873 8.6208,4.9395 5.8548,14.3244 -0.6075,2.0614 -6.6643,4.8995 -16.317,7.6459 -3.5962,1.0232 -11.0386,3.2173 -16.5386,4.8758 -8.5257,2.5709 -20.5247,4.9738 -56,11.2145 -10.1326,1.7824 -33.7725,7.7739 -47.1934,11.9609 -13.9006,4.3368 -15.3179,4.567 -17.1066,2.7783 z m 228.3133,34.8156 c 2.7427,-1.8614 8.3617,-6.4106 12.4867,-10.1094 12.2809,-11.0118 26.9722,-21.5799 35.52,-25.551 26.7659,-12.4349 47.7787,-18.8507 68.5429,-20.9283 5.8096,-0.5813 15.0346,-2.1698 20.5,-3.5301 13.7709,-3.4273 21.7866,-3.3043 32.7752,0.5032 10.9072,3.7793 17.0997,3.846 29.5303,0.3184 9.9637,-2.8275 12.1444,-4.1167 26.7587,-15.8184 19.9305,-15.9585 38.8413,-30.7262 43.0874,-33.6476 2.4911,-1.7139 12.5645,-6.3786 22.3853,-10.3659 25.8469,-10.494 30.0415,-13.6046 38.6354,-28.651 4.8359,-8.4666 7.401,-17.4301 7.6147,-26.6083 0.1464,-6.2842 0.056,-6.5253 -3.6285,-9.7164 -5.9849,-5.1828 -12.9812,-5.3217 -16.0871,-0.3193 -1.3229,2.1305 1.3603,5.3616 6.0954,7.34 2.9821,1.246 3.2681,1.7455 3.2459,5.6675 -0.035,6.0744 -1.361,11.1329 -5.5322,21.0972 -3.2647,7.799 -4.2177,9.1164 -9.4303,13.0347 -3.1892,2.3974 -10.4594,6.2875 -16.1558,8.6446 -25.6514,10.6143 -29.6392,12.9582 -52.0837,30.6127 -11.7005,9.2035 -24.0458,19.3599 -27.4341,22.5699 -6.478,6.137 -10.8565,8.4602 -22.0375,11.6928 -12.1157,3.5028 -17.0097,3.6076 -26.9467,0.5766 -7.798,-2.3785 -9.8247,-2.6169 -17.3426,-2.0394 -4.682,0.3597 -11.2127,1.3178 -14.5127,2.1291 -3.3,0.8113 -12.3,2.1509 -20,2.9769 -18.0784,1.9393 -30.8536,5.0913 -48.4664,11.9581 -19.331,7.5366 -27.6272,12.0356 -41.0826,22.2791 -19.9235,15.1677 -33.0634,24.2687 -35.0389,24.2687 -1.6517,0 -1.9231,-0.783 -1.993,-5.75 l -0.081,-5.75 -1.8928,4 c -5.3193,11.2409 1.8138,16.4145 12.568,9.1156 z m -14.9183,-13.7406 c 1.0478,-1.1688 5.28,-4.8399 9.405,-8.158 9.904,-7.9668 19.3101,-17.1004 23.6568,-22.9714 1.936,-2.6149 3.9231,-4.5052 4.4159,-4.2007 1.2328,0.762 32.9273,-31.0973 32.9273,-33.0985 0,-2.4648 -6.4339,1.6692 -12.3364,7.9265 l -4.8364,5.1271 4.3364,-5.6665 c 2.8559,-3.7319 6.5471,-6.9753 10.8117,-9.5 3.5615,-2.1084 10.5425,-7.8835 15.5135,-12.8335 10.5062,-10.4619 21.5741,-18.0948 37.5855,-25.9204 13.6126,-6.6533 35.0376,-14.5849 47.1815,-17.4669 4.8156,-1.1429 10.6266,-3.0324 12.9132,-4.1989 2.2866,-1.1666 5.7715,-2.1071 7.7442,-2.0901 5.4777,0.047 10.0868,-0.8069 10.0868,-1.869 0,-0.5251 -0.675,-0.9547 -1.5,-0.9547 -2.2824,0 -1.7897,-1.9281 0.75,-2.9347 33.0353,-13.0948 43.5006,-16.5583 45.2,-14.9592 1.506,1.4171 4.7651,1.0721 15.4965,-1.6408 5.5147,-1.394 17.7952,-4.2764 27.2901,-6.4053 9.4949,-2.1288 21.0884,-5.2506 25.7634,-6.9373 4.675,-1.6867 12.775,-4.4359 18,-6.1093 5.225,-1.6735 7.925,-2.7903 6,-2.4818 -1.925,0.3084 -10.7,0.9643 -19.5,1.4574 -28.9838,1.6241 -69.0998,11.0402 -96.3481,22.6152 -5.6915,2.4177 -11.4812,4.3958 -12.8661,4.3958 -3.1592,0 -11.8758,6.3064 -13.7644,9.9586 -1.5654,3.0271 -1.5474,3.0238 -27.8007,5.0759 -9.4172,0.736 -14.1296,1.7069 -23.5,4.8414 -21.6315,7.2359 -33.5156,13.6092 -49.9074,26.7645 -11.064,8.8795 -18.6059,16.638 -32.9143,33.8596 -5.9406,7.15 -13.8865,16.6857 -17.6577,21.1905 -6.9785,8.3361 -20.4113,21.8108 -31.2413,31.3388 -3.3,2.9033 -6.7904,6.0938 -7.7565,7.0899 -2.3578,2.4311 -6.7435,8.948 -6.7435,10.0203 0,1.5035 1.6265,0.9314 3.595,-1.2645 z M 1110,789.98161 c 0,-0.1721 1.4625,-1.6346 3.25,-3.25 l 3.25,-2.9371 -2.9371,3.25 c -2.7378,3.0295 -3.5629,3.7097 -3.5629,2.9371 z m -34.0315,20.2521 c 8.5302,-7.4934 15.0315,-13.8374 15.0315,-14.668 0,-1.1488 -21.7124,18.1626 -24.9925,22.2288 -2.9279,3.6297 -1.8243,2.792 9.961,-7.5608 z m 805.6938,-13.1892 c -0.2774,-0.6875 -0.5044,-0.125 -0.5044,1.25 0,1.375 0.227,1.9375 0.5044,1.25 0.2774,-0.6875 0.2774,-1.8125 0,-2.5 z M 346.5,775.36141 c 9.9,-0.4729 24.71651,-1.7851 32.92557,-2.9159 8.20906,-1.1309 19.14797,-2.366 24.30868,-2.7449 5.16072,-0.3788 9.01921,-1.0227 8.57443,-1.4308 -0.44477,-0.4081 -5.03448,-2.3957 -10.19934,-4.4169 -10.16011,-3.976 -22.06076,-9.7161 -26.19344,-12.6339 -1.42125,-1.0034 -6.30965,-3.1841 -10.8631,-4.8459 -4.55346,-1.6618 -8.84915,-3.4946 -9.54599,-4.0729 -1.81412,-1.5056 -23.78762,-12.6502 -26.62657,-13.5046 -1.30913,-0.394 -5.03615,-2.0458 -8.28226,-3.6708 -3.24612,-1.6249 -8.40235,-3.4166 -11.45829,-3.9815 -6.51076,-1.2036 -8.44285,-2.4038 -12.86403,-7.9908 -3.66337,-4.6294 -4.19364,-8.7252 -1.85444,-14.3237 2.12641,-5.0892 5.85856,-6.538 16.77912,-6.5133 6.84265,0.015 11.41329,0.6502 17.29966,2.4027 17.00374,5.0624 40.63865,14.7164 51.37934,20.9867 4.64916,2.7141 11.32496,5.4705 17.12066,7.069 11.86407,3.2721 27.67975,8.8064 33.16786,11.6062 6.81351,3.476 22.42406,9.6183 36.83214,14.4923 12.58002,4.2556 26.16464,10.9929 28.51682,14.143 1.4037,1.8799 34.87516,0.056 49.98318,-2.7236 6.05,-1.1131 18.875,-2.4891 28.5,-3.0578 9.625,-0.5686 22.42683,-1.4307 28.44851,-1.9156 11.1148,-0.8952 13.75583,-0.4532 16.07514,2.6901 0.85842,1.1634 2.05665,1.016 7.42354,-0.9133 3.51994,-1.2654 6.5715,-2.8248 6.78123,-3.4653 0.23769,-0.726 -4.63039,-2.6963 -12.92354,-5.2307 -7.31769,-2.2363 -16.00488,-4.9352 -19.30488,-5.9974 -3.3,-1.0623 -7.35,-2.217 -9,-2.5661 -1.65,-0.349 -5.25,-1.5054 -8,-2.5698 -10.8322,-4.1924 -44.71611,-15.9348 -57.5,-19.9266 -7.425,-2.3184 -16.65,-5.5732 -20.5,-7.2329 -14.51536,-6.2574 -30.23345,-11.966 -36.77192,-13.355 -3.72456,-0.7912 -8.63293,-2.388 -10.90749,-3.5484 -2.27457,-1.1604 -6.4272,-2.7823 -9.22808,-3.6042 -2.80088,-0.8219 -7.11751,-2.5623 -9.59251,-3.8676 -5.85169,-3.086 -24.10658,-9.0213 -30.5,-9.9166 -5.71912,-0.8009 -18.96943,-6.014 -28.5,-11.2129 -7.48551,-4.0833 -36.93246,-15.8244 -43.83778,-17.4789 -5.43655,-1.3027 -25.41658,-7.8349 -32.66222,-10.6786 -6.0645,-2.3802 -14.31711,-4.1119 -25,-5.246 -4.4,-0.4671 -12.275,-1.334 -17.5,-1.9264 -25.01612,-2.8363 -26.41867,-2.6793 -42.5,4.7572 -11.79504,5.4544 -22.37864,12.2339 -31.22996,20.005 -7.94356,6.974 -20.79888,21.9461 -25.12366,29.2605 -1.78859,3.025 -5.27291,8.425 -7.74293,12 -3.5766,5.1766 -4.43114,7.2126 -4.1972,10 0.27807,3.3132 0.60069,3.5972 6.04375,5.3201 6.01078,1.9026 6.92548,3.0999 4.00157,5.2379 -0.96163,0.7032 -1.52413,1.4854 -1.25,1.7383 0.91116,0.8405 43.38203,21.4187 50.49843,24.4677 3.85,1.6496 8.8,3.5553 11,4.2349 2.2,0.6796 7.375,2.6868 11.5,4.4605 4.125,1.7736 9.66875,3.7602 12.31944,4.4146 2.65069,0.6544 8.72569,2.924 13.5,5.0437 4.77431,2.1197 11.74365,4.8505 15.48743,6.0686 3.74378,1.218 7.93688,3.2619 9.318,4.5418 1.80956,1.6771 4.23825,2.5133 8.69313,2.993 3.4001,0.3662 7.532,1.2925 9.182,2.0585 3.13856,1.4571 5.25783,1.4335 46,-0.5127 z m 123.75,-10.0617 c 3.1625,0 5.75,-0.3848 5.75,-0.8487 0,-0.8033 -15.12777,-7.1565 -17.0403,-7.1565 -0.50182,0 -3.96054,2.0774 -7.68605,4.6163 l -6.77365,4.6164 10,-0.6112 c 5.5,-0.3361 12.5875,-0.6135 15.75,-0.6163 z m -35.93427,-6.4681 c 4.29865,-0.7663 8.98917,-2.1621 10.42337,-3.1018 2.4671,-1.6165 2.50943,-1.7804 0.78544,-3.041 -1.0022,-0.7328 -4.11771,-2.0836 -6.92336,-3.0016 -2.80565,-0.9181 -7.23185,-2.7361 -9.836,-4.0401 -6.59585,-3.3028 -22.7277,-9.0083 -32.26518,-11.4116 -9.81328,-2.4728 -14.97306,-4.5939 -23.98382,-9.8595 -3.8301,-2.2382 -9.2256,-4.8094 -11.99,-5.7138 -2.7644,-0.9043 -7.06589,-2.6651 -9.55887,-3.9127 -8.29602,-4.1519 -29.01948,-10.5485 -37.19532,-11.481 -7.65543,-0.8731 -11.77199,-0.2133 -11.77199,1.8869 0,2.2697 5.36335,5.3907 11.45326,6.6649 3.67963,0.7699 8.12045,2.2652 9.86849,3.323 1.74804,1.0577 4.30325,2.2377 5.67825,2.6221 3.15475,0.882 28.98539,13.3834 31,15.0033 0.825,0.6633 4.425,2.2411 8,3.5062 3.575,1.2651 9.425,3.9056 13,5.8679 11.89674,6.53 20.39498,10.3828 31.5,14.2813 12.48491,4.3828 11.40342,4.2635 21.81573,2.4075 z M 1522.5,642.16041 c 3.85,-0.6019 14.4186,-1.1555 23.4858,-1.2302 14.3417,-0.118 16.5265,-0.3466 16.7987,-1.7576 0.4253,-2.205 -6.4611,-4.879 -12.5547,-4.875 -5.1644,0 -39.1964,6.174 -43.2298,7.8385 -2.1589,0.8909 -1.7495,1.0376 3,1.0752 3.025,0.024 8.65,-0.4489 12.5,-1.0509 z m 46.25,-34.5552 c -0.9625,-0.2516 -2.5375,-0.2516 -3.5,0 -0.9625,0.2515 -0.175,0.4573 1.75,0.4573 1.925,0 2.7125,-0.2058 1.75,-0.4573 z m -421.5992,-89.8174 c 4.2356,-3.5685 7.431,-5.159 15.3492,-7.6405 5.5,-1.7236 14.5,-4.882 20,-7.0187 5.5,-2.1367 16.1556,-5.6524 23.6792,-7.8128 10.0435,-2.884 17.3278,-5.8059 27.4074,-10.9938 8.4245,-4.336 18.6266,-8.6101 26.4069,-11.063 19.4599,-6.1352 30.5091,-13.6496 31.6298,-21.511 l 0.5637,-3.9535 -2.5257,3.0707 c -3.2027,3.8939 -12.8644,8.3384 -28.1613,12.9544 -20.6016,6.2168 -30.3448,10.6422 -44.3488,20.1436 -3.4919,2.3691 -8.2169,4.7573 -10.5,5.3071 -2.2832,0.5498 -10.2262,3.0698 -17.6512,5.5999 -7.425,2.5301 -18.225,6.0626 -24,7.8501 -12.6976,3.9302 -15.9217,5.5391 -21.6144,10.7864 -4.0722,3.7537 -5.3331,6.507 -3.7189,8.1211 1.184,1.1841 2.0452,0.7422 7.4841,-3.84 z M 1142,512.88911 c 0,-0.2229 -1.6016,-2.3224 -3.5592,-4.6654 -1.9575,-2.3431 -4.1972,-5.171 -4.977,-6.2843 -1.9984,-2.8532 -2.9798,-1.3048 -1.4752,2.3276 1.7027,4.1106 10.0114,11.2663 10.0114,8.6221 z m -3.7159,-35.5023 c 4.5811,-4.2227 9.2915,-12.8093 12.6213,-23.0075 2.5898,-7.9317 2.6287,-11.3131 0.1902,-16.5191 -1.0474,-2.2361 -2.7999,-6.0907 -3.8943,-8.5657 -1.0945,-2.475 -4.7299,-7.875 -8.0787,-12 -3.3489,-4.125 -6.0964,-7.9966 -6.1057,-8.6034 -0.021,-1.3712 11.8269,-3.3966 19.8685,-3.3966 4.045,0 8.3813,0.8791 13.3074,2.6977 6.5963,2.4352 8.283,3.6788 17.3371,12.7816 10.1237,10.1782 15.7037,13.9362 19.7575,13.3061 1.7889,-0.278 1.2982,-0.7605 -2.5631,-2.5197 -3.2827,-1.4957 -8.0629,-5.592 -15.2912,-13.1035 -16.7697,-17.4266 -24.3347,-20.1549 -47.6485,-17.1838 -9.4427,1.2034 -10.0014,1.1695 -12.0924,-0.7348 -2.7795,-2.5314 -10.3429,-7.2436 -11.6263,-7.2436 -0.5357,0 0.126,2.3625 1.4703,5.25 1.3444,2.8875 2.4487,5.762 2.454,6.3878 0.03,3.5176 14.4178,21.2218 21.2144,26.1047 2.6383,1.8954 4.5357,3.8686 4.2166,4.385 -0.3191,0.5164 -0.7792,2.6114 -1.0225,4.6557 -1.2097,10.1671 -6.5024,22.332 -12.9245,29.7059 -8.2208,9.4391 -0.4538,16.1422 8.8099,7.6032 z m 207.9342,-48.4459 c 6.2049,-2.3945 13.5317,-4.9148 16.2817,-5.6005 2.75,-0.6858 10.8983,-4.0995 18.1074,-7.586 12.1805,-5.8907 13.9131,-7.0989 24.5,-17.0832 26.8205,-25.294 65.8768,-65.41211 68.2565,-70.11202 1.3268,-2.62057 4.3705,-12.86468 6.7637,-22.76468 4.07,-16.83626 4.3514,-18.90513 4.3526,-32 0,-13.81236 -0.04,-14.07372 -3.1023,-19.5 -3.1674,-5.61316 -6.552,-7.5946 -7.7298,-4.52527 -0.3336,0.86926 0.036,4.38055 0.8221,7.80287 3.117,13.57575 2.9728,19.83688 -0.8833,38.35228 -4.1969,20.15151 -6.5887,28.28567 -9.3493,31.79519 -1.1079,1.40849 -6.942,7.85155 -12.9646,14.31791 -6.0225,6.46632 -14.5559,15.80702 -18.963,20.75702 -4.407,4.95 -12.4904,13.275 -17.963,18.5 -8.4655,8.0825 -12.0315,10.6373 -23.8986,17.1217 -7.6716,4.192 -16.819,9.0521 -20.3275,10.8004 -3.5085,1.7483 -8.9085,4.8812 -12,6.962 -3.0915,2.0809 -10.2167,6.3492 -15.8338,9.4851 -16.1193,8.9992 -14.4667,10.3769 3.9312,3.2772 z m -71.2362,-46.8336 c 7.9652,-1.6271 21.9152,-5.4606 31,-8.5189 48.5817,-16.3547 68.2941,-29.3746 78.417,-51.7939 1.4901,-3.3 4.0073,-7.35 5.594,-9 5.101,-5.3048 12.6371,-24.83001 15.6317,-40.5 2.2587,-11.81913 3.6088,-30.50682 3.0706,-42.5 -0.5584,-12.44065 -4.9915,-33.77355 -9.6986,-46.67132 -5.5928,-15.32465 -19.1656,-37.3563 -27.8402,-45.19076 -1.4295,-1.29108 -1.9143,-2.67097 -1.5808,-4.5 0.9792,-5.37029 -0.761,-7.86296 -10.5758,-15.14912 -14.9605,-11.10615 -25.6862,-15.49811 -46.1834,-18.91125 -3.6759,-0.6121 -10.2009,-2.79245 -14.5,-4.84523 L 1290.5,90.79451 H 1275 c -25.0039,0 -59.3495,2.15219 -70,4.38638 -12.3792,2.59683 -23.5536,6.33155 -33.6115,11.23363 -9.5998,4.67883 -24.7994,14.03224 -28.5396,17.56238 -2.8884,2.7263 -4.2286,7.14392 -2.7205,8.96795 0.6495,0.78559 -0.7262,3.11816 -4.3387,7.35652 -2.9093,3.4134 -6.3739,7.84574 -7.699,9.84966 -1.3251,2.00391 -3.6149,5.44348 -5.0885,7.64348 -5.2702,7.86868 -9.3032,18.01789 -14.5068,36.50696 -4.2898,15.24235 -5.4926,24.27362 -5.494,41.25381 0,18.70846 1.964,32.50478 5.9437,41.71632 1.55,3.5876 3.3687,8.32291 4.0415,10.52291 1.3607,4.44862 6.7561,17.7373 11.0108,27.11918 1.5263,3.36554 5.6388,10.27166 9.1388,15.34692 3.5001,5.07526 8.0198,11.68167 10.0438,14.6809 2.024,2.9993 6.3501,7.7931 9.6137,10.6531 8.8625,7.7664 25.0087,18.817 30.5961,20.94 2.7089,1.0293 6.1697,2.515 7.6908,3.3016 4.5727,2.3646 21.4081,4.6955 38.9194,5.3883 21.5449,0.8525 27.6044,0.4326 44.9821,-3.1172 z m 203.6802,-213.0628 c -0.2774,-0.6875 -0.5044,-0.125 -0.5044,1.25 0,1.375 0.227,1.9375 0.5044,1.25 0.2774,-0.6875 0.2774,-1.8125 0,-2.5 z m -3.3172,-9.29313 c -0.3257,-0.84872 -0.8066,-1.32866 -1.0688,-1.06653 -0.2621,0.26213 -0.18,0.95654 0.1826,1.54313 0.986,1.59546 1.5624,1.28551 0.8862,-0.4766 z"
     id="path19212" />
</svg>
